Mais	mais	CONcoo	MODE=x	TEMPS=x	PERS.=x	NOMB.=x	GENRE=x	CAS=x
,	,	PONfbl	MODE=x	TEMPS=x	PERS.=x	NOMB.=x	GENRE=x	CAS=x
c'	ce	PROdem	MODE=x	TEMPS=x	PERS.=x	NOMB.=s	GENRE=n	CAS=x
est	être	VERcjg	MODE=ind	TEMPS=pst	PERS.=3	NOMB.=s	GENRE=x	CAS=x
le	le	DETdef	MODE=x	TEMPS=x	PERS.=x	NOMB.=s	GENRE=m	CAS=x
Gouverneur	gouverneur	NOMcom	MODE=x	TEMPS=x	PERS.=x	NOMB.=s	GENRE=m	CAS=x
.	.	PONfrt	MODE=x	TEMPS=x	PERS.=x	NOMB.=x	GENRE=x	CAS=x
Hé	hé	INJ	MODE=x	TEMPS=x	PERS.=x	NOMB.=x	GENRE=x	CAS=x
bien	bien	ADVgen	MODE=x	TEMPS=x	PERS.=x	NOMB.=x	GENRE=x	CAS=x
,	,	PONfbl	MODE=x	TEMPS=x	PERS.=x	NOMB.=x	GENRE=x	CAS=x
que	que	PROint	MODE=x	TEMPS=x	PERS.=x	NOMB.=x	GENRE=x	CAS=x
fait	faire	VERcjg	MODE=ind	TEMPS=pst	PERS.=3	NOMB.=s	GENRE=x	CAS=x
cela	cela	PROdem	MODE=x	TEMPS=x	PERS.=x	NOMB.=s	GENRE=n	CAS=x
?	?	PONfrt	MODE=x	TEMPS=x	PERS.=x	NOMB.=x	GENRE=x	CAS=x
Comment	comment	ADVint	MODE=x	TEMPS=x	PERS.=x	NOMB.=x	GENRE=x	CAS=x
,	,	PONfbl	MODE=x	TEMPS=x	PERS.=x	NOMB.=x	GENRE=x	CAS=x
que	que	PROint	MODE=x	TEMPS=x	PERS.=x	NOMB.=x	GENRE=x	CAS=x
fait	faire	VERcjg	MODE=ind	TEMPS=pst	PERS.=3	NOMB.=s	GENRE=x	CAS=x
cela	cela	PROdem	MODE=x	TEMPS=x	PERS.=x	NOMB.=s	GENRE=n	CAS=x
?	?	PONfrt	MODE=x	TEMPS=x	PERS.=x	NOMB.=x	GENRE=x	CAS=x
Si	si	CONsub	MODE=x	TEMPS=x	PERS.=x	NOMB.=x	GENRE=x	CAS=x
je	je	PROper	MODE=x	TEMPS=x	PERS.=1	NOMB.=s	GENRE=x	CAS=n
…	…	PONfrt	MODE=x	TEMPS=x	PERS.=x	NOMB.=x	GENRE=x	CAS=x
Laissez	laisser	VERcjg	MODE=imp	TEMPS=x	PERS.=2	NOMB.=p	GENRE=x	CAS=x
-le	il	PROper	MODE=x	TEMPS=x	PERS.=3	NOMB.=s	GENRE=m	CAS=r
dire	dire	VERinf	MODE=x	TEMPS=x	PERS.=x	NOMB.=x	GENRE=x	CAS=x
;	;	PONfbl	MODE=x	TEMPS=x	PERS.=x	NOMB.=x	GENRE=x	CAS=x
Voyons	voir	VERcjg	MODE=imp	TEMPS=x	PERS.=1	NOMB.=p	GENRE=x	CAS=x
quelle	quel	DETrel	MODE=x	TEMPS=x	PERS.=x	NOMB.=s	GENRE=f	CAS=x
raison	raison	NOMcom	MODE=x	TEMPS=x	PERS.=x	NOMB.=s	GENRE=f	CAS=x
.	.	PONfrt	MODE=x	TEMPS=x	PERS.=x	NOMB.=x	GENRE=x	CAS=x
Lisez	lire	VERcjg	MODE=imp	TEMPS=x	PERS.=2	NOMB.=p	GENRE=x	CAS=x
,	,	PONfbl	MODE=x	TEMPS=x	PERS.=x	NOMB.=x	GENRE=x	CAS=x
vous	vous	PROper	MODE=x	TEMPS=x	PERS.=2	NOMB.=p	GENRE=x	CAS=x
savez	savoir	VERcjg	MODE=ind	TEMPS=pst	PERS.=2	NOMB.=p	GENRE=x	CAS=x
lire	lire	VERinf	MODE=x	TEMPS=x	PERS.=x	NOMB.=x	GENRE=x	CAS=x
.	.	PONfrt	MODE=x	TEMPS=x	PERS.=x	NOMB.=x	GENRE=x	CAS=x
Pour	pour	PRE	MODE=x	TEMPS=x	PERS.=x	NOMB.=x	GENRE=x	CAS=x
le	le	DETdef	MODE=x	TEMPS=x	PERS.=x	NOMB.=s	GENRE=m	CAS=x
dîner	dîner	NOMcom	MODE=x	TEMPS=x	PERS.=x	NOMB.=s	GENRE=m	CAS=x
du	de_le	PRE.DETdef	MODE=x	TEMPS=x	PERS.=x	NOMB.=s	GENRE=m	CAS=x
gouverneur	gouverneur	NOMcom	MODE=x	TEMPS=x	PERS.=x	NOMB.=s	GENRE=m	CAS=x
Voici	voici	VERcjg	MODE=ind	TEMPS=pst	PERS.=x	NOMB.=x	GENRE=x	CAS=x
la	le	DETdef	MODE=x	TEMPS=x	PERS.=x	NOMB.=s	GENRE=f	CAS=x
salle	salle	NOMcom	MODE=x	TEMPS=x	PERS.=x	NOMB.=s	GENRE=f	CAS=x
préparée	préparer	VERppe	MODE=x	TEMPS=x	PERS.=x	NOMB.=s	GENRE=f	CAS=x
:	:	PONfbl	MODE=x	TEMPS=x	PERS.=x	NOMB.=x	GENRE=x	CAS=x
Mais	mais	CONcoo	MODE=x	TEMPS=x	PERS.=x	NOMB.=x	GENRE=x	CAS=x
d'	de	PRE	MODE=x	TEMPS=x	PERS.=x	NOMB.=x	GENRE=x	CAS=x
être	être	VERinf	MODE=x	TEMPS=x	PERS.=x	NOMB.=x	GENRE=x	CAS=x
Chevalier	chevalier	NOMcom	MODE=x	TEMPS=x	PERS.=x	NOMB.=s	GENRE=m	CAS=x
s'	si	CONsub	MODE=x	TEMPS=x	PERS.=x	NOMB.=x	GENRE=x	CAS=x
il	il	PROper	MODE=x	TEMPS=x	PERS.=3	NOMB.=s	GENRE=m	CAS=n
n'	ne	ADVneg	MODE=x	TEMPS=x	PERS.=x	NOMB.=x	GENRE=x	CAS=x
avait	avoir	VERcjg	MODE=ind	TEMPS=ipf	PERS.=3	NOMB.=s	GENRE=x	CAS=x
point	point	ADVneg	MODE=x	TEMPS=x	PERS.=x	NOMB.=x	GENRE=x	CAS=x
l'	le	DETdef	MODE=x	TEMPS=x	PERS.=x	NOMB.=s	GENRE=m	CAS=x
honneur	honneur	NOMcom	MODE=x	TEMPS=x	PERS.=x	NOMB.=s	GENRE=m	CAS=x
,	,	PONfbl	MODE=x	TEMPS=x	PERS.=x	NOMB.=x	GENRE=x	CAS=x
Ne	ne	ADVneg	MODE=x	TEMPS=x	PERS.=x	NOMB.=x	GENRE=x	CAS=x
pouvant	pouvoir	VERppa	MODE=x	TEMPS=x	PERS.=x	NOMB.=x	GENRE=x	CAS=x
en	en	PROadv	MODE=x	TEMPS=x	PERS.=x	NOMB.=x	GENRE=x	CAS=x
avoir	avoir	VERinf	MODE=x	TEMPS=x	PERS.=x	NOMB.=x	GENRE=x	CAS=x
l'	le	DETdef	MODE=x	TEMPS=x	PERS.=x	NOMB.=s	GENRE=f	CAS=x
entrée	entrée	NOMcom	MODE=x	TEMPS=x	PERS.=x	NOMB.=s	GENRE=f	CAS=x
,	,	PONfbl	MODE=x	TEMPS=x	PERS.=x	NOMB.=x	GENRE=x	CAS=x
Il	il	PROper	MODE=x	TEMPS=x	PERS.=3	NOMB.=s	GENRE=m	CAS=n
faudrait	falloir	VERcjg	MODE=con	TEMPS=x	PERS.=3	NOMB.=s	GENRE=x	CAS=x
qu'	que	CONsub	MODE=x	TEMPS=x	PERS.=x	NOMB.=x	GENRE=x	CAS=x
il	il	PROper	MODE=x	TEMPS=x	PERS.=3	NOMB.=s	GENRE=m	CAS=n
dînât	dîner	VERcjg	MODE=sub	TEMPS=ipf	PERS.=3	NOMB.=s	GENRE=x	CAS=x
par	par	PRE	MODE=x	TEMPS=x	PERS.=x	NOMB.=x	GENRE=x	CAS=x
coeur	cœur	NOMcom	MODE=x	TEMPS=x	PERS.=x	NOMB.=s	GENRE=m	CAS=x
.	.	PONfrt	MODE=x	TEMPS=x	PERS.=x	NOMB.=x	GENRE=x	CAS=x
Comment	comment	ADVint	MODE=x	TEMPS=x	PERS.=x	NOMB.=x	GENRE=x	CAS=x
donc	donc	ADVgen	MODE=x	TEMPS=x	PERS.=x	NOMB.=x	GENRE=x	CAS=x
?	?	PONfrt	MODE=x	TEMPS=x	PERS.=x	NOMB.=x	GENRE=x	CAS=x
Il	il	PROper	MODE=x	TEMPS=x	PERS.=3	NOMB.=s	GENRE=m	CAS=n
est	être	VERcjg	MODE=ind	TEMPS=pst	PERS.=3	NOMB.=s	GENRE=x	CAS=x
vrai	vrai	ADJqua	MODE=x	TEMPS=x	PERS.=x	NOMB.=s	GENRE=m	CAS=x
,	,	PONfbl	MODE=x	TEMPS=x	PERS.=x	NOMB.=x	GENRE=x	CAS=x
c'	ce	PROdem	MODE=x	TEMPS=x	PERS.=x	NOMB.=s	GENRE=n	CAS=x
est	être	VERcjg	MODE=ind	TEMPS=pst	PERS.=3	NOMB.=s	GENRE=x	CAS=x
la	le	DETdef	MODE=x	TEMPS=x	PERS.=x	NOMB.=s	GENRE=f	CAS=x
règle	règle	VERcjg	MODE=x	TEMPS=x	PERS.=x	NOMB.=s	GENRE=f	CAS=x
prescrite	prescrire	VERppe	MODE=x	TEMPS=x	PERS.=x	NOMB.=s	GENRE=f	CAS=x
,	,	PONfbl	MODE=x	TEMPS=x	PERS.=x	NOMB.=x	GENRE=x	CAS=x
Je	je	PROper	MODE=x	TEMPS=x	PERS.=1	NOMB.=s	GENRE=x	CAS=n
l'	il	PROper	MODE=x	TEMPS=x	PERS.=3	NOMB.=s	GENRE=x	CAS=r
avais	avoir	VERcjg	MODE=ind	TEMPS=ipf	PERS.=1	NOMB.=s	GENRE=x	CAS=x
oubliée	oublier	VERppe	MODE=x	TEMPS=x	PERS.=x	NOMB.=s	GENRE=f	CAS=x
.	.	PONfrt	MODE=x	TEMPS=x	PERS.=x	NOMB.=x	GENRE=x	CAS=x
Quelle	quel	DETint	MODE=x	TEMPS=x	PERS.=x	NOMB.=s	GENRE=f	CAS=x
règle	règle	VERcjg	MODE=sub	TEMPS=pst	PERS.=3	NOMB.=s	GENRE=x	CAS=x
maudite	maudit	VERcjg	MODE=x	TEMPS=x	PERS.=x	NOMB.=s	GENRE=f	CAS=x
!	!	PONfrt	MODE=x	TEMPS=x	PERS.=x	NOMB.=x	GENRE=x	CAS=x
Ne	ne	ADVneg	MODE=x	TEMPS=x	PERS.=x	NOMB.=x	GENRE=x	CAS=x
vous	vous	PROper	MODE=x	TEMPS=x	PERS.=2	NOMB.=p	GENRE=x	CAS=x
souvient	souvenir	VERcjg	MODE=ind	TEMPS=pst	PERS.=3	NOMB.=s	GENRE=x	CAS=x
-il	il	PROper	MODE=x	TEMPS=x	PERS.=3	NOMB.=s	GENRE=m	CAS=n
point	point	ADVneg	MODE=x	TEMPS=x	PERS.=x	NOMB.=x	GENRE=x	CAS=x
d'	de	PRE	MODE=x	TEMPS=x	PERS.=x	NOMB.=x	GENRE=x	CAS=x
être	être	VERinf	MODE=x	TEMPS=x	PERS.=x	NOMB.=x	GENRE=x	CAS=x
armé	armer	VERppe	MODE=x	TEMPS=x	PERS.=x	NOMB.=s	GENRE=m	CAS=x
Chevalier	chevalier	NOMcom	MODE=x	TEMPS=x	PERS.=x	NOMB.=s	GENRE=m	CAS=x
?	?	PONfrt	MODE=x	TEMPS=x	PERS.=x	NOMB.=x	GENRE=x	CAS=x
Voyez	voir	VERcjg	MODE=imp	TEMPS=x	PERS.=2	NOMB.=p	GENRE=x	CAS=x
.	.	PONfrt	MODE=x	TEMPS=x	PERS.=x	NOMB.=x	GENRE=x	CAS=x
Confusément	confusément	ADVgen	MODE=x	TEMPS=x	PERS.=x	NOMB.=x	GENRE=x	CAS=x
:	:	PONfbl	MODE=x	TEMPS=x	PERS.=x	NOMB.=x	GENRE=x	CAS=x
un	un	DETndf	MODE=x	TEMPS=x	PERS.=x	NOMB.=s	GENRE=m	CAS=x
jour	jour	NOMcom	MODE=x	TEMPS=x	PERS.=x	NOMB.=s	GENRE=m	CAS=x
notre	notre	DETpos	MODE=x	TEMPS=x	PERS.=1	NOMB.=s	GENRE=m	CAS=x
barbier	barbier	NOMcom	MODE=x	TEMPS=x	PERS.=x	NOMB.=s	GENRE=m	CAS=x
…	…	PONfrt	MODE=x	TEMPS=x	PERS.=x	NOMB.=x	GENRE=x	CAS=x
Je	je	PROper	MODE=x	TEMPS=x	PERS.=1	NOMB.=s	GENRE=x	CAS=n
me	je	PROper	MODE=x	TEMPS=x	PERS.=1	NOMB.=s	GENRE=x	CAS=r
souviens	souvenir	VERcjg	MODE=ind	TEMPS=pst	PERS.=1	NOMB.=s	GENRE=x	CAS=x
du	de_le	PRE.DETdef	MODE=x	TEMPS=x	PERS.=x	NOMB.=s	GENRE=m	CAS=x
moins	moins	NOMcom	MODE=x	TEMPS=x	PERS.=x	NOMB.=s	GENRE=m	CAS=x
que	que	CONsub	MODE=x	TEMPS=x	PERS.=x	NOMB.=x	GENRE=x	CAS=x
j'	je	PROper	MODE=x	TEMPS=x	PERS.=1	NOMB.=s	GENRE=x	CAS=n
en	en	PROadv	MODE=x	TEMPS=x	PERS.=x	NOMB.=x	GENRE=x	CAS=x
eus	avoir	VERcjg	MODE=ind	TEMPS=psp	PERS.=1	NOMB.=s	GENRE=x	CAS=x
grande	grand	ADJqua	MODE=x	TEMPS=x	PERS.=x	NOMB.=s	GENRE=f	CAS=x
envie	envie	NOMcom	MODE=x	TEMPS=x	PERS.=x	NOMB.=s	GENRE=f	CAS=x
.	.	PONfrt	MODE=x	TEMPS=x	PERS.=x	NOMB.=x	GENRE=x	CAS=x
Prenez	prendre	VERcjg	MODE=imp	TEMPS=x	PERS.=2	NOMB.=p	GENRE=x	CAS=x
garde	garde	NOMcom	MODE=x	TEMPS=x	PERS.=x	NOMB.=s	GENRE=f	CAS=x
à	à	PRE	MODE=x	TEMPS=x	PERS.=x	NOMB.=x	GENRE=x	CAS=x
mentir	mentir	VERinf	MODE=x	TEMPS=x	PERS.=x	NOMB.=x	GENRE=x	CAS=x
,	,	PONfbl	MODE=x	TEMPS=x	PERS.=x	NOMB.=x	GENRE=x	CAS=x
il	il	PROper	MODE=x	TEMPS=x	PERS.=3	NOMB.=s	GENRE=m	CAS=n
y	y	PROadv	MODE=x	TEMPS=x	PERS.=x	NOMB.=x	GENRE=x	CAS=x
va	aller	VERcjg	MODE=ind	TEMPS=pst	PERS.=3	NOMB.=s	GENRE=x	CAS=x
de	de	PRE	MODE=x	TEMPS=x	PERS.=x	NOMB.=x	GENRE=x	CAS=x
la	le	DETdef	MODE=x	TEMPS=x	PERS.=x	NOMB.=s	GENRE=f	CAS=x
vie	vie	NOMcom	MODE=x	TEMPS=x	PERS.=x	NOMB.=s	GENRE=f	CAS=x
.	.	PONfrt	MODE=x	TEMPS=x	PERS.=x	NOMB.=x	GENRE=x	CAS=x
