Il	il	PROper	MODE=x	TEMPS=x	PERS.=3	NOMB.=s	GENRE=m	CAS=n
est	être	VERcjg	MODE=ind	TEMPS=pst	PERS.=3	NOMB.=s	GENRE=x	CAS=x
vrai	vrai	ADJqua	MODE=x	TEMPS=x	PERS.=x	NOMB.=s	GENRE=m	CAS=x
;	;	PONfbl	MODE=x	TEMPS=x	PERS.=x	NOMB.=x	GENRE=x	CAS=x
mais	mais	CONcoo	MODE=x	TEMPS=x	PERS.=x	NOMB.=x	GENRE=x	CAS=x
enfin	enfin	ADVgen	MODE=x	TEMPS=x	PERS.=x	NOMB.=x	GENRE=x	CAS=x
l'	le	DETdef	MODE=x	TEMPS=x	PERS.=x	NOMB.=s	GENRE=m	CAS=x
esprit	esprit	NOMcom	MODE=x	TEMPS=x	PERS.=x	NOMB.=s	GENRE=m	CAS=x
vient	venir	VERcjg	MODE=ind	TEMPS=pst	PERS.=3	NOMB.=s	GENRE=x	CAS=x
avec	avec	PRE	MODE=x	TEMPS=x	PERS.=x	NOMB.=x	GENRE=x	CAS=x
l'	le	DETdef	MODE=x	TEMPS=x	PERS.=x	NOMB.=s	GENRE=m	CAS=x
âge	âge	NOMcom	MODE=x	TEMPS=x	PERS.=x	NOMB.=s	GENRE=m	CAS=x
.	.	PONfrt	MODE=x	TEMPS=x	PERS.=x	NOMB.=x	GENRE=x	CAS=x
J'	je	PROper	MODE=x	TEMPS=x	PERS.=1	NOMB.=s	GENRE=x	CAS=n
en	en	PROadv	MODE=x	TEMPS=x	PERS.=x	NOMB.=x	GENRE=x	CAS=x
connais	connaître	VERcjg	MODE=ind	TEMPS=pst	PERS.=1	NOMB.=s	GENRE=x	CAS=x
les	le	DETdef	MODE=x	TEMPS=x	PERS.=x	NOMB.=p	GENRE=m	CAS=x
dangers	danger	NOMcom	MODE=x	TEMPS=x	PERS.=x	NOMB.=p	GENRE=m	CAS=x
.	.	PONfrt	MODE=x	TEMPS=x	PERS.=x	NOMB.=x	GENRE=x	CAS=x
Aujourd'hui	aujourd'hui	ADVgen	MODE=x	TEMPS=x	PERS.=x	NOMB.=x	GENRE=x	CAS=x
les	le	DETdef	MODE=x	TEMPS=x	PERS.=x	NOMB.=p	GENRE=m	CAS=x
époux	époux	NOMcom	MODE=x	TEMPS=x	PERS.=x	NOMB.=s	GENRE=m	CAS=x
Sont	être	VERcjg	MODE=ind	TEMPS=pst	PERS.=3	NOMB.=p	GENRE=x	CAS=x
tous	tout	PROind	MODE=x	TEMPS=x	PERS.=x	NOMB.=p	GENRE=m	CAS=x
,	,	PONfbl	MODE=x	TEMPS=x	PERS.=x	NOMB.=x	GENRE=x	CAS=x
pour	pour	PRE	MODE=x	TEMPS=x	PERS.=x	NOMB.=x	GENRE=x	CAS=x
la	le	DETdef	MODE=x	TEMPS=x	PERS.=x	NOMB.=s	GENRE=f	CAS=x
plupart	plupart	NOMcom	MODE=x	TEMPS=x	PERS.=x	NOMB.=s	GENRE=f	CAS=x
,	,	PONfbl	MODE=x	TEMPS=x	PERS.=x	NOMB.=x	GENRE=x	CAS=x
inconstants	inconstant	ADJqua	MODE=x	TEMPS=x	PERS.=x	NOMB.=p	GENRE=m	CAS=x
ou	ou	CONcoo	MODE=x	TEMPS=x	PERS.=x	NOMB.=x	GENRE=x	CAS=x
jaloux	jaloux	ADJqua	MODE=x	TEMPS=x	PERS.=x	NOMB.=p	GENRE=m	CAS=x
;	;	PONfbl	MODE=x	TEMPS=x	PERS.=x	NOMB.=x	GENRE=x	CAS=x
Ils	il	PROper	MODE=x	TEMPS=x	PERS.=3	NOMB.=p	GENRE=m	CAS=n
veulent	vouloir	VERcjg	MODE=ind	TEMPS=pst	PERS.=3	NOMB.=p	GENRE=x	CAS=x
qu'	que	CONsub	MODE=x	TEMPS=x	PERS.=x	NOMB.=x	GENRE=x	CAS=x
une	un	DETndf	MODE=x	TEMPS=x	PERS.=x	NOMB.=s	GENRE=f	CAS=x
femme	femme	NOMcom	MODE=x	TEMPS=x	PERS.=x	NOMB.=s	GENRE=f	CAS=x
épouse	épouser	VERcjg	MODE=ind	TEMPS=pst	PERS.=3	NOMB.=s	GENRE=x	CAS=x
leurs	leur	DETpos	MODE=x	TEMPS=x	PERS.=3	NOMB.=p	GENRE=m	CAS=x
caprices	caprice	NOMcom	MODE=x	TEMPS=x	PERS.=x	NOMB.=p	GENRE=m	CAS=x
:	:	PONfbl	MODE=x	TEMPS=x	PERS.=x	NOMB.=x	GENRE=x	CAS=x
Les	le	DETdef	MODE=x	TEMPS=x	PERS.=x	NOMB.=p	GENRE=m	CAS=x
plus	plus	ADVgen	MODE=x	TEMPS=x	PERS.=x	NOMB.=x	GENRE=x	CAS=x
parfaits	parfait	ADJqua	MODE=x	TEMPS=x	PERS.=x	NOMB.=p	GENRE=m	CAS=x
sont	être	VERcjg	MODE=ind	TEMPS=pst	PERS.=3	NOMB.=p	GENRE=x	CAS=x
ceux	celui	PROdem	MODE=x	TEMPS=x	PERS.=x	NOMB.=p	GENRE=m	CAS=x
qui	qui	PROrel	MODE=x	TEMPS=x	PERS.=x	NOMB.=p	GENRE=m	CAS=n
n'	ne	ADVneg	MODE=x	TEMPS=x	PERS.=x	NOMB.=x	GENRE=x	CAS=x
ont	avoir	VERcjg	MODE=ind	TEMPS=pst	PERS.=3	NOMB.=p	GENRE=x	CAS=x
que	que	CONsub	MODE=x	TEMPS=x	PERS.=x	NOMB.=x	GENRE=x	CAS=x
peu	peu	ADVgen	MODE=x	TEMPS=x	PERS.=x	NOMB.=x	GENRE=x	CAS=x
de	de	PRE	MODE=x	TEMPS=x	PERS.=x	NOMB.=x	GENRE=x	CAS=x
vices	vice	NOMcom	MODE=x	TEMPS=x	PERS.=x	NOMB.=p	GENRE=m	CAS=x
.	.	PONfrt	MODE=x	TEMPS=x	PERS.=x	NOMB.=x	GENRE=x	CAS=x
Celui	celui	PROdem	MODE=x	TEMPS=x	PERS.=x	NOMB.=s	GENRE=m	CAS=x
-ci	ci	ADVgen	MODE=x	TEMPS=x	PERS.=x	NOMB.=x	GENRE=x	CAS=x
te	tu	PROper	MODE=x	TEMPS=x	PERS.=2	NOMB.=s	GENRE=x	CAS=r
plaira	plaire	VERcjg	MODE=ind	TEMPS=fut	PERS.=3	NOMB.=s	GENRE=x	CAS=x
quand	quand	CONsub	MODE=x	TEMPS=x	PERS.=x	NOMB.=x	GENRE=x	CAS=x
tu	tu	PROper	MODE=x	TEMPS=x	PERS.=2	NOMB.=s	GENRE=x	CAS=n
l'	il	PROper	MODE=x	TEMPS=x	PERS.=3	NOMB.=s	GENRE=x	CAS=r
auras	avoir	VERcjg	MODE=ind	TEMPS=fut	PERS.=2	NOMB.=s	GENRE=x	CAS=x
connu	connaître	VERppe	MODE=x	TEMPS=x	PERS.=x	NOMB.=s	GENRE=m	CAS=x
.	.	PONfrt	MODE=x	TEMPS=x	PERS.=x	NOMB.=x	GENRE=x	CAS=x
Tel	tel	PROind	MODE=x	TEMPS=x	PERS.=x	NOMB.=s	GENRE=m	CAS=x
qu'	que	CONsub	MODE=x	TEMPS=x	PERS.=x	NOMB.=x	GENRE=x	CAS=x
il	il	PROper	MODE=x	TEMPS=x	PERS.=3	NOMB.=s	GENRE=m	CAS=n
soit	être	VERcjg	MODE=sub	TEMPS=pst	PERS.=3	NOMB.=s	GENRE=x	CAS=x
,	,	PONfbl	MODE=x	TEMPS=x	PERS.=x	NOMB.=x	GENRE=x	CAS=x
je	je	PROper	MODE=x	TEMPS=x	PERS.=1	NOMB.=s	GENRE=x	CAS=n
le	il	PROper	MODE=x	TEMPS=x	PERS.=3	NOMB.=s	GENRE=m	CAS=r
hais	haïr	VERcjg	MODE=ind	TEMPS=pst	PERS.=1	NOMB.=s	GENRE=x	CAS=x
avant	avant	PRE	MODE=x	TEMPS=x	PERS.=x	NOMB.=x	GENRE=x	CAS=x
de	de	PRE	MODE=x	TEMPS=x	PERS.=x	NOMB.=x	GENRE=x	CAS=x
l'	il	PROper	MODE=x	TEMPS=x	PERS.=3	NOMB.=s	GENRE=x	CAS=r
avoir	avoir	VERinf	MODE=x	TEMPS=x	PERS.=x	NOMB.=x	GENRE=x	CAS=x
vu	voir	VERppe	MODE=x	TEMPS=x	PERS.=x	NOMB.=s	GENRE=m	CAS=x
:	:	PONfbl	MODE=x	TEMPS=x	PERS.=x	NOMB.=x	GENRE=x	CAS=x
Il	il	PROper	MODE=x	TEMPS=x	PERS.=3	NOMB.=s	GENRE=m	CAS=n
suffit	suffire	VERcjg	MODE=ind	TEMPS=pst	PERS.=3	NOMB.=s	GENRE=x	CAS=x
que	que	CONsub	MODE=x	TEMPS=x	PERS.=x	NOMB.=x	GENRE=x	CAS=x
ce	ce	PROdem	MODE=x	TEMPS=x	PERS.=x	NOMB.=s	GENRE=n	CAS=x
soit	être	VERcjg	MODE=sub	TEMPS=pst	PERS.=3	NOMB.=s	GENRE=x	CAS=x
un	un	DETndf	MODE=x	TEMPS=x	PERS.=x	NOMB.=s	GENRE=m	CAS=x
homme	homme	NOMcom	MODE=x	TEMPS=x	PERS.=x	NOMB.=s	GENRE=m	CAS=x
de	de	PRE	MODE=x	TEMPS=x	PERS.=x	NOMB.=x	GENRE=x	CAS=x
province	province	NOMcom	MODE=x	TEMPS=x	PERS.=x	NOMB.=s	GENRE=f	CAS=x
;	;	PONfbl	MODE=x	TEMPS=x	PERS.=x	NOMB.=x	GENRE=x	CAS=x
Et	et	CONcoo	MODE=x	TEMPS=x	PERS.=x	NOMB.=x	GENRE=x	CAS=x
je	je	PROper	MODE=x	TEMPS=x	PERS.=1	NOMB.=s	GENRE=x	CAS=n
n'	ne	ADVneg	MODE=x	TEMPS=x	PERS.=x	NOMB.=x	GENRE=x	CAS=x
en	en	PROadv	MODE=x	TEMPS=x	PERS.=x	NOMB.=x	GENRE=x	CAS=x
voudrais	vouloir	VERcjg	MODE=con	TEMPS=x	PERS.=1	NOMB.=s	GENRE=x	CAS=x
pas	pas	ADVneg	MODE=x	TEMPS=x	PERS.=x	NOMB.=x	GENRE=x	CAS=x
,	,	PONfbl	MODE=x	TEMPS=x	PERS.=x	NOMB.=x	GENRE=x	CAS=x
quand	quand	CONsub	MODE=x	TEMPS=x	PERS.=x	NOMB.=x	GENRE=x	CAS=x
ce	ce	PROdem	MODE=x	TEMPS=x	PERS.=x	NOMB.=s	GENRE=n	CAS=x
serait	être	VERcjg	MODE=con	TEMPS=x	PERS.=3	NOMB.=s	GENRE=x	CAS=x
un	un	DETndf	MODE=x	TEMPS=x	PERS.=x	NOMB.=s	GENRE=m	CAS=x
prince	prince	NOMcom	MODE=x	TEMPS=x	PERS.=x	NOMB.=s	GENRE=m	CAS=x
.	.	PONfrt	MODE=x	TEMPS=x	PERS.=x	NOMB.=x	GENRE=x	CAS=x
Madame	madame	NOMcom	MODE=x	TEMPS=x	PERS.=x	NOMB.=s	GENRE=f	CAS=x
,	,	PONfbl	MODE=x	TEMPS=x	PERS.=x	NOMB.=x	GENRE=x	CAS=x
il	il	PROimp	MODE=x	TEMPS=x	PERS.=3	NOMB.=s	GENRE=m	CAS=n
ne	ne	ADVneg	MODE=x	TEMPS=x	PERS.=x	NOMB.=x	GENRE=x	CAS=x
faut	falloir	VERcjg	MODE=ind	TEMPS=pst	PERS.=3	NOMB.=s	GENRE=x	CAS=x
pas	pas	ADVneg	MODE=x	TEMPS=x	PERS.=x	NOMB.=x	GENRE=x	CAS=x
si	si	ADVgen	MODE=x	TEMPS=x	PERS.=x	NOMB.=x	GENRE=x	CAS=x
fort	fort	ADVgen	MODE=x	TEMPS=x	PERS.=x	NOMB.=x	GENRE=x	CAS=x
se	se	PROper	MODE=x	TEMPS=x	PERS.=3	NOMB.=x	GENRE=x	CAS=x
déchaîner	déchaîner	VERinf	MODE=x	TEMPS=x	PERS.=x	NOMB.=x	GENRE=x	CAS=x
Contre	contre	PRE	MODE=x	TEMPS=x	PERS.=x	NOMB.=x	GENRE=x	CAS=x
le	le	DETdef	MODE=x	TEMPS=x	PERS.=x	NOMB.=s	GENRE=m	CAS=x
malheureux	malheureux	NOMcom	MODE=x	TEMPS=x	PERS.=x	NOMB.=s	GENRE=m	CAS=x
que	que	PROrel	MODE=x	TEMPS=x	PERS.=x	NOMB.=s	GENRE=m	CAS=r
l'	le	DETdef	MODE=x	TEMPS=x	PERS.=x	NOMB.=s	GENRE=m	CAS=x
on	on	PROind	MODE=x	TEMPS=x	PERS.=3	NOMB.=s	GENRE=x	CAS=n
veut	vouloir	VERcjg	MODE=ind	TEMPS=pst	PERS.=3	NOMB.=s	GENRE=x	CAS=x
vous	vous	PROper	MODE=x	TEMPS=x	PERS.=2	NOMB.=p	GENRE=x	CAS=x
donner	donner	VERinf	MODE=x	TEMPS=x	PERS.=x	NOMB.=x	GENRE=x	CAS=x
:	:	PONfbl	MODE=x	TEMPS=x	PERS.=x	NOMB.=x	GENRE=x	CAS=x
Si	si	CONsub	MODE=x	TEMPS=x	PERS.=x	NOMB.=x	GENRE=x	CAS=x
vous	vous	PROper	MODE=x	TEMPS=x	PERS.=2	NOMB.=p	GENRE=x	CAS=x
le	il	PROper	MODE=x	TEMPS=x	PERS.=3	NOMB.=s	GENRE=m	CAS=r
haïssez	haïr	VERcjg	MODE=ind	TEMPS=pst	PERS.=2	NOMB.=p	GENRE=x	CAS=x
,	,	PONfbl	MODE=x	TEMPS=x	PERS.=x	NOMB.=x	GENRE=x	CAS=x
il	il	PROimp	MODE=x	TEMPS=x	PERS.=3	NOMB.=s	GENRE=m	CAS=n
s'	se	PROper	MODE=x	TEMPS=x	PERS.=3	NOMB.=x	GENRE=x	CAS=x
en	en	PROadv	MODE=x	TEMPS=x	PERS.=x	NOMB.=x	GENRE=x	CAS=x
peut	pouvoir	VERcjg	MODE=ind	TEMPS=pst	PERS.=3	NOMB.=s	GENRE=x	CAS=x
trouver	trouver	VERinf	MODE=x	TEMPS=x	PERS.=x	NOMB.=x	GENRE=x	CAS=x
d'	de	PRE	MODE=x	TEMPS=x	PERS.=x	NOMB.=x	GENRE=x	CAS=x
autres	autre	PROind	MODE=x	TEMPS=x	PERS.=x	NOMB.=p	GENRE=x	CAS=x
De	de	PRE	MODE=x	TEMPS=x	PERS.=x	NOMB.=x	GENRE=x	CAS=x
qui	qui	PROrel	MODE=x	TEMPS=x	PERS.=x	NOMB.=p	GENRE=x	CAS=r
les	le	DETdef	MODE=x	TEMPS=x	PERS.=x	NOMB.=p	GENRE=m	CAS=x
sentiments	sentiment	NOMcom	MODE=x	TEMPS=x	PERS.=x	NOMB.=p	GENRE=m	CAS=x
différeront	différer	VERcjg	MODE=ind	TEMPS=fut	PERS.=1	NOMB.=p	GENRE=x	CAS=x
des	un	PRE.DETdef	MODE=x	TEMPS=x	PERS.=x	NOMB.=p	GENRE=m	CAS=x
vôtres	vôtre	PROpos	MODE=x	TEMPS=x	PERS.=2	NOMB.=p	GENRE=x	CAS=x
.	.	PONfrt	MODE=x	TEMPS=x	PERS.=x	NOMB.=x	GENRE=x	CAS=x
