Du	de_le	PRE.DETdef	MODE=x	TEMPS=x	PERS.=x	NOMB.=s	GENRE=m	CAS=x
temps	temps	NOMcom	MODE=x	TEMPS=x	PERS.=x	NOMB.=s	GENRE=m	CAS=x
du	de_le	PRE.DETdef	MODE=x	TEMPS=x	PERS.=x	NOMB.=s	GENRE=m	CAS=x
roi	roi	NOMcom	MODE=x	TEMPS=x	PERS.=x	NOMB.=s	GENRE=m	CAS=x
Moabdar	Moabdar	NOMpro	MODE=x	TEMPS=x	PERS.=x	NOMB.=s	GENRE=m	CAS=x
il	il	PROper	MODE=x	TEMPS=x	PERS.=3	NOMB.=s	GENRE=m	CAS=n
y	y	PROadv	MODE=x	TEMPS=x	PERS.=x	NOMB.=x	GENRE=x	CAS=x
avait	avoir	VERcjg	MODE=ind	TEMPS=ipf	PERS.=3	NOMB.=s	GENRE=x	CAS=x
à	à	PRE	MODE=x	TEMPS=x	PERS.=x	NOMB.=x	GENRE=x	CAS=x
Babylone	Babylone	NOMpro	MODE=x	TEMPS=x	PERS.=x	NOMB.=s	GENRE=f	CAS=x
un	un	DETndf	MODE=x	TEMPS=x	PERS.=x	NOMB.=s	GENRE=m	CAS=x
jeune	jeune	ADJqua	MODE=x	TEMPS=x	PERS.=x	NOMB.=s	GENRE=m	CAS=x
homme	homme	NOMcom	MODE=x	TEMPS=x	PERS.=x	NOMB.=s	GENRE=m	CAS=x
nommé	nommer	VERppe	MODE=x	TEMPS=x	PERS.=x	NOMB.=s	GENRE=m	CAS=x
Zadig	Zadig	NOMpro	MODE=x	TEMPS=x	PERS.=x	NOMB.=s	GENRE=m	CAS=x
,	,	PONfbl	MODE=x	TEMPS=x	PERS.=x	NOMB.=x	GENRE=x	CAS=x
né	naître	VERppe	MODE=x	TEMPS=x	PERS.=x	NOMB.=s	GENRE=m	CAS=x
avec	avec	PRE	MODE=x	TEMPS=x	PERS.=x	NOMB.=x	GENRE=x	CAS=x
un	un	DETndf	MODE=x	TEMPS=x	PERS.=x	NOMB.=s	GENRE=m	CAS=x
beau	beau	ADJqua	MODE=x	TEMPS=x	PERS.=x	NOMB.=s	GENRE=m	CAS=x
naturel	naturel	NOMcom	MODE=x	TEMPS=x	PERS.=x	NOMB.=s	GENRE=m	CAS=x
fortifié	fortifier	VERppe	MODE=x	TEMPS=x	PERS.=x	NOMB.=s	GENRE=m	CAS=x
par	par	PRE	MODE=x	TEMPS=x	PERS.=x	NOMB.=x	GENRE=x	CAS=x
l'	le	DETdef	MODE=x	TEMPS=x	PERS.=x	NOMB.=s	GENRE=f	CAS=x
éducation	éducation	NOMcom	MODE=x	TEMPS=x	PERS.=x	NOMB.=s	GENRE=f	CAS=x
.	.	PONfrt	MODE=x	TEMPS=x	PERS.=x	NOMB.=x	GENRE=x	CAS=x
Quoique	quoique	CONsub	MODE=x	TEMPS=x	PERS.=x	NOMB.=x	GENRE=x	CAS=x
riche	riche	ADJqua	MODE=x	TEMPS=x	PERS.=x	NOMB.=s	GENRE=m	CAS=x
et	et	CONcoo	MODE=x	TEMPS=x	PERS.=x	NOMB.=x	GENRE=x	CAS=x
jeune	jeune	ADJqua	MODE=x	TEMPS=x	PERS.=x	NOMB.=s	GENRE=m	CAS=x
,	,	PONfbl	MODE=x	TEMPS=x	PERS.=x	NOMB.=x	GENRE=x	CAS=x
il	il	PROper	MODE=x	TEMPS=x	PERS.=3	NOMB.=s	GENRE=m	CAS=n
savait	savoir	VERcjg	MODE=ind	TEMPS=ipf	PERS.=3	NOMB.=s	GENRE=x	CAS=x
modérer	modérer	VERinf	MODE=x	TEMPS=x	PERS.=x	NOMB.=x	GENRE=x	CAS=x
ses	son	DETpos	MODE=x	TEMPS=x	PERS.=3	NOMB.=p	GENRE=f	CAS=x
passions	passion	NOMcom	MODE=x	TEMPS=x	PERS.=x	NOMB.=p	GENRE=f	CAS=x
;	;	PONfbl	MODE=x	TEMPS=x	PERS.=x	NOMB.=x	GENRE=x	CAS=x
il	il	PROper	MODE=x	TEMPS=x	PERS.=3	NOMB.=s	GENRE=m	CAS=n
n'	ne	ADVneg	MODE=x	TEMPS=x	PERS.=x	NOMB.=x	GENRE=x	CAS=x
affectait	affecter	VERcjg	MODE=con	TEMPS=x	PERS.=3	NOMB.=s	GENRE=x	CAS=x
rien	rien	PROind	MODE=x	TEMPS=x	PERS.=x	NOMB.=s	GENRE=x	CAS=x
;	;	PONfbl	MODE=x	TEMPS=x	PERS.=x	NOMB.=x	GENRE=x	CAS=x
il	il	PROper	MODE=x	TEMPS=x	PERS.=3	NOMB.=s	GENRE=m	CAS=n
ne	ne	ADVneg	MODE=x	TEMPS=x	PERS.=x	NOMB.=x	GENRE=x	CAS=x
voulait	vouloir	VERcjg	MODE=ind	TEMPS=ipf	PERS.=3	NOMB.=s	GENRE=x	CAS=x
point	point	ADVneg	MODE=x	TEMPS=x	PERS.=x	NOMB.=x	GENRE=x	CAS=x
toujours	toujours	ADVgen	MODE=x	TEMPS=x	PERS.=x	NOMB.=x	GENRE=x	CAS=x
avoir	avoir	VERinf	MODE=x	TEMPS=x	PERS.=x	NOMB.=x	GENRE=x	CAS=x
raison	raison	NOMcom	MODE=x	TEMPS=x	PERS.=x	NOMB.=s	GENRE=f	CAS=x
,	,	PONfbl	MODE=x	TEMPS=x	PERS.=x	NOMB.=x	GENRE=x	CAS=x
et	et	CONcoo	MODE=x	TEMPS=x	PERS.=x	NOMB.=x	GENRE=x	CAS=x
savait	savoir	VERcjg	MODE=ind	TEMPS=ipf	PERS.=3	NOMB.=s	GENRE=x	CAS=x
respecter	respecter	VERinf	MODE=x	TEMPS=x	PERS.=x	NOMB.=x	GENRE=x	CAS=x
la	le	DETdef	MODE=x	TEMPS=x	PERS.=x	NOMB.=s	GENRE=f	CAS=x
faiblesse	faiblesse	NOMcom	MODE=x	TEMPS=x	PERS.=x	NOMB.=s	GENRE=f	CAS=x
des	de_le	PRE.DETdef	MODE=x	TEMPS=x	PERS.=x	NOMB.=p	GENRE=m	CAS=x
hommes	homme	NOMcom	MODE=x	TEMPS=x	PERS.=x	NOMB.=p	GENRE=m	CAS=x
.	.	PONfrt	MODE=x	TEMPS=x	PERS.=x	NOMB.=x	GENRE=x	CAS=x
On	on	PROind	MODE=x	TEMPS=x	PERS.=3	NOMB.=s	GENRE=x	CAS=n
était	être	VERcjg	MODE=ind	TEMPS=ipf	PERS.=3	NOMB.=s	GENRE=x	CAS=x
étonné	étonner	VERppe	MODE=x	TEMPS=x	PERS.=x	NOMB.=s	GENRE=m	CAS=x
de	de	PRE	MODE=x	TEMPS=x	PERS.=x	NOMB.=x	GENRE=x	CAS=x
voir	voir	VERinf	MODE=x	TEMPS=x	PERS.=x	NOMB.=x	GENRE=x	CAS=x
qu'	que	CONsub	MODE=x	TEMPS=x	PERS.=x	NOMB.=x	GENRE=x	CAS=x
avec	avec	PRE	MODE=x	TEMPS=x	PERS.=x	NOMB.=x	GENRE=x	CAS=x
beaucoup	beaucoup	ADVgen	MODE=x	TEMPS=x	PERS.=x	NOMB.=x	GENRE=x	CAS=x
d'	de	PRE	MODE=x	TEMPS=x	PERS.=x	NOMB.=x	GENRE=x	CAS=x
esprit	esprit	NOMcom	MODE=x	TEMPS=x	PERS.=x	NOMB.=s	GENRE=m	CAS=x
il	il	PROper	MODE=x	TEMPS=x	PERS.=3	NOMB.=s	GENRE=m	CAS=n
n'	ne	ADVneg	MODE=x	TEMPS=x	PERS.=x	NOMB.=x	GENRE=x	CAS=x
insultât	insulter	VERcjg	MODE=sub	TEMPS=ipf	PERS.=3	NOMB.=s	GENRE=x	CAS=x
jamais	jamais	ADVgen	MODE=x	TEMPS=x	PERS.=x	NOMB.=x	GENRE=x	CAS=x
par	par	PRE	MODE=x	TEMPS=x	PERS.=x	NOMB.=x	GENRE=x	CAS=x
des	un	DETndf	MODE=x	TEMPS=x	PERS.=x	NOMB.=p	GENRE=f	CAS=x
railleries	raillerie	NOMcom	MODE=x	TEMPS=x	PERS.=x	NOMB.=p	GENRE=f	CAS=x
à	à	PRE	MODE=x	TEMPS=x	PERS.=x	NOMB.=x	GENRE=x	CAS=x
ces	ce	DETdem	MODE=x	TEMPS=x	PERS.=x	NOMB.=p	GENRE=m	CAS=x
propos	propos	NOMcom	MODE=x	TEMPS=x	PERS.=x	NOMB.=p	GENRE=m	CAS=x
si	si	ADVgen	MODE=x	TEMPS=x	PERS.=x	NOMB.=x	GENRE=x	CAS=x
vagues	vague	ADJqua	MODE=x	TEMPS=x	PERS.=x	NOMB.=p	GENRE=m	CAS=x
,	,	PONfbl	MODE=x	TEMPS=x	PERS.=x	NOMB.=x	GENRE=x	CAS=x
si	si	ADVgen	MODE=x	TEMPS=x	PERS.=x	NOMB.=x	GENRE=x	CAS=x
rompus	rompre	ADJqua	MODE=x	TEMPS=x	PERS.=x	NOMB.=p	GENRE=m	CAS=x
,	,	PONfbl	MODE=x	TEMPS=x	PERS.=x	NOMB.=x	GENRE=x	CAS=x
si	si	ADVgen	MODE=x	TEMPS=x	PERS.=x	NOMB.=x	GENRE=x	CAS=x
tumultueux	tumultueux	ADJqua	MODE=x	TEMPS=x	PERS.=x	NOMB.=p	GENRE=m	CAS=x
,	,	PONfbl	MODE=x	TEMPS=x	PERS.=x	NOMB.=x	GENRE=x	CAS=x
à	à	PRE	MODE=x	TEMPS=x	PERS.=x	NOMB.=x	GENRE=x	CAS=x
ces	ce	DETdem	MODE=x	TEMPS=x	PERS.=x	NOMB.=p	GENRE=f	CAS=x
médisances	médisance	NOMcom	MODE=x	TEMPS=x	PERS.=x	NOMB.=p	GENRE=f	CAS=x
téméraires	téméraire	ADJqua	MODE=x	TEMPS=x	PERS.=x	NOMB.=p	GENRE=f	CAS=x
,	,	PONfbl	MODE=x	TEMPS=x	PERS.=x	NOMB.=x	GENRE=x	CAS=x
à	à	PRE	MODE=x	TEMPS=x	PERS.=x	NOMB.=x	GENRE=x	CAS=x
ces	ce	DETdem	MODE=x	TEMPS=x	PERS.=x	NOMB.=p	GENRE=f	CAS=x
décisions	décision	NOMcom	MODE=x	TEMPS=x	PERS.=x	NOMB.=p	GENRE=f	CAS=x
ignorantes	ignorer	VERppa	MODE=x	TEMPS=x	PERS.=x	NOMB.=p	GENRE=f	CAS=x
,	,	PONfbl	MODE=x	TEMPS=x	PERS.=x	NOMB.=x	GENRE=x	CAS=x
à	à	PRE	MODE=x	TEMPS=x	PERS.=x	NOMB.=x	GENRE=x	CAS=x
ces	ce	DETdem	MODE=x	TEMPS=x	PERS.=x	NOMB.=p	GENRE=f	CAS=x
turlupinades	turlupinade	NOMcom	MODE=x	TEMPS=x	PERS.=x	NOMB.=p	GENRE=f	CAS=x
grossières	grossier	ADJqua	MODE=x	TEMPS=x	PERS.=x	NOMB.=p	GENRE=f	CAS=x
,	,	PONfbl	MODE=x	TEMPS=x	PERS.=x	NOMB.=x	GENRE=x	CAS=x
à	à	PRE	MODE=x	TEMPS=x	PERS.=x	NOMB.=x	GENRE=x	CAS=x
ce	ce	DETdem	MODE=x	TEMPS=x	PERS.=x	NOMB.=s	GENRE=m	CAS=x
vain	vain	ADJqua	MODE=x	TEMPS=x	PERS.=x	NOMB.=s	GENRE=m	CAS=x
bruit	bruit	NOMcom	MODE=x	TEMPS=x	PERS.=x	NOMB.=s	GENRE=m	CAS=x
de	de	PRE	MODE=x	TEMPS=x	PERS.=x	NOMB.=x	GENRE=x	CAS=x
paroles	parole	NOMcom	MODE=x	TEMPS=x	PERS.=x	NOMB.=p	GENRE=f	CAS=x
,	,	PONfbl	MODE=x	TEMPS=x	PERS.=x	NOMB.=x	GENRE=x	CAS=x
qu'	que	PROrel	MODE=x	TEMPS=x	PERS.=x	NOMB.=s	GENRE=m	CAS=r
on	on	PROind	MODE=x	TEMPS=x	PERS.=3	NOMB.=s	GENRE=x	CAS=n
appelait	appeler	VERcjg	MODE=ind	TEMPS=ipf	PERS.=3	NOMB.=s	GENRE=x	CAS=x
conversation	conversation	NOMcom	MODE=x	TEMPS=x	PERS.=x	NOMB.=s	GENRE=f	CAS=x
dans	dans	PRE	MODE=x	TEMPS=x	PERS.=x	NOMB.=x	GENRE=x	CAS=x
Babylone	Babylone	NOMpro	MODE=x	TEMPS=x	PERS.=x	NOMB.=s	GENRE=f	CAS=x
.	.	PONfrt	MODE=x	TEMPS=x	PERS.=x	NOMB.=x	GENRE=x	CAS=x
