Nul	nul	PROind	MODE=x	TEMPS=x	PERS.=x	NOMB.=s	GENRE=m	CAS=x
ne	ne	ADVneg	MODE=x	TEMPS=x	PERS.=x	NOMB.=x	GENRE=x	CAS=x
vient	venir	VERcjg	MODE=ind	TEMPS=pst	PERS.=3	NOMB.=s	GENRE=x	CAS=x
.	.	PONfrt	MODE=x	TEMPS=x	PERS.=x	NOMB.=x	GENRE=x	CAS=x
Chaque	chaque	DETind	MODE=x	TEMPS=x	PERS.=x	NOMB.=s	GENRE=m	CAS=x
instant	instant	NOMcom	MODE=x	TEMPS=x	PERS.=x	NOMB.=s	GENRE=m	CAS=x
accroît	accroître	VERcjg	MODE=ind	TEMPS=pst	PERS.=3	NOMB.=s	GENRE=x	CAS=x
mon	mon	DETpos	MODE=x	TEMPS=x	PERS.=1	NOMB.=s	GENRE=f	CAS=x
épouvante	épouvante	NOMcom	MODE=x	TEMPS=x	PERS.=x	NOMB.=s	GENRE=f	CAS=x
.	.	PONfrt	MODE=x	TEMPS=x	PERS.=x	NOMB.=x	GENRE=x	CAS=x
J'	je	PROper	MODE=x	TEMPS=x	PERS.=1	NOMB.=s	GENRE=x	CAS=n
erre	errer	VERcjg	MODE=ind	TEMPS=pst	PERS.=1	NOMB.=s	GENRE=x	CAS=x
dans	dans	PRE	MODE=x	TEMPS=x	PERS.=x	NOMB.=x	GENRE=x	CAS=x
ce	ce	DETdem	MODE=x	TEMPS=x	PERS.=x	NOMB.=s	GENRE=m	CAS=x
palais	palais	NOMcom	MODE=x	TEMPS=x	PERS.=x	NOMB.=s	GENRE=m	CAS=x
,	,	PONfbl	MODE=x	TEMPS=x	PERS.=x	NOMB.=x	GENRE=x	CAS=x
solitaire	solitaire	ADJqua	MODE=x	TEMPS=x	PERS.=x	NOMB.=s	GENRE=f	CAS=x
et	et	CONcoo	MODE=x	TEMPS=x	PERS.=x	NOMB.=x	GENRE=x	CAS=x
tremblante	trembler	VERppa	MODE=x	TEMPS=x	PERS.=x	NOMB.=s	GENRE=f	CAS=x
.	.	PONfrt	MODE=x	TEMPS=x	PERS.=x	NOMB.=x	GENRE=x	CAS=x
Des	un	DETndf	MODE=x	TEMPS=x	PERS.=x	NOMB.=p	GENRE=m	CAS=x
soldats	soldat	NOMcom	MODE=x	TEMPS=x	PERS.=x	NOMB.=p	GENRE=m	CAS=x
,	,	PONfbl	MODE=x	TEMPS=x	PERS.=x	NOMB.=x	GENRE=x	CAS=x
disait	dire	VERcjg	MODE=ind	TEMPS=ipf	PERS.=3	NOMB.=s	GENRE=x	CAS=x
-on	on	PROind	MODE=x	TEMPS=x	PERS.=3	NOMB.=s	GENRE=x	CAS=n
,	,	PONfbl	MODE=x	TEMPS=x	PERS.=x	NOMB.=x	GENRE=x	CAS=x
les	le	DETdef	MODE=x	TEMPS=x	PERS.=x	NOMB.=p	GENRE=m	CAS=x
transports	transport	NOMcom	MODE=x	TEMPS=x	PERS.=x	NOMB.=p	GENRE=m	CAS=x
sont	être	VERcjg	MODE=ind	TEMPS=pst	PERS.=3	NOMB.=p	GENRE=x	CAS=x
calmés	calmer	VERppe	MODE=x	TEMPS=x	PERS.=x	NOMB.=s	GENRE=m	CAS=x
.	.	PONfrt	MODE=x	TEMPS=x	PERS.=x	NOMB.=x	GENRE=x	CAS=x
Ces	ce	DETdem	MODE=x	TEMPS=x	PERS.=x	NOMB.=p	GENRE=m	CAS=x
transports	transport	NOMcom	MODE=x	TEMPS=x	PERS.=x	NOMB.=p	GENRE=m	CAS=x
tout-à-coup	tout-à-coup	ADVgen	MODE=x	TEMPS=x	PERS.=x	NOMB.=x	GENRE=x	CAS=x
seraient	être	VERcjg	MODE=con	TEMPS=x	PERS.=3	NOMB.=p	GENRE=x	CAS=x
-ils	il	PROper	MODE=x	TEMPS=x	PERS.=3	NOMB.=p	GENRE=m	CAS=n
rallumés	rallumer	VERppe	MODE=x	TEMPS=x	PERS.=x	NOMB.=p	GENRE=m	CAS=x
?	?	PONfrt	MODE=x	TEMPS=x	PERS.=x	NOMB.=x	GENRE=x	CAS=x
Retenue	retenir	VERppe	MODE=x	TEMPS=x	PERS.=x	NOMB.=s	GENRE=f	CAS=x
en	en	PRE	MODE=x	TEMPS=x	PERS.=x	NOMB.=x	GENRE=x	CAS=x
ces	ce	DETdem	MODE=x	TEMPS=x	PERS.=x	NOMB.=p	GENRE=m	CAS=x
lieux	lieu	NOMcom	MODE=x	TEMPS=x	PERS.=x	NOMB.=p	GENRE=m	CAS=x
par	par	PRE	MODE=x	TEMPS=x	PERS.=x	NOMB.=x	GENRE=x	CAS=x
un	un	DETndf	MODE=x	TEMPS=x	PERS.=x	NOMB.=s	GENRE=m	CAS=x
ordre	ordre	NOMcom	MODE=x	TEMPS=x	PERS.=x	NOMB.=s	GENRE=m	CAS=x
sévère	sévère	ADJqua	MODE=x	TEMPS=x	PERS.=x	NOMB.=s	GENRE=m	CAS=x
,	,	PONfbl	MODE=x	TEMPS=x	PERS.=x	NOMB.=x	GENRE=x	CAS=x
Je	je	PROper	MODE=x	TEMPS=x	PERS.=1	NOMB.=s	GENRE=x	CAS=n
frémis	frémir	VERcjg	MODE=ind	TEMPS=pst	PERS.=1	NOMB.=s	GENRE=x	CAS=x
pour	pour	PRE	MODE=x	TEMPS=x	PERS.=x	NOMB.=x	GENRE=x	CAS=x
Alfred	Alfred	NOMpro	MODE=x	TEMPS=x	PERS.=x	NOMB.=s	GENRE=m	CAS=x
,	,	PONfbl	MODE=x	TEMPS=x	PERS.=x	NOMB.=x	GENRE=x	CAS=x
je	je	PROper	MODE=x	TEMPS=x	PERS.=1	NOMB.=s	GENRE=x	CAS=n
frémis	frémir	VERcjg	MODE=ind	TEMPS=pst	PERS.=1	NOMB.=s	GENRE=x	CAS=x
pour	pour	PRE	MODE=x	TEMPS=x	PERS.=x	NOMB.=x	GENRE=x	CAS=x
mon	mon	DETpos	MODE=x	TEMPS=x	PERS.=1	NOMB.=s	GENRE=m	CAS=x
père	père	NOMcom	MODE=x	TEMPS=x	PERS.=x	NOMB.=s	GENRE=m	CAS=x
.	.	PONfrt	MODE=x	TEMPS=x	PERS.=x	NOMB.=x	GENRE=x	CAS=x
C'	ce	PROdem	MODE=x	TEMPS=x	PERS.=x	NOMB.=s	GENRE=n	CAS=x
est	être	VERcjg	MODE=ind	TEMPS=pst	PERS.=3	NOMB.=s	GENRE=x	CAS=x
pour	pour	PRE	MODE=x	TEMPS=x	PERS.=x	NOMB.=x	GENRE=x	CAS=x
m'	je	PROper	MODE=x	TEMPS=x	PERS.=1	NOMB.=s	GENRE=x	CAS=r
accabler	accabler	VERinf	MODE=x	TEMPS=x	PERS.=x	NOMB.=x	GENRE=x	CAS=x
mieux	mieux	ADVgen	MODE=x	TEMPS=x	PERS.=x	NOMB.=x	GENRE=x	CAS=x
du	de_le	PRE.DETdef	MODE=x	TEMPS=x	PERS.=x	NOMB.=s	GENRE=m	CAS=x
poids	poids	NOMcom	MODE=x	TEMPS=x	PERS.=x	NOMB.=s	GENRE=m	CAS=x
de	de	PRE	MODE=x	TEMPS=x	PERS.=x	NOMB.=x	GENRE=x	CAS=x
la	le	DETdef	MODE=x	TEMPS=x	PERS.=x	NOMB.=s	GENRE=f	CAS=x
douleur	douleur	NOMcom	MODE=x	TEMPS=x	PERS.=x	NOMB.=s	GENRE=f	CAS=x
Que	que	CONsub	MODE=x	TEMPS=x	PERS.=x	NOMB.=x	GENRE=x	CAS=x
le	le	DETdef	MODE=x	TEMPS=x	PERS.=x	NOMB.=s	GENRE=m	CAS=x
sort	sort	NOMcom	MODE=x	TEMPS=x	PERS.=x	NOMB.=s	GENRE=m	CAS=x
me	je	PROper	MODE=x	TEMPS=x	PERS.=1	NOMB.=s	GENRE=x	CAS=r
berça	bercer	VERcjg	MODE=ind	TEMPS=psp	PERS.=3	NOMB.=s	GENRE=x	CAS=x
d'	de	PRE	MODE=x	TEMPS=x	PERS.=x	NOMB.=x	GENRE=x	CAS=x
un	un	DETndf	MODE=x	TEMPS=x	PERS.=x	NOMB.=s	GENRE=m	CAS=x
rêve	rêve	NOMcom	MODE=x	TEMPS=x	PERS.=x	NOMB.=s	GENRE=m	CAS=x
de	de	PRE	MODE=x	TEMPS=x	PERS.=x	NOMB.=x	GENRE=x	CAS=x
bonheur	bonheur	NOMcom	MODE=x	TEMPS=x	PERS.=x	NOMB.=s	GENRE=m	CAS=x
.	.	PONfrt	MODE=x	TEMPS=x	PERS.=x	NOMB.=x	GENRE=x	CAS=x
Comme	comme	CONsub	MODE=x	TEMPS=x	PERS.=x	NOMB.=x	GENRE=x	CAS=x
il	il	PROper	MODE=x	TEMPS=x	PERS.=3	NOMB.=s	GENRE=m	CAS=n
nous	nous	PROper	MODE=x	TEMPS=x	PERS.=1	NOMB.=p	GENRE=x	CAS=x
a	avoir	VERcjg	MODE=ind	TEMPS=pst	PERS.=3	NOMB.=s	GENRE=x	CAS=x
trompés	tromper	VERppe	MODE=x	TEMPS=x	PERS.=x	NOMB.=p	GENRE=m	CAS=x
!	!	PONfrt	MODE=x	TEMPS=x	PERS.=x	NOMB.=x	GENRE=x	CAS=x
Quels	quel	DETint	MODE=x	TEMPS=x	PERS.=x	NOMB.=p	GENRE=m	CAS=x
lugubres	lugubre	ADJqua	MODE=x	TEMPS=x	PERS.=x	NOMB.=p	GENRE=m	CAS=x
présages	présage	NOMcom	MODE=x	TEMPS=x	PERS.=x	NOMB.=p	GENRE=m	CAS=x
Président	présider	VERcjg	MODE=ind	TEMPS=pst	PERS.=3	NOMB.=p	GENRE=x	CAS=x
à	à	PRE	MODE=x	TEMPS=x	PERS.=x	NOMB.=x	GENRE=x	CAS=x
ces	ce	DETdem	MODE=x	TEMPS=x	PERS.=x	NOMB.=p	GENRE=m	CAS=x
noeuds	nœud	NOMcom	MODE=x	TEMPS=x	PERS.=x	NOMB.=p	GENRE=m	CAS=x
,	,	PONfbl	MODE=x	TEMPS=x	PERS.=x	NOMB.=x	GENRE=x	CAS=x
formés	former	VERppe	MODE=x	TEMPS=x	PERS.=x	NOMB.=p	GENRE=m	CAS=x
dans	dans	PRE	MODE=x	TEMPS=x	PERS.=x	NOMB.=x	GENRE=x	CAS=x
les	le	DETdef	MODE=x	TEMPS=x	PERS.=x	NOMB.=p	GENRE=m	CAS=x
orages	orage	NOMcom	MODE=x	TEMPS=x	PERS.=x	NOMB.=p	GENRE=m	CAS=x
!	!	PONfrt	MODE=x	TEMPS=x	PERS.=x	NOMB.=x	GENRE=x	CAS=x
Les	le	DETdef	MODE=x	TEMPS=x	PERS.=x	NOMB.=p	GENRE=m	CAS=x
plus	plus	ADVgen	MODE=x	TEMPS=x	PERS.=x	NOMB.=x	GENRE=x	CAS=x
doux	doux	ADJqua	MODE=x	TEMPS=x	PERS.=x	NOMB.=p	GENRE=m	CAS=x
sentiments	sentiment	NOMcom	MODE=x	TEMPS=x	PERS.=x	NOMB.=p	GENRE=m	CAS=x
sont	être	VERcjg	MODE=ind	TEMPS=pst	PERS.=3	NOMB.=p	GENRE=x	CAS=x
des	un	DETndf	MODE=x	TEMPS=x	PERS.=x	NOMB.=p	GENRE=m	CAS=x
pièges	piège	NOMcom	MODE=x	TEMPS=x	PERS.=x	NOMB.=p	GENRE=m	CAS=x
cruels	cruel	ADJqua	MODE=x	TEMPS=x	PERS.=x	NOMB.=p	GENRE=m	CAS=x
Que	que	PROrel	MODE=x	TEMPS=x	PERS.=x	NOMB.=p	GENRE=m	CAS=r
tend	tendre	VERcjg	MODE=ind	TEMPS=pst	PERS.=3	NOMB.=s	GENRE=x	CAS=x
la	le	DETdef	MODE=x	TEMPS=x	PERS.=x	NOMB.=s	GENRE=f	CAS=x
destinée	destinée	NOMcom	MODE=x	TEMPS=x	PERS.=x	NOMB.=s	GENRE=f	CAS=x
aux	à_le	PRE.DETdef	MODE=x	TEMPS=x	PERS.=x	NOMB.=p	GENRE=m	CAS=x
malheureux	malheureux	ADJqua	MODE=x	TEMPS=x	PERS.=x	NOMB.=p	GENRE=m	CAS=x
mortels	mortel	NOMcom	MODE=x	TEMPS=x	PERS.=x	NOMB.=p	GENRE=m	CAS=x
.	.	PONfrt	MODE=x	TEMPS=x	PERS.=x	NOMB.=x	GENRE=x	CAS=x
