Pensez	penser	VERcjg	MODE=imp	TEMPS=x	PERS.=2	NOMB.=p	GENRE=x	CAS=x
que	que	CONsub	MODE=x	TEMPS=x	PERS.=x	NOMB.=x	GENRE=x	CAS=x
la	le	DETdef	MODE=x	TEMPS=x	PERS.=x	NOMB.=s	GENRE=f	CAS=x
victoire	victoire	NOMcom	MODE=x	TEMPS=x	PERS.=x	NOMB.=s	GENRE=f	CAS=x
est	être	VERcjg	MODE=ind	TEMPS=pst	PERS.=3	NOMB.=s	GENRE=x	CAS=x
de	de	PRE	MODE=x	TEMPS=x	PERS.=x	NOMB.=x	GENRE=x	CAS=x
telle	tel	DETind	MODE=x	TEMPS=x	PERS.=x	NOMB.=s	GENRE=f	CAS=x
manière	manière	NOMcom	MODE=x	TEMPS=x	PERS.=x	NOMB.=s	GENRE=f	CAS=x
Qu'	que	CONsub	MODE=x	TEMPS=x	PERS.=x	NOMB.=x	GENRE=x	CAS=x
elle	il	PROper	MODE=x	TEMPS=x	PERS.=3	NOMB.=s	GENRE=f	CAS=n
arrive	arriver	VERcjg	MODE=sub	TEMPS=pst	PERS.=3	NOMB.=s	GENRE=x	CAS=x
souvent	souvent	ADVgen	MODE=x	TEMPS=x	PERS.=x	NOMB.=x	GENRE=x	CAS=x
aux	à_le	PRE.DETdef	MODE=x	TEMPS=x	PERS.=x	NOMB.=p	GENRE=m	CAS=x
soldats	soldat	NOMcom	MODE=x	TEMPS=x	PERS.=x	NOMB.=p	GENRE=m	CAS=x
journalière	journalier	ADJqua	MODE=x	TEMPS=x	PERS.=x	NOMB.=s	GENRE=f	CAS=x
,	,	PONfbl	MODE=x	TEMPS=x	PERS.=x	NOMB.=x	GENRE=x	CAS=x
Et	et	CONcoo	MODE=x	TEMPS=x	PERS.=x	NOMB.=x	GENRE=x	CAS=x
traçant	tracer	VERppa	MODE=x	TEMPS=x	PERS.=x	NOMB.=x	GENRE=x	CAS=x
à	à	PRE	MODE=x	TEMPS=x	PERS.=x	NOMB.=x	GENRE=x	CAS=x
l'	le	DETdef	MODE=x	TEMPS=x	PERS.=x	NOMB.=s	GENRE=m	CAS=x
acier	acier	NOMcom	MODE=x	TEMPS=x	PERS.=x	NOMB.=s	GENRE=m	CAS=x
le	le	DETdef	MODE=x	TEMPS=x	PERS.=x	NOMB.=s	GENRE=m	CAS=x
prix	prix	NOMcom	MODE=x	TEMPS=x	PERS.=x	NOMB.=s	GENRE=m	CAS=x
d'	de	PRE	MODE=x	TEMPS=x	PERS.=x	NOMB.=x	GENRE=x	CAS=x
un	un	DETndf	MODE=x	TEMPS=x	PERS.=x	NOMB.=s	GENRE=m	CAS=x
belliqueur	belliqueur	NOMcom	MODE=x	TEMPS=x	PERS.=x	NOMB.=s	GENRE=m	CAS=x
On	on	PROind	MODE=x	TEMPS=x	PERS.=3	NOMB.=s	GENRE=x	CAS=n
est	être	VERcjg	MODE=ind	TEMPS=pst	PERS.=3	NOMB.=s	GENRE=x	CAS=x
ores	ores	ADVgen	MODE=x	TEMPS=x	PERS.=x	NOMB.=x	GENRE=x	CAS=x
vaincu	vaincre	VERppe	MODE=x	TEMPS=x	PERS.=x	NOMB.=s	GENRE=m	CAS=x
,	,	PONfbl	MODE=x	TEMPS=x	PERS.=x	NOMB.=x	GENRE=x	CAS=x
incontinent	incontinent	ADVgen	MODE=x	TEMPS=x	PERS.=x	NOMB.=x	GENRE=x	CAS=x
vainqueur	vainqueur	NOMcom	MODE=x	TEMPS=x	PERS.=x	NOMB.=s	GENRE=m	CAS=x
.	.	PONfrt	MODE=x	TEMPS=x	PERS.=x	NOMB.=x	GENRE=x	CAS=x
Mettez	mettre	VERcjg	MODE=imp	TEMPS=x	PERS.=2	NOMB.=p	GENRE=x	CAS=x
-nous	nous	PROper	MODE=x	TEMPS=x	PERS.=1	NOMB.=p	GENRE=x	CAS=x
en	en	PROadv	MODE=x	TEMPS=x	PERS.=x	NOMB.=x	GENRE=x	CAS=x
devoir	devoir	VERinf	MODE=x	TEMPS=x	PERS.=x	NOMB.=x	GENRE=x	CAS=x
afin	afin	ADVgen	MODE=x	TEMPS=x	PERS.=x	NOMB.=x	GENRE=x	CAS=x
de	de	PRE	MODE=x	TEMPS=x	PERS.=x	NOMB.=x	GENRE=x	CAS=x
les	il	PROper	MODE=x	TEMPS=x	PERS.=3	NOMB.=p	GENRE=x	CAS=r
surprendre	surprendre	VERinf	MODE=x	TEMPS=x	PERS.=x	NOMB.=x	GENRE=x	CAS=x
.	.	PONfrt	MODE=x	TEMPS=x	PERS.=x	NOMB.=x	GENRE=x	CAS=x
Vous	vous	PROper	MODE=x	TEMPS=x	PERS.=2	NOMB.=p	GENRE=x	CAS=x
verrez	voir	VERcjg	MODE=ind	TEMPS=fut	PERS.=2	NOMB.=p	GENRE=x	CAS=x
que	que	CONsub	MODE=x	TEMPS=x	PERS.=x	NOMB.=x	GENRE=x	CAS=x
pourrons	pouvoir	VERcjg	MODE=ind	TEMPS=fut	PERS.=1	NOMB.=p	GENRE=x	CAS=x
assaillir	assaillir	VERinf	MODE=x	TEMPS=x	PERS.=x	NOMB.=x	GENRE=x	CAS=x
et	et	CONcoo	MODE=x	TEMPS=x	PERS.=x	NOMB.=x	GENRE=x	CAS=x
défendre	défendre	VERinf	MODE=x	TEMPS=x	PERS.=x	NOMB.=x	GENRE=x	CAS=x
À	à	PRE	MODE=x	TEMPS=x	PERS.=x	NOMB.=x	GENRE=x	CAS=x
pied	pied	NOMcom	MODE=x	TEMPS=x	PERS.=x	NOMB.=s	GENRE=m	CAS=x
et	et	CONcoo	MODE=x	TEMPS=x	PERS.=x	NOMB.=x	GENRE=x	CAS=x
à	à	PRE	MODE=x	TEMPS=x	PERS.=x	NOMB.=x	GENRE=x	CAS=x
cheval	cheval	NOMcom	MODE=x	TEMPS=x	PERS.=x	NOMB.=s	GENRE=m	CAS=x
,	,	PONfbl	MODE=x	TEMPS=x	PERS.=x	NOMB.=x	GENRE=x	CAS=x
carguer	carguer	VERinf	MODE=x	TEMPS=x	PERS.=x	NOMB.=x	GENRE=x	CAS=x
de	de	PRE	MODE=x	TEMPS=x	PERS.=x	NOMB.=x	GENRE=x	CAS=x
près	près	ADVgen	MODE=x	TEMPS=x	PERS.=x	NOMB.=x	GENRE=x	CAS=x
,	,	PONfbl	MODE=x	TEMPS=x	PERS.=x	NOMB.=x	GENRE=x	CAS=x
de	de	PRE	MODE=x	TEMPS=x	PERS.=x	NOMB.=x	GENRE=x	CAS=x
loin	loin	ADVgen	MODE=x	TEMPS=x	PERS.=x	NOMB.=x	GENRE=x	CAS=x
,	,	PONfbl	MODE=x	TEMPS=x	PERS.=x	NOMB.=x	GENRE=x	CAS=x
Reculer	reculer	VERinf	MODE=x	TEMPS=x	PERS.=x	NOMB.=x	GENRE=x	CAS=x
,	,	PONfbl	MODE=x	TEMPS=x	PERS.=x	NOMB.=x	GENRE=x	CAS=x
arrêter	arrêter	VERinf	MODE=x	TEMPS=x	PERS.=x	NOMB.=x	GENRE=x	CAS=x
,	,	PONfbl	MODE=x	TEMPS=x	PERS.=x	NOMB.=x	GENRE=x	CAS=x
quand	quand	CONsub	MODE=x	TEMPS=x	PERS.=x	NOMB.=x	GENRE=x	CAS=x
il	il	PROimp	MODE=x	TEMPS=x	PERS.=3	NOMB.=s	GENRE=m	CAS=n
en	en	PROadv	MODE=x	TEMPS=x	PERS.=x	NOMB.=x	GENRE=x	CAS=x
est	être	VERcjg	MODE=ind	TEMPS=pst	PERS.=3	NOMB.=s	GENRE=x	CAS=x
besoin	besoin	NOMcom	MODE=x	TEMPS=x	PERS.=x	NOMB.=s	GENRE=m	CAS=x
:	:	PONfbl	MODE=x	TEMPS=x	PERS.=x	NOMB.=x	GENRE=x	CAS=x
pour-pensant	pourpenser	VERppa	MODE=x	TEMPS=x	PERS.=x	NOMB.=x	GENRE=x	CAS=x
que	que	CONsub	MODE=x	TEMPS=x	PERS.=x	NOMB.=x	GENRE=x	CAS=x
ceux	celui	PROdem	MODE=x	TEMPS=x	PERS.=x	NOMB.=p	GENRE=m	CAS=x
-là	là	ADVgen	MODE=x	TEMPS=x	PERS.=x	NOMB.=x	GENRE=x	CAS=x
,	,	PONfbl	MODE=x	TEMPS=x	PERS.=x	NOMB.=x	GENRE=x	CAS=x
qui	qui	PROrel	MODE=x	TEMPS=x	PERS.=x	NOMB.=p	GENRE=m	CAS=n
leur	leur	DETpos	MODE=x	TEMPS=x	PERS.=3	NOMB.=s	GENRE=m	CAS=x
seigneur	seigneur	NOMcom	MODE=x	TEMPS=x	PERS.=x	NOMB.=s	GENRE=m	CAS=x
révèrent	révérer	VERcjg	MODE=ind	TEMPS=pst	PERS.=3	NOMB.=p	GENRE=x	CAS=x
,	,	PONfbl	MODE=x	TEMPS=x	PERS.=x	NOMB.=x	GENRE=x	CAS=x
Et	et	CONcoo	MODE=x	TEMPS=x	PERS.=x	NOMB.=x	GENRE=x	CAS=x
pour	pour	PRE	MODE=x	TEMPS=x	PERS.=x	NOMB.=x	GENRE=x	CAS=x
un	un	DETndf	MODE=x	TEMPS=x	PERS.=x	NOMB.=s	GENRE=m	CAS=x
bon	bon	ADJqua	MODE=x	TEMPS=x	PERS.=x	NOMB.=s	GENRE=m	CAS=x
sujet	sujet	NOMcom	MODE=x	TEMPS=x	PERS.=x	NOMB.=s	GENRE=m	CAS=x
au	à_le	PRE.DETdef	MODE=x	TEMPS=x	PERS.=x	NOMB.=s	GENRE=m	CAS=x
combat	combat	NOMcom	MODE=x	TEMPS=x	PERS.=x	NOMB.=s	GENRE=m	CAS=x
persévèrent	persévérer	VERcjg	MODE=ind	TEMPS=pst	PERS.=3	NOMB.=p	GENRE=x	CAS=x
,	,	PONfbl	MODE=x	TEMPS=x	PERS.=x	NOMB.=x	GENRE=x	CAS=x
Mieux	mieux	ADVgen	MODE=x	TEMPS=x	PERS.=x	NOMB.=x	GENRE=x	CAS=x
se	se	PROper	MODE=x	TEMPS=x	PERS.=3	NOMB.=s	GENRE=x	CAS=r
démêleront	démêler	VERcjg	MODE=ind	TEMPS=fut	PERS.=3	NOMB.=p	GENRE=x	CAS=x
des	de_le	DETndf	MODE=x	TEMPS=x	PERS.=x	NOMB.=p	GENRE=m	CAS=x
martiaux	martial	ADJqua	MODE=x	TEMPS=x	PERS.=x	NOMB.=p	GENRE=m	CAS=x
dangers	danger	NOMcom	MODE=x	TEMPS=x	PERS.=x	NOMB.=p	GENRE=m	CAS=x
Que	que	CONsub	MODE=x	TEMPS=x	PERS.=x	NOMB.=x	GENRE=x	CAS=x
couards	couard	ADJqua	MODE=x	TEMPS=x	PERS.=x	NOMB.=p	GENRE=m	CAS=x
,	,	PONfbl	MODE=x	TEMPS=x	PERS.=x	NOMB.=x	GENRE=x	CAS=x
que	que	CONsub	MODE=x	TEMPS=x	PERS.=x	NOMB.=x	GENRE=x	CAS=x
poltrons	poltron	ADJqua	MODE=x	TEMPS=x	PERS.=x	NOMB.=p	GENRE=m	CAS=x
,	,	PONfbl	MODE=x	TEMPS=x	PERS.=x	NOMB.=x	GENRE=x	CAS=x
que	que	CONsub	MODE=x	TEMPS=x	PERS.=x	NOMB.=x	GENRE=x	CAS=x
fats	fat	ADJqua	MODE=x	TEMPS=x	PERS.=x	NOMB.=p	GENRE=m	CAS=x
,	,	PONfbl	MODE=x	TEMPS=x	PERS.=x	NOMB.=x	GENRE=x	CAS=x
que	que	CONsub	MODE=x	TEMPS=x	PERS.=x	NOMB.=x	GENRE=x	CAS=x
mensongers	mensonger	ADJqua	MODE=x	TEMPS=x	PERS.=x	NOMB.=p	GENRE=m	CAS=x
.	.	PONfrt	MODE=x	TEMPS=x	PERS.=x	NOMB.=x	GENRE=x	CAS=x
Ô	ô	INJ	MODE=x	TEMPS=x	PERS.=x	NOMB.=x	GENRE=x	CAS=x
quel	quel	DETrel	MODE=x	TEMPS=x	PERS.=x	NOMB.=s	GENRE=m	CAS=x
comble	comble	NOMcom	MODE=x	TEMPS=x	PERS.=x	NOMB.=s	GENRE=m	CAS=x
de	de	PRE	MODE=x	TEMPS=x	PERS.=x	NOMB.=x	GENRE=x	CAS=x
maux	mal	NOMcom	MODE=x	TEMPS=x	PERS.=x	NOMB.=p	GENRE=m	CAS=x
!	!	PONfrt	MODE=x	TEMPS=x	PERS.=x	NOMB.=x	GENRE=x	CAS=x
De	de	PRE	MODE=x	TEMPS=x	PERS.=x	NOMB.=x	GENRE=x	CAS=x
voir	voir	VERinf	MODE=x	TEMPS=x	PERS.=x	NOMB.=x	GENRE=x	CAS=x
ainsi	ainsi	ADVgen	MODE=x	TEMPS=x	PERS.=x	NOMB.=x	GENRE=x	CAS=x
rebelles	rebelle	NOMcom	MODE=x	TEMPS=x	PERS.=x	NOMB.=p	GENRE=m	CAS=x
Nos	notre	DETpos	MODE=x	TEMPS=x	PERS.=1	NOMB.=p	GENRE=m	CAS=x
hommes	homme	NOMcom	MODE=x	TEMPS=x	PERS.=x	NOMB.=p	GENRE=m	CAS=x
,	,	PONfbl	MODE=x	TEMPS=x	PERS.=x	NOMB.=x	GENRE=x	CAS=x
nos	notre	DETpos	MODE=x	TEMPS=x	PERS.=1	NOMB.=p	GENRE=f	CAS=x
cités	cité	NOMcom	MODE=x	TEMPS=x	PERS.=x	NOMB.=s	GENRE=f	CAS=x
,	,	PONfbl	MODE=x	TEMPS=x	PERS.=x	NOMB.=x	GENRE=x	CAS=x
et	et	CONcoo	MODE=x	TEMPS=x	PERS.=x	NOMB.=x	GENRE=x	CAS=x
sans	sans	PRE	MODE=x	TEMPS=x	PERS.=x	NOMB.=x	GENRE=x	CAS=x
justes	juste	ADJqua	MODE=x	TEMPS=x	PERS.=x	NOMB.=p	GENRE=f	CAS=x
querelles	querelle	NOMcom	MODE=x	TEMPS=x	PERS.=x	NOMB.=p	GENRE=f	CAS=x
.	.	PONfrt	MODE=x	TEMPS=x	PERS.=x	NOMB.=x	GENRE=x	CAS=x
