Les	le	DETdef	MODE=x	TEMPS=x	PERS.=x	NOMB.=p	GENRE=m	CAS=x
Démons	démon	NOMcom	MODE=x	TEMPS=x	PERS.=x	NOMB.=p	GENRE=m	CAS=x
reviennent	revenir	VERcjg	MODE=ind	TEMPS=pst	PERS.=3	NOMB.=p	GENRE=x	CAS=x
.	.	PONfrt	MODE=x	TEMPS=x	PERS.=x	NOMB.=x	GENRE=x	CAS=x
Mais	mais	CONcoo	MODE=x	TEMPS=x	PERS.=x	NOMB.=x	GENRE=x	CAS=x
j'	je	PROper	MODE=x	TEMPS=x	PERS.=1	NOMB.=s	GENRE=x	CAS=n
ai	avoir	VERcjg	MODE=ind	TEMPS=pst	PERS.=1	NOMB.=s	GENRE=x	CAS=x
compté	compter	VERppe	MODE=x	TEMPS=x	PERS.=x	NOMB.=s	GENRE=m	CAS=x
sans	sans	PRE	MODE=x	TEMPS=x	PERS.=x	NOMB.=x	GENRE=x	CAS=x
mon	mon	DETpos	MODE=x	TEMPS=x	PERS.=1	NOMB.=s	GENRE=m	CAS=x
hôte	hôte	NOMcom	MODE=x	TEMPS=x	PERS.=x	NOMB.=s	GENRE=m	CAS=x
,	,	PONfbl	MODE=x	TEMPS=x	PERS.=x	NOMB.=x	GENRE=x	CAS=x
et	et	CONcoo	MODE=x	TEMPS=x	PERS.=x	NOMB.=x	GENRE=x	CAS=x
je	je	PROper	MODE=x	TEMPS=x	PERS.=1	NOMB.=s	GENRE=x	CAS=n
vois	voir	VERcjg	MODE=ind	TEMPS=pst	PERS.=1	NOMB.=s	GENRE=x	CAS=x
bien	bien	ADVgen	MODE=x	TEMPS=x	PERS.=x	NOMB.=x	GENRE=x	CAS=x
que	que	CONsub	MODE=x	TEMPS=x	PERS.=x	NOMB.=x	GENRE=x	CAS=x
je	je	PROper	MODE=x	TEMPS=x	PERS.=1	NOMB.=s	GENRE=x	CAS=n
suis	être	VERcjg	MODE=ind	TEMPS=pst	PERS.=1	NOMB.=s	GENRE=x	CAS=x
destiné	destiner	VERppe	MODE=x	TEMPS=x	PERS.=x	NOMB.=s	GENRE=m	CAS=x
à	à	PRE	MODE=x	TEMPS=x	PERS.=x	NOMB.=x	GENRE=x	CAS=x
mourir	mourir	VERinf	MODE=x	TEMPS=x	PERS.=x	NOMB.=x	GENRE=x	CAS=x
sous	sous	PRE	MODE=x	TEMPS=x	PERS.=x	NOMB.=x	GENRE=x	CAS=x
le	le	DETdef	MODE=x	TEMPS=x	PERS.=x	NOMB.=s	GENRE=m	CAS=x
bâton	bâton	NOMcom	MODE=x	TEMPS=x	PERS.=x	NOMB.=s	GENRE=m	CAS=x
.	.	PONfrt	MODE=x	TEMPS=x	PERS.=x	NOMB.=x	GENRE=x	CAS=x
Il	il	PROimp	MODE=x	TEMPS=x	PERS.=3	NOMB.=s	GENRE=m	CAS=n
faut	falloir	VERcjg	MODE=ind	TEMPS=pst	PERS.=3	NOMB.=s	GENRE=x	CAS=x
pourtant	pourtant	ADVgen	MODE=x	TEMPS=x	PERS.=x	NOMB.=x	GENRE=x	CAS=x
défendre	défendre	VERinf	MODE=x	TEMPS=x	PERS.=x	NOMB.=x	GENRE=x	CAS=x
ma	mon	DETpos	MODE=x	TEMPS=x	PERS.=1	NOMB.=s	GENRE=f	CAS=x
peau	peau	NOMcom	MODE=x	TEMPS=x	PERS.=x	NOMB.=s	GENRE=f	CAS=x
et	et	CONcoo	MODE=x	TEMPS=x	PERS.=x	NOMB.=x	GENRE=x	CAS=x
,	,	PONfbl	MODE=x	TEMPS=x	PERS.=x	NOMB.=x	GENRE=x	CAS=x
par	par	PRE	MODE=x	TEMPS=x	PERS.=x	NOMB.=x	GENRE=x	CAS=x
ruse	ruse	NOMcom	MODE=x	TEMPS=x	PERS.=x	NOMB.=s	GENRE=f	CAS=x
ou	ou	CONcoo	MODE=x	TEMPS=x	PERS.=x	NOMB.=x	GENRE=x	CAS=x
par	par	PRE	MODE=x	TEMPS=x	PERS.=x	NOMB.=x	GENRE=x	CAS=x
adresse	adresse	NOMcom	MODE=x	TEMPS=x	PERS.=x	NOMB.=s	GENRE=f	CAS=x
,	,	PONfbl	MODE=x	TEMPS=x	PERS.=x	NOMB.=x	GENRE=x	CAS=x
me	je	PROper	MODE=x	TEMPS=x	PERS.=1	NOMB.=s	GENRE=x	CAS=r
tirer	tirer	VERinf	MODE=x	TEMPS=x	PERS.=x	NOMB.=x	GENRE=x	CAS=x
de	de	PRE	MODE=x	TEMPS=x	PERS.=x	NOMB.=x	GENRE=x	CAS=x
ce	ce	DETdem	MODE=x	TEMPS=x	PERS.=x	NOMB.=s	GENRE=m	CAS=x
mauvais	mauvais	ADJqua	MODE=x	TEMPS=x	PERS.=x	NOMB.=s	GENRE=m	CAS=x
pas	pas	NOMcom	MODE=x	TEMPS=x	PERS.=x	NOMB.=s	GENRE=m	CAS=x
.	.	PONfrt	MODE=x	TEMPS=x	PERS.=x	NOMB.=x	GENRE=x	CAS=x
Mais	mais	CONcoo	MODE=x	TEMPS=x	PERS.=x	NOMB.=x	GENRE=x	CAS=x
comment	comment	ADVint	MODE=x	TEMPS=x	PERS.=x	NOMB.=x	GENRE=x	CAS=x
faire	faire	VERinf	MODE=x	TEMPS=x	PERS.=x	NOMB.=x	GENRE=x	CAS=x
?	?	PONfrt	MODE=x	TEMPS=x	PERS.=x	NOMB.=x	GENRE=x	CAS=x
Merlin	Merlin	NOMpro	MODE=x	TEMPS=x	PERS.=x	NOMB.=s	GENRE=m	CAS=x
regarde	regarder	VERcjg	MODE=ind	TEMPS=pst	PERS.=3	NOMB.=s	GENRE=x	CAS=x
les	le	DETdef	MODE=x	TEMPS=x	PERS.=x	NOMB.=p	GENRE=m	CAS=x
sauteurs	sauteur	NOMcom	MODE=x	TEMPS=x	PERS.=x	NOMB.=p	GENRE=m	CAS=x
qui	qui	PROrel	MODE=x	TEMPS=x	PERS.=x	NOMB.=p	GENRE=m	CAS=n
sont	être	VERcjg	MODE=ind	TEMPS=pst	PERS.=3	NOMB.=p	GENRE=x	CAS=x
sur	sur	PRE	MODE=x	TEMPS=x	PERS.=x	NOMB.=x	GENRE=x	CAS=x
leurs	leur	DETpos	MODE=x	TEMPS=x	PERS.=3	NOMB.=p	GENRE=m	CAS=x
piédestaux	piédestal	NOMcom	MODE=x	TEMPS=x	PERS.=x	NOMB.=p	GENRE=m	CAS=x
.	.	PONfrt	MODE=x	TEMPS=x	PERS.=x	NOMB.=x	GENRE=x	CAS=x
Il	il	PROimp	MODE=x	TEMPS=x	PERS.=3	NOMB.=s	GENRE=m	CAS=n
faut	falloir	VERcjg	MODE=ind	TEMPS=pst	PERS.=3	NOMB.=s	GENRE=x	CAS=x
que	que	CONsub	MODE=x	TEMPS=x	PERS.=x	NOMB.=x	GENRE=x	CAS=x
je	je	PROper	MODE=x	TEMPS=x	PERS.=1	NOMB.=s	GENRE=x	CAS=n
prenne	prendre	VERcjg	MODE=sub	TEMPS=pst	PERS.=1	NOMB.=s	GENRE=x	CAS=x
la	le	DETdef	MODE=x	TEMPS=x	PERS.=x	NOMB.=s	GENRE=f	CAS=x
place	place	NOMcom	MODE=x	TEMPS=x	PERS.=x	NOMB.=s	GENRE=f	CAS=x
d'	de	PRE	MODE=x	TEMPS=x	PERS.=x	NOMB.=x	GENRE=x	CAS=x
un	un	PROind	MODE=x	TEMPS=x	PERS.=x	NOMB.=s	GENRE=m	CAS=x
de	de	PRE	MODE=x	TEMPS=x	PERS.=x	NOMB.=x	GENRE=x	CAS=x
ces	ce	DETdem	MODE=x	TEMPS=x	PERS.=x	NOMB.=p	GENRE=m	CAS=x
messieurs	messieurs	NOMcom	MODE=x	TEMPS=x	PERS.=x	NOMB.=p	GENRE=m	CAS=x
;	;	PONfbl	MODE=x	TEMPS=x	PERS.=x	NOMB.=x	GENRE=x	CAS=x
mais	mais	CONcoo	MODE=x	TEMPS=x	PERS.=x	NOMB.=x	GENRE=x	CAS=x
à	à	PRE	MODE=x	TEMPS=x	PERS.=x	NOMB.=x	GENRE=x	CAS=x
qui	qui	PROint	MODE=x	TEMPS=x	PERS.=x	NOMB.=s	GENRE=x	CAS=r
m'	je	PROper	MODE=x	TEMPS=x	PERS.=1	NOMB.=s	GENRE=x	CAS=r
adresser	adresser	VERinf	MODE=x	TEMPS=x	PERS.=x	NOMB.=x	GENRE=x	CAS=x
?	?	PONfrt	MODE=x	TEMPS=x	PERS.=x	NOMB.=x	GENRE=x	CAS=x
C'	ce	PROdem	MODE=x	TEMPS=x	PERS.=x	NOMB.=s	GENRE=n	CAS=x
est	être	VERcjg	MODE=ind	TEMPS=pst	PERS.=3	NOMB.=s	GENRE=x	CAS=x
à	à	PRE	MODE=x	TEMPS=x	PERS.=x	NOMB.=x	GENRE=x	CAS=x
toi	tu	PROper	MODE=x	TEMPS=x	PERS.=2	NOMB.=s	GENRE=x	CAS=i
que	que	PROrel	MODE=x	TEMPS=x	PERS.=x	NOMB.=s	GENRE=x	CAS=i
j'	je	PROper	MODE=x	TEMPS=x	PERS.=1	NOMB.=s	GENRE=x	CAS=n
en	en	PROadv	MODE=x	TEMPS=x	PERS.=x	NOMB.=x	GENRE=x	CAS=x
veux	vouloir	VERcjg	MODE=ind	TEMPS=pst	PERS.=1	NOMB.=s	GENRE=x	CAS=x
;	;	PONfbl	MODE=x	TEMPS=x	PERS.=x	NOMB.=x	GENRE=x	CAS=x
ta	ton	DETpos	MODE=x	TEMPS=x	PERS.=2	NOMB.=s	GENRE=f	CAS=x
physionomie	physionomie	NOMcom	MODE=x	TEMPS=x	PERS.=x	NOMB.=s	GENRE=f	CAS=x
me	je	PROper	MODE=x	TEMPS=x	PERS.=1	NOMB.=s	GENRE=x	CAS=r
déplaît	déplaire	VERcjg	MODE=ind	TEMPS=pst	PERS.=3	NOMB.=s	GENRE=x	CAS=x
.	.	PONfrt	MODE=x	TEMPS=x	PERS.=x	NOMB.=x	GENRE=x	CAS=x
Il	il	PROper	MODE=x	TEMPS=x	PERS.=3	NOMB.=s	GENRE=m	CAS=n
fait	faire	VERcjg	MODE=ind	TEMPS=pst	PERS.=3	NOMB.=s	GENRE=x	CAS=x
descendre	descendre	VERinf	MODE=x	TEMPS=x	PERS.=x	NOMB.=x	GENRE=x	CAS=x
un	un	DETndf	MODE=x	TEMPS=x	PERS.=x	NOMB.=s	GENRE=m	CAS=x
sauteur	sauteur	NOMcom	MODE=x	TEMPS=x	PERS.=x	NOMB.=s	GENRE=m	CAS=x
et	et	CONcoo	MODE=x	TEMPS=x	PERS.=x	NOMB.=x	GENRE=x	CAS=x
saute	sauter	VERcjg	MODE=ind	TEMPS=pst	PERS.=3	NOMB.=s	GENRE=x	CAS=x
en	en	PRE	MODE=x	TEMPS=x	PERS.=x	NOMB.=x	GENRE=x	CAS=x
sa	son	DETpos	MODE=x	TEMPS=x	PERS.=3	NOMB.=s	GENRE=f	CAS=x
place	place	NOMcom	MODE=x	TEMPS=x	PERS.=x	NOMB.=s	GENRE=f	CAS=x
.	.	PONfrt	MODE=x	TEMPS=x	PERS.=x	NOMB.=x	GENRE=x	CAS=x
Ôte	ôter	VERcjg	MODE=imp	TEMPS=x	PERS.=2	NOMB.=s	GENRE=x	CAS=x
-toi	tu	PROper	MODE=x	TEMPS=x	PERS.=2	NOMB.=s	GENRE=x	CAS=i
de	de	PRE	MODE=x	TEMPS=x	PERS.=x	NOMB.=x	GENRE=x	CAS=x
là	là	ADVgen	MODE=x	TEMPS=x	PERS.=x	NOMB.=x	GENRE=x	CAS=x
,	,	PONfbl	MODE=x	TEMPS=x	PERS.=x	NOMB.=x	GENRE=x	CAS=x
et	et	CONcoo	MODE=x	TEMPS=x	PERS.=x	NOMB.=x	GENRE=x	CAS=x
fais	faire	VERcjg	MODE=imp	TEMPS=x	PERS.=2	NOMB.=s	GENRE=x	CAS=x
place	place	NOMcom	MODE=x	TEMPS=x	PERS.=x	NOMB.=s	GENRE=f	CAS=x
à	à	PRE	MODE=x	TEMPS=x	PERS.=x	NOMB.=x	GENRE=x	CAS=x
Merlin	Merlin	NOMpro	MODE=x	TEMPS=x	PERS.=x	NOMB.=s	GENRE=m	CAS=x
qui	qui	PROrel	MODE=x	TEMPS=x	PERS.=x	NOMB.=s	GENRE=m	CAS=n
est	être	VERcjg	MODE=ind	TEMPS=pst	PERS.=3	NOMB.=s	GENRE=x	CAS=x
plus	plus	ADVgen	MODE=x	TEMPS=x	PERS.=x	NOMB.=x	GENRE=x	CAS=x
honnête	honnête	ADJqua	MODE=x	TEMPS=x	PERS.=x	NOMB.=s	GENRE=m	CAS=x
homme	homme	NOMcom	MODE=x	TEMPS=x	PERS.=x	NOMB.=s	GENRE=m	CAS=x
que	que	CONsub	MODE=x	TEMPS=x	PERS.=x	NOMB.=x	GENRE=x	CAS=x
toi	tu	PROper	MODE=x	TEMPS=x	PERS.=2	NOMB.=s	GENRE=x	CAS=i
.	.	PONfrt	MODE=x	TEMPS=x	PERS.=x	NOMB.=x	GENRE=x	CAS=x
