Mais	mais	CONcoo	MORPH=empty
,	,	PONfbl	MORPH=empty
c'	ce	PROdem	NOMB.=s|GENRE=n
est	être	VERcjg	MODE=ind|TEMPS=pst|PERS.=3|NOMB.=s
le	le	DETdef	NOMB.=s|GENRE=m
Gouverneur	gouverneur	NOMcom	NOMB.=s|GENRE=m
.	.	PONfrt	MORPH=empty
Hé	hé	INJ	MORPH=empty
bien	bien	ADVgen	MORPH=empty
,	,	PONfbl	MORPH=empty
que	que	PROint	MORPH=empty
fait	faire	VERcjg	MODE=ind|TEMPS=pst|PERS.=3|NOMB.=s
cela	cela	PROdem	NOMB.=s|GENRE=n
?	?	PONfrt	MORPH=empty
Comment	comment	ADVint	MORPH=empty
,	,	PONfbl	MORPH=empty
que	que	PROint	MORPH=empty
fait	faire	VERcjg	MODE=ind|TEMPS=pst|PERS.=3|NOMB.=s
cela	cela	PROdem	NOMB.=s|GENRE=n
?	?	PONfrt	MORPH=empty
Si	si	CONsub	MORPH=empty
je	je	PROper	PERS.=1|NOMB.=s|GENRE=x|CAS=n
…	…	PONfrt	MORPH=empty
Laissez	laisser	VERcjg	MODE=imp|PERS.=2|NOMB.=p
-le	il	PROper	PERS.=3|NOMB.=s|GENRE=m|CAS=r
dire	dire	VERinf	MORPH=empty
;	;	PONfbl	MORPH=empty
Voyons	voir	VERcjg	MODE=imp|PERS.=1|NOMB.=p
quelle	quel	DETrel	NOMB.=s|GENRE=f
raison	raison	NOMcom	NOMB.=s|GENRE=f
.	.	PONfrt	MORPH=empty
Lisez	lire	VERcjg	MODE=imp|PERS.=2|NOMB.=p
,	,	PONfbl	MORPH=empty
vous	vous	PROper	PERS.=2|NOMB.=p|GENRE=x|CAS=x
savez	savoir	VERcjg	MODE=ind|TEMPS=pst|PERS.=2|NOMB.=p
lire	lire	VERinf	MORPH=empty
.	.	PONfrt	MORPH=empty
Pour	pour	PRE	MORPH=empty
le	le	DETdef	NOMB.=s|GENRE=m
dîner	dîner	NOMcom	NOMB.=s|GENRE=m
du	de_le	PRE.DETdef	NOMB.=s|GENRE=m
gouverneur	gouverneur	NOMcom	NOMB.=s|GENRE=m
Voici	voici	VERcjg	MODE=ind|TEMPS=pst|PERS.=x|NOMB.=x
la	le	DETdef	NOMB.=s|GENRE=f
salle	salle	NOMcom	NOMB.=s|GENRE=f
préparée	préparer	VERppe	NOMB.=s|GENRE=f
:	:	PONfbl	MORPH=empty
Mais	mais	CONcoo	MORPH=empty
d'	de	PRE	MORPH=empty
être	être	VERinf	MORPH=empty
Chevalier	chevalier	NOMcom	NOMB.=s|GENRE=m
s'	si	CONsub	MORPH=empty
il	il	PROper	PERS.=3|NOMB.=s|GENRE=m|CAS=n
n'	ne	ADVneg	MORPH=empty
avait	avoir	VERcjg	MODE=ind|TEMPS=ipf|PERS.=3|NOMB.=s
point	point	ADVneg	MORPH=empty
l'	le	DETdef	NOMB.=s|GENRE=m
honneur	honneur	NOMcom	NOMB.=s|GENRE=m
,	,	PONfbl	MORPH=empty
Ne	ne	ADVneg	MORPH=empty
pouvant	pouvoir	VERppa	NOMB.=x|GENRE=x
en	en	PROadv	MORPH=empty
avoir	avoir	VERinf	MORPH=empty
l'	le	DETdef	NOMB.=s|GENRE=f
entrée	entrée	NOMcom	NOMB.=s|GENRE=f
,	,	PONfbl	MORPH=empty
Il	il	PROper	PERS.=3|NOMB.=s|GENRE=m|CAS=n
faudrait	falloir	VERcjg	MODE=con|PERS.=3|NOMB.=s
qu'	que	CONsub	MORPH=empty
il	il	PROper	PERS.=3|NOMB.=s|GENRE=m|CAS=n
dînât	dîner	VERcjg	MODE=sub|TEMPS=ipf|PERS.=3|NOMB.=s
par	par	PRE	MORPH=empty
coeur	cœur	NOMcom	NOMB.=s|GENRE=m
.	.	PONfrt	MORPH=empty
Comment	comment	ADVint	MORPH=empty
donc	donc	ADVgen	MORPH=empty
?	?	PONfrt	MORPH=empty
Il	il	PROper	PERS.=3|NOMB.=s|GENRE=m|CAS=n
est	être	VERcjg	MODE=ind|TEMPS=pst|PERS.=3|NOMB.=s
vrai	vrai	ADJqua	NOMB.=s|GENRE=m
,	,	PONfbl	MORPH=empty
c'	ce	PROdem	NOMB.=s|GENRE=n
est	être	VERcjg	MODE=ind|TEMPS=pst|PERS.=3|NOMB.=s
la	le	DETdef	NOMB.=s|GENRE=f
règle	règle	VERcjg	NOMB.=s|GENRE=f
prescrite	prescrire	VERppe	NOMB.=s|GENRE=f
,	,	PONfbl	MORPH=empty
Je	je	PROper	PERS.=1|NOMB.=s|GENRE=x|CAS=n
l'	il	PROper	PERS.=3|NOMB.=s|GENRE=x|CAS=r
avais	avoir	VERcjg	MODE=ind|TEMPS=ipf|PERS.=1|NOMB.=s
oubliée	oublier	VERppe	NOMB.=s|GENRE=f
.	.	PONfrt	MORPH=empty
Quelle	quel	DETint	NOMB.=s|GENRE=f
règle	règle	VERcjg	MODE=sub|TEMPS=pst|PERS.=3|NOMB.=s
maudite	maudit	VERcjg	NOMB.=s|GENRE=f
!	!	PONfrt	MORPH=empty
Ne	ne	ADVneg	MORPH=empty
vous	vous	PROper	PERS.=2|NOMB.=p|GENRE=x|CAS=x
souvient	souvenir	VERcjg	MODE=ind|TEMPS=pst|PERS.=3|NOMB.=s
-il	il	PROper	PERS.=3|NOMB.=s|GENRE=m|CAS=n
point	point	ADVneg	MORPH=empty
d'	de	PRE	MORPH=empty
être	être	VERinf	MORPH=empty
armé	armer	VERppe	NOMB.=s|GENRE=m
Chevalier	chevalier	NOMcom	NOMB.=s|GENRE=m
?	?	PONfrt	MORPH=empty
Voyez	voir	VERcjg	MODE=imp|PERS.=2|NOMB.=p
.	.	PONfrt	MORPH=empty
Confusément	confusément	ADVgen	MORPH=empty
:	:	PONfbl	MORPH=empty
un	un	DETndf	NOMB.=s|GENRE=m
jour	jour	NOMcom	NOMB.=s|GENRE=m
notre	notre	DETpos	PERS.=1|NOMB.=s|GENRE=m
barbier	barbier	NOMcom	NOMB.=s|GENRE=m
…	…	PONfrt	MORPH=empty
Je	je	PROper	PERS.=1|NOMB.=s|GENRE=x|CAS=n
me	je	PROper	PERS.=1|NOMB.=s|GENRE=x|CAS=r
souviens	souvenir	VERcjg	MODE=ind|TEMPS=pst|PERS.=1|NOMB.=s
du	de_le	PRE.DETdef	NOMB.=s|GENRE=m
moins	moins	NOMcom	NOMB.=s|GENRE=m
que	que	CONsub	MORPH=empty
j'	je	PROper	PERS.=1|NOMB.=s|GENRE=x|CAS=n
en	en	PROadv	MORPH=empty
eus	avoir	VERcjg	MODE=ind|TEMPS=psp|PERS.=1|NOMB.=s
grande	grand	ADJqua	NOMB.=s|GENRE=f
envie	envie	NOMcom	NOMB.=s|GENRE=f
.	.	PONfrt	MORPH=empty
Prenez	prendre	VERcjg	MODE=imp|PERS.=2|NOMB.=p
garde	garde	NOMcom	NOMB.=s|GENRE=f
à	à	PRE	MORPH=empty
mentir	mentir	VERinf	MORPH=empty
,	,	PONfbl	MORPH=empty
il	il	PROper	PERS.=3|NOMB.=s|GENRE=m|CAS=n
y	y	PROadv	MORPH=empty
va	aller	VERcjg	MODE=ind|TEMPS=pst|PERS.=3|NOMB.=s
de	de	PRE	MORPH=empty
la	le	DETdef	NOMB.=s|GENRE=f
vie	vie	NOMcom	NOMB.=s|GENRE=f
.	.	PONfrt	MORPH=empty
