Le	le	DETdef	NOMB.=s|GENRE=m
théâtre	théâtre	NOMcom	NOMB.=s|GENRE=m
représente	représenter	VERcjg	MODE=ind|TEMPS=pst|PERS.=3|NOMB.=s
un	un	DETndf	NOMB.=s|GENRE=m
salon	salon	NOMcom	NOMB.=s|GENRE=m
élégant	élégant	ADJqua	NOMB.=s|GENRE=m
.	.	PONfrt	MORPH=empty
Ma	mon	DETpos	PERS.=1|NOMB.=s|GENRE=f
soeur	sœur	NOMcom	NOMB.=s|GENRE=f
,	,	PONfbl	MORPH=empty
me	je	PROper	PERS.=1|NOMB.=s|GENRE=x|CAS=r
trouves	trouver	VERcjg	MODE=ind|TEMPS=pst|PERS.=2|NOMB.=s
-tu	tu	PROper	PERS.=2|NOMB.=s|GENRE=x|CAS=n
bien	bien	ADVgen	MORPH=empty
attifée	attifer	VERppe	NOMB.=s|GENRE=f
ainsi	ainsi	ADVgen	MORPH=empty
?	?	PONfrt	MORPH=empty
Suis	être	VERcjg	MODE=ind|TEMPS=pst|PERS.=1|NOMB.=s
-je	je	PROper	PERS.=1|NOMB.=s|GENRE=x|CAS=n
assez	assez	ADVgen	MORPH=empty
belle	beau	ADJqua	NOMB.=s|GENRE=f
avec	avec	PRE	MORPH=empty
les	le	DETdef	NOMB.=p|GENRE=f
perles	perle	NOMcom	NOMB.=p|GENRE=f
que	que	PROrel	NOMB.=p|GENRE=f|CAS=r
voici	voici	VERcjg	MODE=ind|TEMPS=pst|PERS.=x|NOMB.=x
?	?	PONfrt	MORPH=empty
Ne	ne	ADVneg	MORPH=empty
vois	voir	VERcjg	MODE=ind|TEMPS=pst|PERS.=2|NOMB.=s
-tu	tu	PROper	PERS.=2|NOMB.=s|GENRE=x|CAS=n
nul	nul	DETind	NOMB.=s|GENRE=m
défaut	défaut	NOMcom	NOMB.=s|GENRE=m
à	à	PRE	MORPH=empty
ma	mon	DETpos	PERS.=1|NOMB.=s|GENRE=f
ceinture	ceinture	NOMcom	NOMB.=s|GENRE=f
rose	rose	ADJqua	NOMB.=s|GENRE=f
?	?	PONfrt	MORPH=empty
Crois	croire	VERcjg	MODE=ind|TEMPS=pst|PERS.=2|NOMB.=s
-tu	tu	PROper	PERS.=2|NOMB.=s|GENRE=x|CAS=n
qu'	que	CONsub	MORPH=empty
à	à	PRE	MORPH=empty
ma	mon	DETpos	PERS.=1|NOMB.=s|GENRE=f
toilette	toilette	NOMcom	NOMB.=s|GENRE=f
il	il	PROper	PERS.=3|NOMB.=s|GENRE=m|CAS=n
manque	manquer	VERcjg	MODE=ind|TEMPS=pst|PERS.=3|NOMB.=s
quelque	quelque	DETrel	NOMB.=s|GENRE=f
chose	chose	NOMcom	NOMB.=s|GENRE=f
?	?	PONfrt	MORPH=empty
N'	ne	ADVneg	MORPH=empty
est	être	VERcjg	MODE=ind|TEMPS=pst|PERS.=3|NOMB.=s
-ce	ce	DETdem	NOMB.=s|GENRE=m
pas	pas	NOMcom	NOMB.=s|GENRE=m
que	que	CONsub	MORPH=empty
ces	ce	DETdem	NOMB.=p|GENRE=f
fleurs	fleur	NOMcom	NOMB.=p|GENRE=f
font	faire	VERcjg	MODE=ind|TEMPS=pst|PERS.=3|NOMB.=p
un	un	DETndf	NOMB.=s|GENRE=m
magique	magique	ADJqua	NOMB.=s|GENRE=m
effet	effet	NOMcom	NOMB.=s|GENRE=m
?	?	PONfrt	MORPH=empty
Magique	magique	ADJqua	NOMB.=s|GENRE=m
,	,	PONfbl	MORPH=empty
c'	ce	PROdem	NOMB.=s|GENRE=n
est	être	VERcjg	MODE=ind|TEMPS=pst|PERS.=3|NOMB.=s
le	le	DETdef	NOMB.=s|GENRE=m
mot	mot	NOMcom	NOMB.=s|GENRE=m
;	;	PONfbl	MORPH=empty
mais	mais	CONcoo	MORPH=empty
revenons	revenir	VERcjg	MODE=ind|TEMPS=pst|PERS.=1|NOMB.=p
au	à_le	PRE.DETdef	NOMB.=s|GENRE=m
fait	fait	NOMcom	NOMB.=s|GENRE=m
:	:	PONfbl	MORPH=empty
Dis	dire	VERcjg	MODE=imp|PERS.=2|NOMB.=s
-moi	je	PROper	PERS.=1|NOMB.=s|GENRE=x|CAS=i
,	,	PONfbl	MORPH=empty
serai	être	VERcjg	MODE=ind|TEMPS=fut|PERS.=1|NOMB.=s
-je	je	PROper	PERS.=1|NOMB.=s|GENRE=x|CAS=n
un	un	DETndf	NOMB.=s|GENRE=m
peu	peu	PROind	NOMB.=s|GENRE=m
la	le	DETdef	NOMB.=s|GENRE=f
reine	reine	NOMcom	NOMB.=s|GENRE=f
de	de	PRE	MORPH=empty
la	le	DETdef	NOMB.=s|GENRE=f
fête	fête	NOMcom	NOMB.=s|GENRE=f
?	?	PONfrt	MORPH=empty
Dis	dire	VERcjg	MODE=imp|PERS.=2|NOMB.=s
-moi	je	PROper	PERS.=1|NOMB.=s|GENRE=x|CAS=i
,	,	PONfbl	MORPH=empty
remarque-t	remarquer	VERcjg	MODE=ind|TEMPS=pst|PERS.=3|NOMB.=s
-on	on	PROind	PERS.=3|NOMB.=s|GENRE=x|CAS=n
mes	mon	DETpos	PERS.=1|NOMB.=p|GENRE=f
dentelles	dentelle	NOMcom	NOMB.=p|GENRE=f
?	?	PONfrt	MORPH=empty
Coquette	coquette	ADJqua	NOMB.=s|GENRE=f
!	!	PONfrt	MORPH=empty
Coquette	coquette	ADJqua	NOMB.=s|GENRE=f
,	,	PONfbl	MORPH=empty
c'	ce	PROdem	NOMB.=s|GENRE=n
est	être	VERcjg	MODE=ind|TEMPS=pst|PERS.=3|NOMB.=s
parfait	parfait	ADJqua	NOMB.=s|GENRE=m
;	;	PONfbl	MORPH=empty
mais	mais	CONcoo	MORPH=empty
laissons	laisser	VERcjg	MODE=imp|PERS.=1|NOMB.=p
là	là	ADVgen	MORPH=empty
ce	ce	DETdem	NOMB.=s|GENRE=m
point	point	NOMcom	NOMB.=s|GENRE=m
:	:	PONfbl	MORPH=empty
Aurai	avoir	VERcjg	MODE=ind|TEMPS=fut|PERS.=1|NOMB.=s
-je	je	PROper	PERS.=1|NOMB.=s|GENRE=x|CAS=n
mon	mon	DETpos	PERS.=1|NOMB.=s|GENRE=m
triomphe	triomphe	NOMcom	NOMB.=s|GENRE=m
ou	ou	CONcoo	MORPH=empty
ne	ne	ADVneg	MORPH=empty
l'	il	PROper	PERS.=3|NOMB.=s|GENRE=x|CAS=r
aurai	avoir	VERcjg	MODE=ind|TEMPS=fut|PERS.=1|NOMB.=s
-je	je	PROper	PERS.=1|NOMB.=s|GENRE=x|CAS=n
point	point	ADVneg	MORPH=empty
?	?	PONfrt	MORPH=empty
