J'	je	PROper	PERS.=1|NOMB.=s|GENRE=x|CAS=n
avais	avoir	VERcjg	MODE=ind|TEMPS=ipf|PERS.=1|NOMB.=s
beau	beau	ADVgen	MORPH=empty
ma	mon	DETpos	PERS.=1|NOMB.=s|GENRE=f
face	face	NOMcom	NOMB.=s|GENRE=f
cacher	cacher	VERinf	MORPH=empty
,	,	PONfbl	MORPH=empty
Mon	mon	DETpos	PERS.=1|NOMB.=s|GENRE=m
Arnault	Arnault	NOMpro	NOMB.=s|GENRE=m
me	je	PROper	PERS.=1|NOMB.=s|GENRE=x|CAS=r
connaît	connaître	VERcjg	MODE=ind|TEMPS=pst|PERS.=3|NOMB.=s
trop	trop	ADVgen	MORPH=empty
bien	bien	ADVgen	MORPH=empty
Et	et	CONcoo	MORPH=empty
bien	bien	ADVgen	MORPH=empty
Arnault	Arnault	NOMpro	NOMB.=s|GENRE=m
,	,	PONfbl	MORPH=empty
de	de	PRE	MORPH=empty
nouveau	nouveau	ADJqua	NOMB.=s|GENRE=m
?	?	PONfrt	MORPH=empty
Rien	rien	PROind	NOMB.=s|GENRE=x
Que	que	CONsub	MORPH=empty
ne	ne	ADVneg	MORPH=empty
sachiez	savoir	VERcjg	MODE=ind|TEMPS=pst|PERS.=2|NOMB.=p
comme	comme	CONsub	MORPH=empty
je	je	PROper	PERS.=1|NOMB.=s|GENRE=x|CAS=n
crois	croire	VERcjg	MODE=ind|TEMPS=pst|PERS.=1|NOMB.=s
.	.	PONfrt	MORPH=empty
As	avoir	VERcjg	MODE=ind|TEMPS=pst|PERS.=2|NOMB.=s
-tu	tu	PROper	PERS.=2|NOMB.=s|GENRE=x|CAS=n
entendu	entendre	VERppe	NOMB.=s|GENRE=m
que	que	CONsub	MORPH=empty
le	le	DETdef	NOMB.=s|GENRE=m
Roi	roi	NOMcom	NOMB.=s|GENRE=m
Nous	nous	PROper	PERS.=1|NOMB.=p|GENRE=x|CAS=x
rappellera	rappeler	VERcjg	MODE=ind|TEMPS=fut|PERS.=3|NOMB.=s
bien	bien	ADVgen	MORPH=empty
soudain	soudain	ADVgen	MORPH=empty
?	?	PONfrt	MORPH=empty
Le	le	DETdef	NOMB.=s|GENRE=m
bruit	bruit	NOMcom	NOMB.=s|GENRE=m
est	être	VERcjg	MODE=ind|TEMPS=pst|PERS.=3|NOMB.=s
tel	tel	PROind	NOMB.=s|GENRE=m
.	.	PONfrt	MORPH=empty
Mais	mais	CONcoo	MORPH=empty
quel	quel	DETrel	NOMB.=s|GENRE=m
dédain	dédain	NOMcom	NOMB.=s|GENRE=m
:	:	PONfbl	MORPH=empty
Les	le	DETdef	NOMB.=p|GENRE=m
plaisirs	plaisir	NOMcom	NOMB.=p|GENRE=m
qu'	que	PROrel	NOMB.=p|GENRE=m|CAS=r
Alix	Alix	NOMpro	NOMB.=s|GENRE=f
ma	mon	DETpos	PERS.=1|NOMB.=s|GENRE=f
mignonne	mignon	NOMcom	NOMB.=s|GENRE=f
,	,	PONfbl	MORPH=empty
Quand	quand	CONsub	MORPH=empty
je	je	PROper	PERS.=1|NOMB.=s|GENRE=x|CAS=n
suis	être	VERcjg	MODE=ind|TEMPS=pst|PERS.=1|NOMB.=s
à	à	PRE	MORPH=empty
Paris	Paris	NOMpro	NOMB.=s|GENRE=x
me	je	PROper	PERS.=1|NOMB.=s|GENRE=x|CAS=r
donne	donner	VERcjg	MODE=ind|TEMPS=pst|PERS.=3|NOMB.=s
,	,	PONfbl	MORPH=empty
À	à	PRE	MORPH=empty
cette	ce	DETdem	NOMB.=s|GENRE=f
fois	fois	NOMcom	NOMB.=s|GENRE=f
me	je	PROper	PERS.=1|NOMB.=s|GENRE=x|CAS=r
seront	être	VERcjg	MODE=ind|TEMPS=fut|PERS.=3|NOMB.=p
courts	court	ADJqua	NOMB.=p|GENRE=m
.	.	PONfrt	MORPH=empty
Et	et	CONcoo	MORPH=empty
bien	bien	ADVgen	MORPH=empty
après	après	ADVgen	MORPH=empty
fais	faire	VERcjg	MODE=imp|PERS.=2|NOMB.=s
-moi	je	PROper	PERS.=1|NOMB.=s|GENRE=x|CAS=i
discours	discours	NOMcom	NOMB.=p|GENRE=m
De	de	PRE	MORPH=empty
ce	ce	PROdem	NOMB.=s|GENRE=n
que	que	PROrel	NOMB.=s|GENRE=n|CAS=r
tu	tu	PROper	PERS.=2|NOMB.=s|GENRE=x|CAS=n
as	avoir	VERcjg	MODE=ind|TEMPS=pst|PERS.=2|NOMB.=s
ouï	ouïr	VERppe	NOMB.=s|GENRE=m
dire	dire	VERinf	MORPH=empty
?	?	PONfrt	MORPH=empty
L'	le	DETdef	NOMB.=s|GENRE=m
Empereur	empereur	NOMcom	NOMB.=s|GENRE=m
remâche	remâcher	VERcjg	MODE=ind|TEMPS=pst|PERS.=3|NOMB.=s
son	son	DETpos	PERS.=3|NOMB.=s|GENRE=f
ire	ire	NOMcom	NOMB.=s|GENRE=m
,	,	PONfbl	MORPH=empty
Et	et	CONcoo	MORPH=empty
grinçant	grincer	VERppa	NOMB.=x|GENRE=x
les	le	DETdef	NOMB.=p|GENRE=f
dents	dent	NOMcom	NOMB.=p|GENRE=f
s'	se	PROper	PERS.=3|NOMB.=x|GENRE=x|CAS=x
encourage	encourager	VERcjg	MODE=ind|TEMPS=pst|PERS.=3|NOMB.=s
,	,	PONfbl	MORPH=empty
Tant	tant	ADVgen	MORPH=empty
qu'	que	CONsub	MORPH=empty
on	on	PROind	PERS.=3|NOMB.=s|GENRE=x|CAS=n
dirait	dire	VERcjg	MODE=con|PERS.=3|NOMB.=s
voyant	voir	VERppa	NOMB.=x|GENRE=x
sa	son	DETpos	PERS.=3|NOMB.=s|GENRE=f
rage	rage	NOMcom	NOMB.=s|GENRE=f
,	,	PONfbl	MORPH=empty
Et	et	CONcoo	MORPH=empty
son	son	DETpos	PERS.=3|NOMB.=s|GENRE=m
appétit	appétit	NOMcom	NOMB.=s|GENRE=m
de	de	PRE	MORPH=empty
vengeance	vengeance	NOMcom	NOMB.=s|GENRE=f
,	,	PONfbl	MORPH=empty
Qu'	que	CONsub	MORPH=empty
il	il	PROper	PERS.=3|NOMB.=s|GENRE=m|CAS=n
est	être	VERcjg	MODE=ind|TEMPS=pst|PERS.=3|NOMB.=s
toujours	toujours	ADVgen	MORPH=empty
en	en	PRE	MORPH=empty
celle	celui	PROdem	NOMB.=s|GENRE=f
danse	danse	VERcjg	MODE=ind|TEMPS=pst|PERS.=3|NOMB.=s
Qu'	que	PROrel	NOMB.=s|GENRE=f
il	il	PROper	PERS.=3|NOMB.=s|GENRE=m|CAS=n
fait	faire	VERcjg	MODE=ind|TEMPS=pst|PERS.=3|NOMB.=s
à	à	PRE	MORPH=empty
l'	le	DETdef	NOMB.=s|GENRE=m
envers	envers	NOMcom	MORPH=empty
sur	sur	PRE	MORPH=empty
un	un	DETndf	NOMB.=s|GENRE=m
lit	lit	NOMcom	NOMB.=s|GENRE=m
.	.	PONfrt	MORPH=empty
