C'	ce	PROdem	NOMB.=s|GENRE=n
est	être	VERcjg	MODE=ind|TEMPS=pst|PERS.=3|NOMB.=s
parce	parce	ADVgen	MORPH=empty
que	que	CONsub	NOMB.=s|GENRE=n|CAS=r
cet	ce	DETdem	NOMB.=s|GENRE=m
ouvrage	ouvrage	NOMcom	NOMB.=s|GENRE=m
-là	là	ADVgen	MORPH=empty
n'	ne	ADVneg	MORPH=empty
est	être	VERcjg	MODE=ind|TEMPS=pst|PERS.=3|NOMB.=s
point	point	ADVneg	MORPH=empty
encore	encore	ADVgen	MORPH=empty
achevé	achever	VERppe	NOMB.=s|GENRE=m
qu'	que	CONsub	MORPH=empty
il	il	PROper	PERS.=3|NOMB.=s|GENRE=m|CAS=n
porte	porter	VERcjg	MODE=ind|TEMPS=pst|PERS.=3|NOMB.=s
de	de	PRE	MORPH=empty
mauvais	mauvais	ADJqua	NOMB.=p|GENRE=m
fruits	fruit	NOMcom	NOMB.=p|GENRE=m
.	.	PONfrt	MORPH=empty
Que	que	PROrel	NOMB.=s|GENRE=m|CAS=r
voulez	vouloir	VERcjg	MODE=ind|TEMPS=pst|PERS.=2|NOMB.=p
-vous	vous	PROper	PERS.=2|NOMB.=p|GENRE=x|CAS=x
donc	donc	ADVgen	MORPH=empty
faire	faire	VERinf	MORPH=empty
de	de	PRE	MORPH=empty
plus	plus	ADVgen	MORPH=empty
?	?	PONfrt	MORPH=empty
Espérez	espérer	VERcjg	MODE=imp|PERS.=2|NOMB.=p
-vous	vous	PROper	PERS.=2|NOMB.=p|GENRE=x|CAS=x
mettre	mettre	VERinf	MORPH=empty
la	le	DETdef	NOMB.=s|GENRE=f
noblesse	noblesse	NOMcom	NOMB.=s|GENRE=f
plus	plus	ADVgen	MORPH=empty
bas	bas	ADVgen	NOMB.=s|GENRE=m
encore	encore	ADVgen	MORPH=empty
?	?	PONfrt	MORPH=empty
C'	ce	PROdem	NOMB.=s|GENRE=n
est	être	VERcjg	MODE=ind|TEMPS=pst|PERS.=3|NOMB.=s
bien	bien	ADVgen	MORPH=empty
de	de	PRE	MORPH=empty
la	le	DETdef	NOMB.=s|GENRE=f
présomption	présomption	NOMcom	NOMB.=s|GENRE=f
!	!	PONfrt	MORPH=empty
Prince	prince	NOMcom	NOMB.=s|GENRE=m
,	,	PONfbl	MORPH=empty
souvenez	souvenir	VERcjg	MODE=imp|PERS.=2|NOMB.=p
-vous	vous	PROper	PERS.=2|NOMB.=p|GENRE=x|CAS=x
de	de	PRE	MORPH=empty
ce	ce	PROdem	NOMB.=s|GENRE=n
qu'	que	PROrel	NOMB.=s|GENRE=n|CAS=r
écrivait	écrire	VERcjg	MODE=ind|TEMPS=ipf|PERS.=3|NOMB.=s
,	,	PONfbl	MORPH=empty
sous	sous	PRE	MORPH=empty
la	le	DETdef	NOMB.=s|GENRE=f
Fronde	fronde	NOMcom	NOMB.=s|GENRE=f
,	,	PONfbl	MORPH=empty
un	un	DETndf	NOMB.=s|GENRE=m
libelliste	libelliste	NOMcom	NOMB.=s|GENRE=m
d'	de	PRE	MORPH=empty
une	un	DETndf	NOMB.=s|GENRE=f
farouche	farouche	ADJqua	NOMB.=s|GENRE=f
éloquence	éloquence	NOMcom	NOMB.=s|GENRE=f
.	.	PONfrt	MORPH=empty
Cet	ce	DETdem	NOMB.=s|GENRE=m
homme	homme	NOMcom	NOMB.=s|GENRE=m
était	être	VERcjg	MODE=ind|TEMPS=ipf|PERS.=3|NOMB.=s
payé	payer	VERppe	NOMB.=s|GENRE=m
par	par	PRE	MORPH=empty
vous	vous	PROper	PERS.=2|NOMB.=p|GENRE=x|CAS=x
pour	pour	PRE	MORPH=empty
ébranler	ébranler	VERinf	MORPH=empty
le	le	DETdef	NOMB.=s|GENRE=m
trône	trône	NOMcom	NOMB.=s|GENRE=m
au	à_le	PRE.DETdef	NOMB.=s|GENRE=m
profit	profit	NOMcom	NOMB.=s|GENRE=m
des	de_le	PRE.DETdef	NOMB.=p|GENRE=m
grands	grand	NOMcom	NOMB.=p|GENRE=m
,	,	PONfbl	MORPH=empty
et	et	CONcoo	MORPH=empty
cependant	cependant	ADVgen	MORPH=empty
,	,	PONfbl	MORPH=empty
de	de	PRE	MORPH=empty
ses	son	DETpos	PERS.=3|NOMB.=p|GENRE=f
entrailles	entrailles	NOMcom	NOMB.=p|GENRE=f
populaires	populaire	ADJqua	NOMB.=p|GENRE=f
s'	se	PROper	PERS.=3|NOMB.=x|GENRE=x|CAS=x
échappait	échapper	VERcjg	MODE=ind|TEMPS=ipf|PERS.=3|NOMB.=s
ce	ce	DETdem	NOMB.=s|GENRE=m
cri	cri	NOMcom	NOMB.=s|GENRE=m
que	que	PROrel	NOMB.=s|GENRE=m|CAS=r
vous	vous	PROper	PERS.=2|NOMB.=p|GENRE=x|CAS=x
n'	ne	ADVneg	MORPH=empty
avez	avoir	VERcjg	MODE=ind|TEMPS=pst|PERS.=2|NOMB.=p
pu	pouvoir	VERppe	NOMB.=s|GENRE=m
retenir	retenir	VERinf	MORPH=empty
:	:	PONfbl	MORPH=empty
«	«	PONpga	MORPH=empty
Les	le	DETdef	NOMB.=p|GENRE=m
grands	grand	NOMcom	NOMB.=p|GENRE=m
ne	ne	ADVneg	MORPH=empty
sont	être	VERcjg	MODE=ind|TEMPS=pst|PERS.=3|NOMB.=p
grands	grand	ADJqua	NOMB.=p|GENRE=m
que	que	CONsub	MORPH=empty
parce	parce	ADVgen	MORPH=empty
que	que	CONsub	NOMB.=s|GENRE=n|CAS=r
nous	nous	PROper	PERS.=1|NOMB.=p|GENRE=x|CAS=x
les	il	PROper	PERS.=3|NOMB.=p|GENRE=x|CAS=r
portons	porter	VERcjg	MODE=ind|TEMPS=pst|PERS.=1|NOMB.=p
sur	sur	PRE	MORPH=empty
nos	notre	DETpos	PERS.=1|NOMB.=p|GENRE=f
épaules	épaule	NOMcom	NOMB.=p|GENRE=f
;	;	PONfbl	MORPH=empty
nous	nous	PROper	PERS.=1|NOMB.=p|GENRE=x|CAS=x
n'	ne	ADVneg	MORPH=empty
avons	avoir	VERcjg	MODE=ind|TEMPS=pst|PERS.=1|NOMB.=p
qu'	que	CONsub	MORPH=empty
à	à	PRE	MORPH=empty
les	il	PROper	PERS.=3|NOMB.=p|GENRE=x|CAS=r
secouer	secouer	VERinf	MORPH=empty
pour	pour	PRE	MORPH=empty
en	en	PROadv	MORPH=empty
joncher	joncher	VERinf	MORPH=empty
la	le	DETdef	NOMB.=s|GENRE=f
terre	terre	NOMcom	NOMB.=s|GENRE=f
.	.	PONfrt	MORPH=empty
»	»	PONpdr	MORPH=empty
