LE	le	DETdef	MODE=x	TEMPS=x	PERS.=x	NOMB.=s	GENRE=m	CAS=x
GARÇON	garçon	NOMcom	MODE=x	TEMPS=x	PERS.=x	NOMB.=s	GENRE=m	CAS=x
Oui	oui	ADVgen	MODE=x	TEMPS=x	PERS.=x	NOMB.=x	GENRE=x	CAS=x
.	.	PONfrt	MODE=x	TEMPS=x	PERS.=x	NOMB.=x	GENRE=x	CAS=x
C'	ce	PROdem	MODE=x	TEMPS=x	PERS.=x	NOMB.=s	GENRE=n	CAS=x
est	être	VERcjg	MODE=ind	TEMPS=pst	PERS.=3	NOMB.=s	GENRE=x	CAS=x
pour	pour	PRE	MODE=x	TEMPS=x	PERS.=x	NOMB.=x	GENRE=x	CAS=x
lui	il	PROper	MODE=x	TEMPS=x	PERS.=3	NOMB.=s	GENRE=m	CAS=i
.	.	PONfrt	MODE=x	TEMPS=x	PERS.=x	NOMB.=x	GENRE=x	CAS=x
MÉDÉE	Médée	NOMpro	MODE=x	TEMPS=x	PERS.=x	NOMB.=s	GENRE=f	CAS=x
Qu'	que	CONsub	MODE=x	TEMPS=x	PERS.=x	NOMB.=x	GENRE=x	CAS=x
a-t	avoir	VERcjg	MODE=ind	TEMPS=pst	PERS.=3	NOMB.=s	GENRE=x	CAS=x
-il	il	PROper	MODE=x	TEMPS=x	PERS.=3	NOMB.=s	GENRE=m	CAS=n
donc	donc	ADVgen	MODE=x	TEMPS=x	PERS.=x	NOMB.=x	GENRE=x	CAS=x
fait	faire	VERppe	MODE=x	TEMPS=x	PERS.=x	NOMB.=s	GENRE=m	CAS=x
?	?	PONfrt	MODE=x	TEMPS=x	PERS.=x	NOMB.=x	GENRE=x	CAS=x
Allons	aller	VERcjg	MODE=imp	TEMPS=x	PERS.=1	NOMB.=p	GENRE=x	CAS=x
,	,	PONfbl	MODE=x	TEMPS=x	PERS.=x	NOMB.=x	GENRE=x	CAS=x
dis	dire	VERcjg	MODE=imp	TEMPS=x	PERS.=2	NOMB.=s	GENRE=x	CAS=x
vite	vite	ADVgen	MODE=x	TEMPS=x	PERS.=x	NOMB.=x	GENRE=x	CAS=x
.	.	PONfrt	MODE=x	TEMPS=x	PERS.=x	NOMB.=x	GENRE=x	CAS=x
Tu	tu	PROper	MODE=x	TEMPS=x	PERS.=2	NOMB.=s	GENRE=x	CAS=n
as	avoir	VERcjg	MODE=ind	TEMPS=pst	PERS.=2	NOMB.=s	GENRE=x	CAS=x
couru	courir	VERppe	MODE=x	TEMPS=x	PERS.=x	NOMB.=s	GENRE=m	CAS=x
,	,	PONfbl	MODE=x	TEMPS=x	PERS.=x	NOMB.=x	GENRE=x	CAS=x
tu	tu	PROper	MODE=x	TEMPS=x	PERS.=2	NOMB.=s	GENRE=x	CAS=n
es	être	VERcjg	MODE=ind	TEMPS=pst	PERS.=2	NOMB.=s	GENRE=x	CAS=x
tout	tout	ADVgen	MODE=x	TEMPS=x	PERS.=x	NOMB.=x	GENRE=x	CAS=x
rouge	rouge	ADJqua	MODE=x	TEMPS=x	PERS.=x	NOMB.=s	GENRE=x	CAS=x
,	,	PONfbl	MODE=x	TEMPS=x	PERS.=x	NOMB.=x	GENRE=x	CAS=x
il	il	PROper	MODE=x	TEMPS=x	PERS.=3	NOMB.=s	GENRE=m	CAS=n
te	tu	PROper	MODE=x	TEMPS=x	PERS.=2	NOMB.=s	GENRE=x	CAS=i
tarde	tarder	VERcjg	MODE=ind	TEMPS=pst	PERS.=3	NOMB.=s	GENRE=x	CAS=x
d'	de	PRE	MODE=x	TEMPS=x	PERS.=x	NOMB.=x	GENRE=x	CAS=x
y	y	PROadv	MODE=x	TEMPS=x	PERS.=x	NOMB.=x	GENRE=x	CAS=x
retourner	retourner	VERinf	MODE=x	TEMPS=x	PERS.=x	NOMB.=x	GENRE=x	CAS=x
.	.	PONfrt	MODE=x	TEMPS=x	PERS.=x	NOMB.=x	GENRE=x	CAS=x
On	on	PROind	MODE=x	TEMPS=x	PERS.=3	NOMB.=s	GENRE=x	CAS=n
danse	danser	VERcjg	MODE=ind	TEMPS=pst	PERS.=3	NOMB.=s	GENRE=x	CAS=x
,	,	PONfbl	MODE=x	TEMPS=x	PERS.=x	NOMB.=x	GENRE=x	CAS=x
n'	ne	ADVneg	MODE=x	TEMPS=x	PERS.=x	NOMB.=x	GENRE=x	CAS=x
est	être	VERcjg	MODE=ind	TEMPS=pst	PERS.=3	NOMB.=s	GENRE=x	CAS=x
-ce	ce	DETdem	MODE=x	TEMPS=x	PERS.=x	NOMB.=s	GENRE=m	CAS=x
pas	pas	ADVneg	MODE=x	TEMPS=x	PERS.=x	NOMB.=x	GENRE=x	CAS=x
?	?	PONfrt	MODE=x	TEMPS=x	PERS.=x	NOMB.=x	GENRE=x	CAS=x
LE	le	DETdef	MODE=x	TEMPS=x	PERS.=x	NOMB.=s	GENRE=m	CAS=x
GARÇON	garçon	NOMcom	MODE=x	TEMPS=x	PERS.=x	NOMB.=s	GENRE=m	CAS=x
Oui	oui	ADVgen	MODE=x	TEMPS=x	PERS.=x	NOMB.=x	GENRE=x	CAS=x
.	.	PONfrt	MODE=x	TEMPS=x	PERS.=x	NOMB.=x	GENRE=x	CAS=x
MÉDÉE	Médée	NOMpro	MODE=x	TEMPS=x	PERS.=x	NOMB.=s	GENRE=f	CAS=x
Et	et	CONcoo	MODE=x	TEMPS=x	PERS.=x	NOMB.=x	GENRE=x	CAS=x
on	on	PROind	MODE=x	TEMPS=x	PERS.=3	NOMB.=s	GENRE=x	CAS=n
boit	boire	VERcjg	MODE=ind	TEMPS=pst	PERS.=3	NOMB.=s	GENRE=x	CAS=x
?	?	PONfrt	MODE=x	TEMPS=x	PERS.=x	NOMB.=x	GENRE=x	CAS=x
LE	le	DETdef	MODE=x	TEMPS=x	PERS.=x	NOMB.=s	GENRE=m	CAS=x
GARÇON	garçon	NOMcom	MODE=x	TEMPS=x	PERS.=x	NOMB.=s	GENRE=m	CAS=x
Six	six	DETcar	MODE=x	TEMPS=x	PERS.=x	NOMB.=p	GENRE=x	CAS=x
barriques	barrique	ADJqua	MODE=x	TEMPS=x	PERS.=x	NOMB.=p	GENRE=f	CAS=x
ouvertes	ouvert	ADJqua	MODE=x	TEMPS=x	PERS.=x	NOMB.=p	GENRE=f	CAS=x
devant	devant	PRE	MODE=x	TEMPS=x	PERS.=x	NOMB.=x	GENRE=x	CAS=x
le	le	DETdef	MODE=x	TEMPS=x	PERS.=x	NOMB.=s	GENRE=m	CAS=x
palais	palais	NOMcom	MODE=x	TEMPS=x	PERS.=x	NOMB.=s	GENRE=m	CAS=x
!	!	PONfrt	MODE=x	TEMPS=x	PERS.=x	NOMB.=x	GENRE=x	CAS=x
MÉDÉE	Médée	NOMpro	MODE=x	TEMPS=x	PERS.=x	NOMB.=s	GENRE=f	CAS=x
Et	et	CONcoo	MODE=x	TEMPS=x	PERS.=x	NOMB.=x	GENRE=x	CAS=x
les	le	DETdef	MODE=x	TEMPS=x	PERS.=x	NOMB.=p	GENRE=m	CAS=x
jeux	jeu	NOMcom	MODE=x	TEMPS=x	PERS.=x	NOMB.=p	GENRE=m	CAS=x
,	,	PONfbl	MODE=x	TEMPS=x	PERS.=x	NOMB.=x	GENRE=x	CAS=x
et	et	CONcoo	MODE=x	TEMPS=x	PERS.=x	NOMB.=x	GENRE=x	CAS=x
les	le	DETdef	MODE=x	TEMPS=x	PERS.=x	NOMB.=p	GENRE=m	CAS=x
pétards	pétard	NOMpro	MODE=x	TEMPS=x	PERS.=x	NOMB.=p	GENRE=m	CAS=x
,	,	PONfbl	MODE=x	TEMPS=x	PERS.=x	NOMB.=x	GENRE=x	CAS=x
et	et	CONcoo	MODE=x	TEMPS=x	PERS.=x	NOMB.=x	GENRE=x	CAS=x
les	le	DETdef	MODE=x	TEMPS=x	PERS.=x	NOMB.=p	GENRE=m	CAS=x
fusils	fusil	NOMcom	MODE=x	TEMPS=x	PERS.=x	NOMB.=p	GENRE=m	CAS=x
qui	qui	PROrel	MODE=x	TEMPS=x	PERS.=x	NOMB.=p	GENRE=m	CAS=n
partent	partir	VERcjg	MODE=ind	TEMPS=pst	PERS.=3	NOMB.=p	GENRE=x	CAS=x
tous	tout	DETind	MODE=x	TEMPS=x	PERS.=x	NOMB.=p	GENRE=m	CAS=x
les	le	DETdef	MODE=x	TEMPS=x	PERS.=x	NOMB.=p	GENRE=m	CAS=x
ensembles	ensemble	NOMcom	MODE=x	TEMPS=x	PERS.=x	NOMB.=p	GENRE=m	CAS=x
vers	vers	PRE	MODE=x	TEMPS=x	PERS.=x	NOMB.=x	GENRE=x	CAS=x
le	le	DETdef	MODE=x	TEMPS=x	PERS.=x	NOMB.=s	GENRE=m	CAS=x
ciel	ciel	NOMcom	MODE=x	TEMPS=x	PERS.=x	NOMB.=s	GENRE=m	CAS=x
.	.	PONfrt	MODE=x	TEMPS=x	PERS.=x	NOMB.=x	GENRE=x	CAS=x
Vite	vite	ADVgen	MODE=x	TEMPS=x	PERS.=x	NOMB.=x	GENRE=x	CAS=x
,	,	PONfbl	MODE=x	TEMPS=x	PERS.=x	NOMB.=x	GENRE=x	CAS=x
vite	vite	ADVgen	MODE=x	TEMPS=x	PERS.=x	NOMB.=x	GENRE=x	CAS=x
,	,	PONfbl	MODE=x	TEMPS=x	PERS.=x	NOMB.=x	GENRE=x	CAS=x
vite	vite	ADVgen	MODE=x	TEMPS=x	PERS.=x	NOMB.=x	GENRE=x	CAS=x
,	,	PONfbl	MODE=x	TEMPS=x	PERS.=x	NOMB.=x	GENRE=x	CAS=x
petit	petit	ADJqua	MODE=x	TEMPS=x	PERS.=x	NOMB.=s	GENRE=m	CAS=x
,	,	PONfbl	MODE=x	TEMPS=x	PERS.=x	NOMB.=x	GENRE=x	CAS=x
et	et	CONcoo	MODE=x	TEMPS=x	PERS.=x	NOMB.=x	GENRE=x	CAS=x
tu	tu	PROper	MODE=x	TEMPS=x	PERS.=2	NOMB.=s	GENRE=x	CAS=n
auras	avoir	VERcjg	MODE=ind	TEMPS=fut	PERS.=2	NOMB.=s	GENRE=x	CAS=x
joué	jouer	VERppe	MODE=x	TEMPS=x	PERS.=x	NOMB.=s	GENRE=m	CAS=x
ton	ton	DETpos	MODE=x	TEMPS=x	PERS.=2	NOMB.=s	GENRE=m	CAS=x
rôle	rôle	NOMcom	MODE=x	TEMPS=x	PERS.=x	NOMB.=s	GENRE=m	CAS=x
,	,	PONfbl	MODE=x	TEMPS=x	PERS.=x	NOMB.=x	GENRE=x	CAS=x
tu	tu	PROper	MODE=x	TEMPS=x	PERS.=2	NOMB.=s	GENRE=x	CAS=n
pourrais	pouvoir	VERcjg	MODE=con	TEMPS=x	PERS.=2	NOMB.=s	GENRE=x	CAS=x
retourner	retourner	VERinf	MODE=x	TEMPS=x	PERS.=x	NOMB.=x	GENRE=x	CAS=x
là-bas	là-bas	ADVgen	MODE=x	TEMPS=x	PERS.=x	NOMB.=x	GENRE=x	CAS=x
et	et	CONcoo	MODE=x	TEMPS=x	PERS.=x	NOMB.=x	GENRE=x	CAS=x
t'	tu	PROper	MODE=x	TEMPS=x	PERS.=2	NOMB.=s	GENRE=x	CAS=r
amuser	amuser	VERinf	MODE=x	TEMPS=x	PERS.=x	NOMB.=x	GENRE=x	CAS=x
.	.	PONfrt	MODE=x	TEMPS=x	PERS.=x	NOMB.=x	GENRE=x	CAS=x
Tu	tu	PROper	MODE=x	TEMPS=x	PERS.=2	NOMB.=s	GENRE=x	CAS=n
ne	ne	ADVneg	MODE=x	TEMPS=x	PERS.=x	NOMB.=x	GENRE=x	CAS=x
me	je	PROper	MODE=x	TEMPS=x	PERS.=1	NOMB.=s	GENRE=x	CAS=r
connais	connaître	VERcjg	MODE=ind	TEMPS=pst	PERS.=2	NOMB.=s	GENRE=x	CAS=x
pas	pas	ADVneg	MODE=x	TEMPS=x	PERS.=x	NOMB.=x	GENRE=x	CAS=x
.	.	PONfrt	MODE=x	TEMPS=x	PERS.=x	NOMB.=x	GENRE=x	CAS=x
Qu'	que	CONsub	MODE=x	TEMPS=x	PERS.=x	NOMB.=x	GENRE=x	CAS=x
est	être	VERcjg	MODE=ind	TEMPS=pst	PERS.=3	NOMB.=s	GENRE=x	CAS=x
-ce	ce	PROdem	MODE=x	TEMPS=x	PERS.=x	NOMB.=s	GENRE=n	CAS=x
que	que	PROrel	MODE=x	TEMPS=x	PERS.=x	NOMB.=s	GENRE=n	CAS=r
cela	cela	PROdem	MODE=x	TEMPS=x	PERS.=x	NOMB.=s	GENRE=n	CAS=x
peut	pouvoir	VERcjg	MODE=ind	TEMPS=pst	PERS.=3	NOMB.=s	GENRE=x	CAS=x
te	tu	PROper	MODE=x	TEMPS=x	PERS.=2	NOMB.=s	GENRE=x	CAS=r
faire	faire	VERinf	MODE=x	TEMPS=x	PERS.=x	NOMB.=x	GENRE=x	CAS=x
ce	ce	PROdem	MODE=x	TEMPS=x	PERS.=x	NOMB.=s	GENRE=n	CAS=x
que	que	PROrel	MODE=x	TEMPS=x	PERS.=x	NOMB.=s	GENRE=n	CAS=r
tu	tu	PROper	MODE=x	TEMPS=x	PERS.=2	NOMB.=s	GENRE=x	CAS=n
vas	aller	VERcjg	MODE=ind	TEMPS=pst	PERS.=2	NOMB.=s	GENRE=x	CAS=x
me	je	PROper	MODE=x	TEMPS=x	PERS.=1	NOMB.=s	GENRE=x	CAS=r
dire	dire	VERinf	MODE=x	TEMPS=x	PERS.=x	NOMB.=x	GENRE=x	CAS=x
?	?	PONfrt	MODE=x	TEMPS=x	PERS.=x	NOMB.=x	GENRE=x	CAS=x
Pourquoi	pourquoi	ADVint	MODE=x	TEMPS=x	PERS.=x	NOMB.=x	GENRE=x	CAS=x
mon	mon	DETpos	MODE=x	TEMPS=x	PERS.=1	NOMB.=s	GENRE=m	CAS=x
visage	visage	NOMcom	MODE=x	TEMPS=x	PERS.=x	NOMB.=s	GENRE=m	CAS=x
te	tu	PROper	MODE=x	TEMPS=x	PERS.=2	NOMB.=s	GENRE=x	CAS=i
fait	faire	VERcjg	MODE=ind	TEMPS=pst	PERS.=3	NOMB.=s	GENRE=x	CAS=x
-il	il	PROper	MODE=x	TEMPS=x	PERS.=3	NOMB.=s	GENRE=m	CAS=n
pleur	pleurer	VERinf	MODE=x	TEMPS=x	PERS.=x	NOMB.=x	GENRE=x	CAS=x
?	?	PONfrt	MODE=x	TEMPS=x	PERS.=x	NOMB.=x	GENRE=x	CAS=x
Tu	tu	PROper	MODE=x	TEMPS=x	PERS.=2	NOMB.=s	GENRE=x	CAS=n
veux	vouloir	VERcjg	MODE=ind	TEMPS=pst	PERS.=2	NOMB.=s	GENRE=x	CAS=x
que	que	CONsub	MODE=x	TEMPS=x	PERS.=x	NOMB.=x	GENRE=x	CAS=x
je	je	PROper	MODE=x	TEMPS=x	PERS.=1	NOMB.=s	GENRE=x	CAS=n
sourie	sourire	VERcjg	MODE=sub	TEMPS=pst	PERS.=1	NOMB.=s	GENRE=x	CAS=x
?	?	PONfrt	MODE=x	TEMPS=x	PERS.=x	NOMB.=x	GENRE=x	CAS=x
Voilà	voilà	VERcjg	MODE=ind	TEMPS=pst	PERS.=x	NOMB.=x	GENRE=x	CAS=x
,	,	PONfbl	MODE=x	TEMPS=x	PERS.=x	NOMB.=x	GENRE=x	CAS=x
je	je	PROper	MODE=x	TEMPS=x	PERS.=1	NOMB.=s	GENRE=x	CAS=n
souris	sourire	VERcjg	MODE=ind	TEMPS=pst	PERS.=1	NOMB.=s	GENRE=x	CAS=x
.	.	PONfrt	MODE=x	TEMPS=x	PERS.=x	NOMB.=x	GENRE=x	CAS=x
D'	de	PRE	MODE=x	TEMPS=x	PERS.=x	NOMB.=x	GENRE=x	CAS=x
ailleurs	ailleurs	ADVgen	MODE=x	TEMPS=x	PERS.=x	NOMB.=x	GENRE=x	CAS=x
,	,	PONfbl	MODE=x	TEMPS=x	PERS.=x	NOMB.=x	GENRE=x	CAS=x
c'	ce	PROdem	MODE=x	TEMPS=x	PERS.=x	NOMB.=s	GENRE=n	CAS=x
est	être	VERcjg	MODE=ind	TEMPS=pst	PERS.=3	NOMB.=s	GENRE=x	CAS=x
plutôt	plutôt	ADVgen	MODE=x	TEMPS=x	PERS.=x	NOMB.=x	GENRE=x	CAS=x
une	un	DETndf	MODE=x	TEMPS=x	PERS.=x	NOMB.=s	GENRE=f	CAS=x
bonne	bon	ADJqua	MODE=x	TEMPS=x	PERS.=x	NOMB.=s	GENRE=f	CAS=x
nouvelle	nouvelle	NOMcom	MODE=x	TEMPS=x	PERS.=x	NOMB.=s	GENRE=f	CAS=x
puisqu'	puisque	CONsub	MODE=x	TEMPS=x	PERS.=x	NOMB.=x	GENRE=x	CAS=x
on	on	PROind	MODE=x	TEMPS=x	PERS.=3	NOMB.=s	GENRE=x	CAS=n
danse	danser	VERcjg	MODE=ind	TEMPS=pst	PERS.=3	NOMB.=s	GENRE=x	CAS=x
.	.	PONfrt	MODE=x	TEMPS=x	PERS.=x	NOMB.=x	GENRE=x	CAS=x
Vite	vite	ADVgen	MODE=x	TEMPS=x	PERS.=x	NOMB.=x	GENRE=x	CAS=x
,	,	PONfbl	MODE=x	TEMPS=x	PERS.=x	NOMB.=x	GENRE=x	CAS=x
petit	petit	ADJqua	MODE=x	TEMPS=x	PERS.=x	NOMB.=s	GENRE=m	CAS=x
,	,	PONfbl	MODE=x	TEMPS=x	PERS.=x	NOMB.=x	GENRE=x	CAS=x
puisque	puisque	CONsub	MODE=x	TEMPS=x	PERS.=x	NOMB.=x	GENRE=x	CAS=x
je	je	PROper	MODE=x	TEMPS=x	PERS.=1	NOMB.=s	GENRE=x	CAS=n
sais	savoir	VERcjg	MODE=ind	TEMPS=pst	PERS.=1	NOMB.=s	GENRE=x	CAS=x
!	!	PONfrt	MODE=x	TEMPS=x	PERS.=x	NOMB.=x	GENRE=x	CAS=x
LE	le	DETdef	MODE=x	TEMPS=x	PERS.=x	NOMB.=s	GENRE=m	CAS=x
GARÇON	garçon	NOMcom	MODE=x	TEMPS=x	PERS.=x	NOMB.=s	GENRE=m	CAS=x
Il	il	PROper	MODE=x	TEMPS=x	PERS.=3	NOMB.=s	GENRE=m	CAS=n
épouse	épouser	VERcjg	MODE=ind	TEMPS=pst	PERS.=3	NOMB.=s	GENRE=x	CAS=x
Créuse	Créuse	NOMpro	MODE=x	TEMPS=x	PERS.=x	NOMB.=s	GENRE=f	CAS=x
,	,	PONfbl	MODE=x	TEMPS=x	PERS.=x	NOMB.=x	GENRE=x	CAS=x
la	le	DETdef	MODE=x	TEMPS=x	PERS.=x	NOMB.=s	GENRE=f	CAS=x
fille	fille	NOMcom	MODE=x	TEMPS=x	PERS.=x	NOMB.=s	GENRE=f	CAS=x
de	de	PRE	MODE=x	TEMPS=x	PERS.=x	NOMB.=x	GENRE=x	CAS=x
Créon	Créon	NOMpro	MODE=x	TEMPS=x	PERS.=x	NOMB.=s	GENRE=m	CAS=x
.	.	PONfrt	MODE=x	TEMPS=x	PERS.=x	NOMB.=x	GENRE=x	CAS=x
C'	ce	PROdem	MODE=x	TEMPS=x	PERS.=x	NOMB.=s	GENRE=n	CAS=x
est	être	VERcjg	MODE=ind	TEMPS=pst	PERS.=3	NOMB.=s	GENRE=x	CAS=x
demain	demain	ADVgen	MODE=x	TEMPS=x	PERS.=x	NOMB.=x	GENRE=x	CAS=x
matin	matin	NOMcom	MODE=x	TEMPS=x	PERS.=x	NOMB.=s	GENRE=m	CAS=x
la	le	DETdef	MODE=x	TEMPS=x	PERS.=x	NOMB.=s	GENRE=f	CAS=x
noce	noce	NOMcom	MODE=x	TEMPS=x	PERS.=x	NOMB.=s	GENRE=f	CAS=x
.	.	PONfrt	MODE=x	TEMPS=x	PERS.=x	NOMB.=x	GENRE=x	CAS=x
