Tout	tout	PROind	NOMB.=s|GENRE=n
change	changer	VERcjg	MODE=ind|TEMPS=pst|PERS.=1|NOMB.=s
en	en	PRE	MORPH=empty
un	un	DETndf	NOMB.=s|GENRE=m
instant	instant	NOMcom	NOMB.=s|GENRE=m
Comme	comme	CONsub	MORPH=empty
la	le	DETdef	NOMB.=s|GENRE=f
lune	lune	NOMcom	NOMB.=s|GENRE=f
.	.	PONfrt	MORPH=empty
Mais	mais	CONcoo	MORPH=empty
ma	mon	DETpos	PERS.=1|NOMB.=s|GENRE=f
douleur	douleur	NOMcom	NOMB.=s|GENRE=f
pourtant	pourtant	ADVgen	MORPH=empty
Est	être	VERcjg	MODE=ind|TEMPS=pst|PERS.=3|NOMB.=s
toujours	toujours	ADVgen	MORPH=empty
une	un	ADJcar	NOMB.=s|GENRE=f
!	!	PONfrt	MORPH=empty
Rien	rien	PROind	NOMB.=s|GENRE=x
ne	ne	ADVneg	MORPH=empty
saurait	savoir	VERcjg	MODE=con|PERS.=3|NOMB.=s
changer	changer	VERinf	MORPH=empty
Mon	mon	DETpos	PERS.=1|NOMB.=s|GENRE=m
deuil	deuil	NOMcom	NOMB.=s|GENRE=m
extrême	extrême	ADJqua	NOMB.=s|GENRE=m
,	,	PONfbl	MORPH=empty
Rien	rien	PROind	NOMB.=s|GENRE=x
ne	ne	ADVneg	MORPH=empty
peut	pouvoir	VERcjg	MODE=ind|TEMPS=pst|PERS.=3|NOMB.=s
l'	il	PROper	PERS.=3|NOMB.=s|GENRE=x|CAS=r
alléger	alléger	VERinf	MORPH=empty
Que	que	CONsub	MORPH=empty
le	le	DETdef	NOMB.=s|GENRE=m
deuil	deuil	NOMcom	NOMB.=s|GENRE=m
même	même	ADJind	NOMB.=s|GENRE=m
.	.	PONfrt	MORPH=empty
Vous	vous	PROper	PERS.=2|NOMB.=p|GENRE=x|CAS=n
qui	qui	PROrel	NOMB.=x|GENRE=x|CAS=n
voyez	voir	VERcjg	MODE=ind|TEMPS=pst|PERS.=2|NOMB.=p
mon	mon	DETpos	PERS.=1|NOMB.=s|GENRE=m
sort	sort	NOMcom	NOMB.=s|GENRE=m
Et	et	CONcoo	MORPH=empty
à	à	PRE	MORPH=empty
toute	tout	DETind	NOMB.=s|GENRE=f
heure	heure	NOMcom	NOMB.=s|GENRE=f
,	,	PONfbl	MORPH=empty
Pleurez	pleurer	VERcjg	MODE=imp|PERS.=2|NOMB.=p
pour	pour	PRE	MORPH=empty
cette	ce	DETdem	NOMB.=s|GENRE=f
mort	mort	NOMcom	NOMB.=s|GENRE=f
Qui	qui	PROrel	NOMB.=s|GENRE=f|CAS=n
rien	rien	PROind	NOMB.=s|GENRE=x
ne	ne	ADVneg	MORPH=empty
pleure	pleurer	VERcjg	MODE=ind|TEMPS=pst|PERS.=3|NOMB.=s
.	.	PONfrt	MORPH=empty
Voyez	voir	VERcjg	MODE=imp|PERS.=2|NOMB.=p
mes	mon	DETpos	PERS.=1|NOMB.=p|GENRE=m
maux	mal	NOMcom	NOMB.=p|GENRE=m
certains	certain	ADJqua	NOMB.=p|GENRE=m
,	,	PONfbl	MORPH=empty
Et	et	CONcoo	MORPH=empty
que	que	CONsub	MORPH=empty
sans	sans	PRE	MORPH=empty
feinte	feinte	NOMcom	NOMB.=s|GENRE=f
,	,	PONfbl	MORPH=empty
La	le	DETdef	NOMB.=s|GENRE=f
beauté	beauté	NOMcom	NOMB.=s|GENRE=f
que	que	PROrel	NOMB.=s|GENRE=f|CAS=r
je	je	PROper	PERS.=1|NOMB.=s|GENRE=x|CAS=n
peins	peindre	VERcjg	MODE=ind|TEMPS=pst|PERS.=1|NOMB.=s
Soit	être	VERcjg	MODE=sub|TEMPS=pst|PERS.=3|NOMB.=s
par	par	PRE	MORPH=empty
vous	vous	PROper	PERS.=2|NOMB.=p|GENRE=x|CAS=r
peinte	peindre	VERppe	NOMB.=s|GENRE=f
.	.	PONfrt	MORPH=empty
Venez	venir	VERcjg	MODE=imp|PERS.=2|NOMB.=p
sur	sur	PRE	MORPH=empty
ses	son	DETpos	PERS.=3|NOMB.=p|GENRE=m
cheveux	cheveu	NOMcom	NOMB.=p|GENRE=m
Des	un	DETndf	NOMB.=p|GENRE=m
pleurs	pleur	NOMcom	NOMB.=p|GENRE=m
épandre	épandre	VERinf	MORPH=empty
,	,	PONfbl	MORPH=empty
Lamentez	lamenter	VERcjg	MODE=imp|PERS.=2|NOMB.=p
ces	ce	DETdem	NOMB.=p|GENRE=m
beaux	beau	ADJqua	NOMB.=p|GENRE=m
feux	feu	NOMcom	NOMB.=p|GENRE=m
Qui	qui	PROrel	NOMB.=p|GENRE=m|CAS=n
sont	être	VERcjg	MODE=ind|TEMPS=pst|PERS.=3|NOMB.=p
en	en	PROadv	MORPH=empty
cendre	cendre	NOMcom	NOMB.=s|GENRE=f
,	,	PONfbl	MORPH=empty
Pleurez	pleurer	VERcjg	MODE=imp|PERS.=2|NOMB.=p
ce	ce	DETdem	NOMB.=s|GENRE=m
teint	teint	NOMcom	NOMB.=s|GENRE=m
de	de	PRE	MORPH=empty
lys	lys	NOMcom	NOMB.=s|GENRE=m
,	,	PONfbl	MORPH=empty
Sa	son	DETpos	PERS.=1|NOMB.=s|GENRE=f
bouche	bouche	NOMcom	NOMB.=s|GENRE=f
belle	beau	ADJqua	NOMB.=s|GENRE=f
.	.	PONfrt	MORPH=empty
Plaignez	plaindre	VERcjg	MODE=imp|PERS.=2|NOMB.=p
tous	tout	PROind	NOMB.=p|GENRE=m
ma	mon	DETpos	PERS.=1|NOMB.=s|GENRE=f
Philis	Philis	NOMcom	NOMB.=s|GENRE=f
,	,	PONfbl	MORPH=empty
Mais	mais	CONcoo	MORPH=empty
moi	je	PROper	PERS.=1|NOMB.=s|GENRE=x|CAS=i
plus	plus	ADVgen	MORPH=empty
qu'	que	CONsub	MORPH=empty
elle	il	PROper	PERS.=3|NOMB.=s|GENRE=f|CAS=n
.	.	PONfrt	MORPH=empty
Donnez	donner	VERcjg	MODE=imp|PERS.=2|NOMB.=p
à	à	PRE	MORPH=empty
la	le	DETdef	NOMB.=s|GENRE=f
pitié	pitié	NOMcom	NOMB.=s|GENRE=f
Qui	qui	PROrel	NOMB.=s|GENRE=f|CAS=n
m'	je	PROper	PERS.=1|NOMB.=s|GENRE=x|CAS=r
environne	environner	VERcjg	MODE=ind|TEMPS=pst|PERS.=3|NOMB.=s
Les	le	DETdef	NOMB.=p|GENRE=m
pleurs	pleur	NOMcom	NOMB.=p|GENRE=m
qu'	que	PROrel	NOMB.=p|GENRE=m|CAS=r
à	à	PRE	MORPH=empty
l'	le	DETdef	NOMB.=s|GENRE=f
amitié	amitié	NOMcom	NOMB.=s|GENRE=m
Sans	sans	PRE	MORPH=empty
fin	fin	NOMcom	NOMB.=s|GENRE=f
je	je	PROper	PERS.=1|NOMB.=s|GENRE=x|CAS=n
donne	donner	VERcjg	MODE=ind|TEMPS=pst|PERS.=1|NOMB.=s
.	.	PONfrt	MORPH=empty
