Les	le	DETdef	NOMB.=p|GENRE=m
portraits	portrait	NOMcom	NOMB.=p|GENRE=m
que	que	PROrel	NOMB.=p|GENRE=m|CAS=r
vous	vous	PROper	PERS.=2|NOMB.=p|GENRE=x|CAS=x
me	je	PROper	PERS.=1|NOMB.=s|GENRE=x|CAS=r
faites	faire	VERcjg	MODE=ind|TEMPS=pst|PERS.=2|NOMB.=p
sont	être	VERcjg	MODE=ind|TEMPS=pst|PERS.=3|NOMB.=p
bien	bien	ADVgen	MORPH=empty
détaillés	détailler	VERppe	NOMB.=p|GENRE=m
.	.	PONfrt	MORPH=empty
Je	je	PROper	PERS.=1|NOMB.=s|GENRE=x|CAS=n
ne	ne	ADVneg	MORPH=empty
me	je	PROper	PERS.=1|NOMB.=s|GENRE=x|CAS=r
rappelle	rappeler	VERcjg	MODE=ind|TEMPS=pst|PERS.=1|NOMB.=s
point	point	ADVneg	MORPH=empty
d'	de	PRE	MORPH=empty
avoir	avoir	VERinf	MORPH=empty
vu	voir	VERppe	NOMB.=s|GENRE=m
Monsieur	monsieur	NOMcom	NOMB.=s|GENRE=m
Walpole	Walpole	NOMpro	NOMB.=s|GENRE=m
.	.	PONfrt	MORPH=empty
Ces	ce	DETdem	NOMB.=p|GENRE=f
bouches	bouche	NOMcom	NOMB.=p|GENRE=f
de	de	PRE	MORPH=empty
travers	travers	NOMcom	NOMB.=s|GENRE=m
,	,	PONfbl	MORPH=empty
je	je	PROper	PERS.=1|NOMB.=s|GENRE=x|CAS=n
crois	croire	VERcjg	MODE=ind|TEMPS=pst|PERS.=1|NOMB.=s
,	,	PONfbl	MORPH=empty
ont	avoir	VERcjg	MODE=ind|TEMPS=pst|PERS.=3|NOMB.=p
un	un	DETndf	NOMB.=s|GENRE=m
air	air	NOMcom	NOMB.=s|GENRE=m
un	un	DETndf	NOMB.=s|GENRE=m
peu	peu	PROind	NOMB.=s|GENRE=m
extraordinaire	extraordinaire	ADJqua	NOMB.=s|GENRE=m
;	;	PONfbl	MORPH=empty
qui	qui	PROint	NOMB.=s|GENRE=x|CAS=n
sait	savoir	VERcjg	MODE=ind|TEMPS=pst|PERS.=3|NOMB.=s
dans	dans	PRE	MORPH=empty
quel	quel	DETrel	NOMB.=s|GENRE=m
embarras	embarras	NOMcom	NOMB.=s|GENRE=m
ils	il	PROper	PERS.=3|NOMB.=p|GENRE=m|CAS=n
ont	avoir	VERcjg	MODE=ind|TEMPS=pst|PERS.=3|NOMB.=p
été	être	VERppe	NOMB.=s|GENRE=m
le	le	DETdef	NOMB.=s|GENRE=m
jour	jour	NOMcom	NOMB.=s|GENRE=m
de	de	PRE	MORPH=empty
la	le	DETdef	NOMB.=s|GENRE=f
noce	noce	NOMcom	NOMB.=s|GENRE=f
pour	pour	PRE	MORPH=empty
éteindre	éteindre	VERinf	MORPH=empty
la	le	DETdef	NOMB.=s|GENRE=f
chandelle	chandelle	NOMcom	NOMB.=s|GENRE=f
?	?	PONfrt	MORPH=empty
Vous	vous	PROper	PERS.=2|NOMB.=p|GENRE=x|CAS=x
avez	avoir	VERcjg	MODE=ind|TEMPS=pst|PERS.=2|NOMB.=p
joué	jouer	VERppe	NOMB.=s|GENRE=m
la	le	DETdef	NOMB.=s|GENRE=f
comédie	comédie	NOMcom	NOMB.=s|GENRE=f
.	.	PONfrt	MORPH=empty
Certainement	certainement	ADVgen	MORPH=empty
il	il	PROper	PERS.=3|NOMB.=s|GENRE=m|CAS=n
y	y	PROadv	MORPH=empty
a	avoir	VERcjg	MODE=ind|TEMPS=pst|PERS.=3|NOMB.=s
encore	encore	ADVgen	MORPH=empty
eu	avoir	VERppe	NOMB.=s|GENRE=m
un	un	DETndf	NOMB.=s|GENRE=m
petit	petit	ADJqua	NOMB.=s|GENRE=m
combat	combat	NOMcom	NOMB.=s|GENRE=m
entre	entre	PRE	MORPH=empty
vous	vous	PROper	PERS.=2|NOMB.=p|GENRE=x|CAS=x
et	et	CONcoo	MORPH=empty
l'	le	DETdef	NOMB.=s|GENRE=m
amour	amour	NOMcom	NOMB.=s|GENRE=m
-	-	PONfbl	MORPH=empty
propre	propre	ADJqua	NOMB.=s|GENRE=m
,	,	PONfbl	MORPH=empty
mais	mais	CONcoo	MORPH=empty
quand	quand	CONsub	MORPH=empty
on	on	PROind	PERS.=3|NOMB.=s|GENRE=x|CAS=n
représente	représenter	VERcjg	MODE=ind|TEMPS=pst|PERS.=3|NOMB.=s
une	un	DETndf	NOMB.=s|GENRE=f
chose	chose	NOMcom	NOMB.=s|GENRE=f
à	à	PRE	MORPH=empty
laquelle	lequel	PROrel	NOMB.=s|GENRE=f
on	on	PROind	PERS.=3|NOMB.=s|GENRE=x|CAS=n
n'	ne	ADVneg	MORPH=empty
est	être	VERcjg	MODE=ind|TEMPS=pst|PERS.=3|NOMB.=s
point	point	ADVneg	MORPH=empty
accoutumé	accoutumer	VERppe	NOMB.=s|GENRE=m
,	,	PONfbl	MORPH=empty
et	et	CONcoo	MORPH=empty
qu'	que	CONsub	MORPH=empty
on	on	PROind	PERS.=3|NOMB.=s|GENRE=x|CAS=n
remporte	remporter	VERcjg	MODE=ind|TEMPS=pst|PERS.=3|NOMB.=s
l'	le	DETdef	NOMB.=s|GENRE=f
approbation	approbation	NOMcom	NOMB.=s|GENRE=f
de	de	PRE	MORPH=empty
toute	tout	DETind	NOMB.=s|GENRE=f
une	un	DETndf	NOMB.=s|GENRE=f
compagnie	compagnie	NOMcom	NOMB.=s|GENRE=f
,	,	PONfbl	MORPH=empty
il	il	PROper	PERS.=3|NOMB.=s|GENRE=m|CAS=n
est	être	VERcjg	MODE=ind|TEMPS=pst|PERS.=3|NOMB.=s
bien	bien	ADVgen	MORPH=empty
permis	permettre	VERppe	NOMB.=s|GENRE=m
à	à	PRE	MORPH=empty
la	le	DETdef	NOMB.=s|GENRE=f
vanité	vanité	NOMcom	NOMB.=s|GENRE=f
de	de	PRE	MORPH=empty
se	se	PROper	PERS.=3|NOMB.=x|GENRE=x|CAS=x
réjouir	réjouir	VERinf	MORPH=empty
un	un	DETndf	NOMB.=s|GENRE=m
peu	peu	PROind	NOMB.=s|GENRE=m
,	,	PONfbl	MORPH=empty
surtout	surtout	ADVgen	MORPH=empty
quand	quand	CONsub	MORPH=empty
on	on	PROind	PERS.=3|NOMB.=s|GENRE=x|CAS=n
sait	savoir	VERcjg	MODE=ind|TEMPS=pst|PERS.=3|NOMB.=s
y	y	PROadv	MORPH=empty
mettre	mettre	VERinf	MORPH=empty
des	un	DETndf	NOMB.=p|GENRE=f
bornes	borne	NOMcom	NOMB.=p|GENRE=f
.	.	PONfrt	MORPH=empty
Comme	comme	CONsub	MORPH=empty
vous	vous	PROper	PERS.=2|NOMB.=p|GENRE=x|CAS=x
m'	je	PROper	PERS.=1|NOMB.=s|GENRE=x|CAS=r
en	en	PROadv	MORPH=empty
faites	faire	VERcjg	MODE=ind|TEMPS=pst|PERS.=2|NOMB.=p
un	un	DETndf	NOMB.=s|GENRE=m
fort	fort	ADVgen	MORPH=empty
joli	joli	ADJqua	NOMB.=s|GENRE=m
petit	petit	ADJqua	NOMB.=s|GENRE=m
discours	discours	NOMcom	NOMB.=s|GENRE=m
!	!	PONfrt	MORPH=empty
La	le	DETdef	NOMB.=s|GENRE=f
dame	dame	NOMcom	NOMB.=s|GENRE=f
anglaise	anglais	ADJqua	NOMB.=s|GENRE=f
décidera	décider	VERcjg	MODE=ind|TEMPS=fut|PERS.=3|NOMB.=s
sans	sans	PRE	MORPH=empty
appel	appel	NOMcom	NOMB.=s|GENRE=f
en	en	PRE	MORPH=empty
votre	votre	DETpos	PERS.=2|NOMB.=s|GENRE=f
faveur	faveur	NOMcom	NOMB.=s|GENRE=f
et	et	CONcoo	MORPH=empty
pour	pour	PRE	MORPH=empty
cette	ce	DETdem	NOMB.=s|GENRE=f
fois	fois	NOMcom	NOMB.=s|GENRE=f
ne	ne	ADVneg	MORPH=empty
se	se	PROper	PERS.=3|NOMB.=x|GENRE=x|CAS=x
trompera	tromper	VERcjg	MODE=ind|TEMPS=fut|PERS.=3|NOMB.=s
point	point	ADVneg	MORPH=empty
.	.	PONfrt	MORPH=empty
