J’	je	PROper	PERS.=1|NOMB.=s|GENRE=x|CAS=n
avais	avoir	VERcjg	MODE=ind|TEMPS=ipf|PERS.=1|NOMB.=s
douze	douze	DETcar	NOMB.=p|GENRE=m
ans	an	NOMcom	NOMB.=p|GENRE=m
,	,	PONfbl	MORPH=empty
le	le	DETdef	NOMB.=s|GENRE=m
langage	langage	NOMcom	NOMB.=s|GENRE=m
et	et	CONcoo	MORPH=empty
les	le	DETdef	NOMB.=p|GENRE=f
manières	manière	NOMcom	NOMB.=p|GENRE=f
d’	de	PRE	MORPH=empty
un	un	DETndf	NOMB.=s|GENRE=m
garçon	garçon	NOMcom	NOMB.=s|GENRE=m
intelligent	intelligent	ADJqua	NOMB.=s|GENRE=m
,	,	PONfbl	MORPH=empty
un	un	DETndf	NOMB.=s|GENRE=m
peu	peu	PROind	NOMB.=s|GENRE=m
bourru	bourru	ADJqua	NOMB.=s|GENRE=m
,	,	PONfbl	MORPH=empty
mais	mais	CONcoo	MORPH=empty
la	le	DETdef	NOMB.=s|GENRE=f
dégaine	dégaine	NOMcom	NOMB.=s|GENRE=f
n’	ne	ADVneg	MORPH=empty
était	être	VERcjg	MODE=ind|TEMPS=ipf|PERS.=3|NOMB.=s
point	point	ADVneg	MORPH=empty
garçonnière	garçonnière	NOMcom	NOMB.=s|GENRE=f
,	,	PONfbl	MORPH=empty
à	à	PRE	MORPH=empty
cause	cause	NOMcom	NOMB.=s|GENRE=f
d’	de	PRE	MORPH=empty
un	un	DETndf	NOMB.=s|GENRE=m
corps	corps	NOMcom	NOMB.=s|GENRE=m
déjà	déjà	ADVgen	MORPH=empty
façonné	façonner	VERppe	NOMB.=s|GENRE=m
fémininement	fémininement	ADVgen	MORPH=empty
,	,	PONfbl	MORPH=empty
et	et	CONcoo	MORPH=empty
surtout	surtout	ADVgen	MORPH=empty
de	de	PRE	MORPH=empty
deux	deux	DETcar	NOMB.=p|GENRE=f
longues	long	ADJqua	NOMB.=p|GENRE=f
tresses	tresse	NOMcom	NOMB.=p|GENRE=f
,	,	PONfbl	MORPH=empty
sifflantes	siffler	VERppa	NOMB.=p|GENRE=f
comme	comme	CONsub	MORPH=empty
des	un	DETndf	NOMB.=p|GENRE=m
fouets	fouet	NOMcom	NOMB.=p|GENRE=m
autour	autour	ADVgen	MORPH=empty
de	de	PRE	MORPH=empty
moi	je	PROper	PERS.=1|NOMB.=s|GENRE=x|CAS=i
.	.	PONfrt	MORPH=empty
Elles	il	PROper	PERS.=3|NOMB.=p|GENRE=f
me	je	PROper	PERS.=1|NOMB.=s|GENRE=x|CAS=r
servaient	servir	VERcjg	MODE=ind|TEMPS=ipf|PERS.=3|NOMB.=p
de	de	PRE	MORPH=empty
cordes	corde	NOMcom	NOMB.=p|GENRE=f
à	à	PRE	MORPH=empty
passer	passer	VERinf	MORPH=empty
dans	dans	PRE	MORPH=empty
l’	le	DETdef	NOMB.=s|GENRE=f
anse	anse	NOMcom	NOMB.=s|GENRE=f
du	de_le	PRE.DETdef	NOMB.=s|GENRE=m
panier	panier	NOMcom	NOMB.=s|GENRE=m
à	à	PRE	MORPH=empty
goûter	goûter	VERinf	MORPH=empty
,	,	PONfbl	MORPH=empty
de	de	PRE	MORPH=empty
pinceaux	pinceau	NOMcom	NOMB.=p|GENRE=m
à	à	PRE	MORPH=empty
tremper	tremper	VERinf	MORPH=empty
dans	dans	PRE	MORPH=empty
l’	le	DETdef	NOMB.=s|GENRE=f
encre	encre	NOMcom	NOMB.=s|GENRE=f
ou	ou	CONcoo	MORPH=empty
la	le	DETdef	NOMB.=s|GENRE=f
couleur	couleur	NOMcom	NOMB.=s|GENRE=f
,	,	PONfbl	MORPH=empty
de	de	PRE	MORPH=empty
lanières	lanière	NOMcom	NOMB.=p|GENRE=f
à	à	PRE	MORPH=empty
corriger	corriger	VERinf	MORPH=empty
le	le	DETdef	NOMB.=s|GENRE=m
chien	chien	NOMcom	NOMB.=s|GENRE=m
,	,	PONfbl	MORPH=empty
de	de	PRE	MORPH=empty
ruban	ruban	NOMcom	NOMB.=s|GENRE=m
à	à	PRE	MORPH=empty
faire	faire	VERinf	MORPH=empty
jouer	jouer	VERinf	MORPH=empty
le	le	DETdef	NOMB.=s|GENRE=m
chat	chat	NOMcom	NOMB.=s|GENRE=m
.	.	PONfrt	MORPH=empty
Ma	mon	DETpos	PERS.=1|NOMB.=s|GENRE=f
mère	mère	NOMcom	NOMB.=s|GENRE=f
gémissait	gémir	VERcjg	MODE=ind|TEMPS=ipf|PERS.=3|NOMB.=s
de	de	PRE	MORPH=empty
me	je	PROper	PERS.=1|NOMB.=s|GENRE=x|CAS=r
voir	voir	VERinf	MORPH=empty
massacrer	massacrer	VERinf	MORPH=empty
ces	ce	DETdem	NOMB.=p|GENRE=f
étrivières	étrivière	NOMcom	NOMB.=p|GENRE=f
d’	de	PRE	MORPH=empty
or	or	NOMcom	NOMB.=s|GENRE=m
châtain	châtain	ADJqua	NOMB.=s|GENRE=m
,	,	PONfbl	MORPH=empty
qui	qui	PROrel	NOMB.=p|GENRE=f|CAS=n
me	je	PROper	PERS.=1|NOMB.=s|GENRE=x|CAS=r
valaient	valoir	VERcjg	MODE=ind|TEMPS=ipf|PERS.=3|NOMB.=p
,	,	PONfbl	MORPH=empty
chaque	chaque	DETind	NOMB.=s|GENRE=m
matin	matin	NOMcom	NOMB.=s|GENRE=m
,	,	PONfbl	MORPH=empty
de	de	PRE	MORPH=empty
me	je	PROper	PERS.=1|NOMB.=s|GENRE=x|CAS=r
lever	lever	VERinf	MORPH=empty
une	un	DETndf	NOMB.=s|GENRE=f
demi	demi	NOMcom	NOMB.=s|GENRE=f
-	-	PONfbl	MORPH=empty
heure	heure	NOMcom	NOMB.=s|GENRE=f
plus	plus	ADVgen	MORPH=empty
tôt	tôt	ADVgen	MORPH=empty
que	que	CONsub	MORPH=empty
mes	mon	DETpos	PERS.=1|NOMB.=p|GENRE=x
camarades	camarade	NOMcom	NOMB.=p|GENRE=x
d’	de	PRE	MORPH=empty
école	école	NOMcom	NOMB.=s|GENRE=f
.	.	PONfrt	MORPH=empty
