C'	ce	PROdem	NOMB.=s|GENRE=n
était	être	VERcjg	MODE=ind|TEMPS=ipf|PERS.=3|NOMB.=s
dans	dans	PRE	MORPH=empty
la	le	DETdef	NOMB.=s|GENRE=f
plus	plus	ADVgen	MORPH=empty
grande	grand	ADJqua	NOMB.=s|GENRE=f
et	et	CONcoo	MORPH=empty
la	le	DETdef	NOMB.=s|GENRE=f
plus	plus	ADVgen	MORPH=empty
superbe	superbe	ADJqua	NOMB.=s|GENRE=f
ville	ville	NOMcom	NOMB.=s|GENRE=f
de	de	PRE	MORPH=empty
la	le	DETdef	NOMB.=s|GENRE=f
terre	terre	NOMcom	NOMB.=s|GENRE=f
,	,	PONfbl	MORPH=empty
dans	dans	PRE	MORPH=empty
un	un	DETndf	NOMB.=s|GENRE=m
palais	palais	NOMcom	NOMB.=s|GENRE=m
des	de_le	PRE.DETdef	NOMB.=p|GENRE=m
plus	plus	ADVgen	MORPH=empty
magnifiques	magnifique	ADJqua	NOMB.=p|GENRE=m
et	et	CONcoo	MORPH=empty
dans	dans	PRE	MORPH=empty
une	un	DETndf	NOMB.=s|GENRE=f
chambre	chambre	NOMcom	NOMB.=s|GENRE=f
des	de_le	PRE.DETdef	NOMB.=p|GENRE=f
plus	plus	ADVgen	MORPH=empty
brillantes	briller	VERppa	NOMB.=p|GENRE=f
,	,	PONfbl	MORPH=empty
que	que	CONsub	MORPH=empty
trois	trois	PROcar	NOMB.=p|GENRE=x
des	de_le	PRE.DETdef	NOMB.=p|GENRE=m
plus	plus	ADVgen	MORPH=empty
spirituels	spirituel	ADJqua	NOMB.=p|GENRE=m
et	et	CONcoo	MORPH=empty
des	de_le	PRE.DETdef	NOMB.=p|GENRE=m
plus	plus	ADVgen	MORPH=empty
charmants	charmer	VERppa	NOMB.=p|GENRE=m
objets	objet	NOMcom	NOMB.=p|GENRE=m
du	de_le	PRE.DETdef	NOMB.=s|GENRE=m
monde	monde	NOMcom	NOMB.=s|GENRE=m
attendaient	attendre	VERcjg	MODE=ind|TEMPS=ipf|PERS.=3|NOMB.=s
avec	avec	PRE	MORPH=empty
impatience	impatience	NOMcom	NOMB.=s|GENRE=f
le	le	DETdef	NOMB.=s|GENRE=m
galant	galant	ADJqua	NOMB.=s|GENRE=m
Théodate	Théodate	NOMpro	NOMB.=s|GENRE=m
,	,	PONfbl	MORPH=empty
qui	qui	PROrel	NOMB.=s|GENRE=m|CAS=n
leur	il	PROper	PERS.=3|NOMB.=p|GENRE=x|CAS=i
devait	devoir	VERcjg	MODE=ind|TEMPS=ipf|PERS.=3|NOMB.=s
venir	venir	VERinf	MORPH=empty
raconter	raconter	VERinf	MORPH=empty
une	un	DETndf	NOMB.=s|GENRE=f
histoire	histoire	NOMcom	NOMB.=s|GENRE=f
,	,	PONfbl	MORPH=empty
dont	dont	PROrel	NOMB.=s|GENRE=f|CAS=r
il	il	PROper	PERS.=3|NOMB.=s|GENRE=m|CAS=n
leur	il	PROper	PERS.=3|NOMB.=s|GENRE=x|CAS=i
avait	avoir	VERcjg	MODE=ind|TEMPS=ipf|PERS.=3|NOMB.=s
fait	faire	VERppe	NOMB.=s|GENRE=m
grand	grand	ADJqua	NOMB.=s|GENRE=m
récit	récit	NOMcom	NOMB.=s|GENRE=m
quelques	quelque	DETrel	NOMB.=p|GENRE=m
jours	jour	NOMcom	NOMB.=p|GENRE=m
auparavant	auparavant	ADVgen	MORPH=empty
.	.	PONfrt	MORPH=empty
Pendant	pendant	PRE	MORPH=empty
qu'	que	CONsub	MORPH=empty
elles	il	PROper	PERS.=3|NOMB.=p|GENRE=f
étaient	être	VERcjg	MODE=ind|TEMPS=ipf|PERS.=3|NOMB.=p
dans	dans	PRE	MORPH=empty
cette	ce	DETdem	NOMB.=s|GENRE=f
impatience	impatience	NOMcom	NOMB.=s|GENRE=f
,	,	PONfbl	MORPH=empty
je	je	PROper	PERS.=1|NOMB.=s|GENRE=x|CAS=n
vins	venir	VERcjg	MODE=ind|TEMPS=psp|PERS.=1|NOMB.=s
par	par	PRE	MORPH=empty
hasard	hasard	NOMcom	NOMB.=s|GENRE=m
visiter	visiter	VERinf	MORPH=empty
la	le	DETdef	NOMB.=s|GENRE=f
maîtresse	maître	NOMcom	NOMB.=s|GENRE=f
de	de	PRE	MORPH=empty
cette	ce	DETdem	NOMB.=s|GENRE=f
charmante	charmer	VERppa	NOMB.=s|GENRE=f
maison	maison	NOMcom	NOMB.=s|GENRE=f
,	,	PONfbl	MORPH=empty
qui	qui	PROrel	NOMB.=s|GENRE=f|CAS=n
ne	ne	ADVneg	MORPH=empty
m'	je	PROper	PERS.=1|NOMB.=s|GENRE=x|CAS=r
eut	avoir	VERcjg	MODE=ind|TEMPS=psp|PERS.=3|NOMB.=s
pas	pas	ADVneg	MORPH=empty
plus	plus	ADVgen	MORPH=empty
tôt	tôt	ADVgen	MORPH=empty
reconnu	reconnaître	VERppe	NOMB.=s|GENRE=m
qu'	que	CONsub	MORPH=empty
elle	il	PROper	PERS.=3|NOMB.=s|GENRE=f|CAS=n
me	je	PROper	PERS.=1|NOMB.=s|GENRE=x|CAS=r
dit	dire	VERcjg	MODE=ind|TEMPS=psp|PERS.=3|NOMB.=s
:	:	PONfbl	MORPH=empty
—	-	PONfbl	MORPH=empty
Je	je	PROper	PERS.=1|NOMB.=s|GENRE=x|CAS=n
ne	ne	ADVneg	MORPH=empty
sais	savoir	VERcjg	MODE=ind|TEMPS=pst|PERS.=1|NOMB.=s
si	si	CONsub	MORPH=empty
votre	votre	DETpos	PERS.=2|NOMB.=s|GENRE=f
arrivée	arrivée	NOMcom	NOMB.=s|GENRE=f
n'	ne	ADVneg	MORPH=empty
aura	avoir	VERcjg	MODE=ind|TEMPS=fut|PERS.=3|NOMB.=s
point	point	ADVneg	MORPH=empty
causé	causer	VERppe	NOMB.=s|GENRE=m
de	de	PRE	MORPH=empty
chagrin	chagrin	NOMcom	NOMB.=s|GENRE=m
à	à	PRE	MORPH=empty
ces	ce	DETdem	NOMB.=p|GENRE=f
dames	dame	NOMcom	NOMB.=p|GENRE=f
,	,	PONfbl	MORPH=empty
mais	mais	CONcoo	MORPH=empty
je	je	PROper	PERS.=1|NOMB.=s|GENRE=x|CAS=n
vous	vous	PROper	PERS.=2|NOMB.=p|GENRE=x|CAS=x
avoue	avouer	VERcjg	MODE=ind|TEMPS=pst|PERS.=1|NOMB.=s
que	que	CONsub	MORPH=empty
je	je	PROper	PERS.=1|NOMB.=s|GENRE=x|CAS=n
ne	ne	ADVneg	MORPH=empty
vous	vous	PROper	PERS.=2|NOMB.=p|GENRE=x|CAS=x
ai	avoir	VERcjg	MODE=ind|TEMPS=pst|PERS.=1|NOMB.=s
pu	pouvoir	VERppe	NOMB.=s|GENRE=m
voir	voir	VERinf	MORPH=empty
sans	sans	PRE	MORPH=empty
quelque	quelque	DETrel	NOMB.=s|GENRE=f
sorte	sorte	NOMcom	NOMB.=s|GENRE=f
de	de	PRE	MORPH=empty
dépit	dépit	NOMcom	NOMB.=s|GENRE=m
.	.	PONfrt	MORPH=empty
