Le	le	DETdef	NOMB.=s|GENRE=m
Loup	loup	NOMcom	NOMB.=s|GENRE=m
ne	ne	ADVneg	MORPH=empty
fut	être	VERcjg	MODE=ind|TEMPS=psp|PERS.=3|NOMB.=s
pas	pas	ADVneg	MORPH=empty
longtemps	longtemps	ADVgen	MORPH=empty
à	à	PRE	MORPH=empty
arriver	arriver	VERinf	MORPH=empty
à	à	PRE	MORPH=empty
la	le	DETdef	NOMB.=s|GENRE=f
maison	maison	NOMcom	NOMB.=s|GENRE=f
de	de	PRE	MORPH=empty
la	le	DETdef	NOMB.=s|GENRE=f
mère-grand	mère-grand	NOMcom	NOMB.=s|GENRE=f
;	;	PONfbl	MORPH=empty
il	il	PROper	PERS.=3|NOMB.=s|GENRE=m|CAS=n
heurte	heurter	VERcjg	MODE=ind|TEMPS=pst|PERS.=3|NOMB.=s
:	:	PONfbl	MORPH=empty
toc	toc	INJ	MORPH=empty
,	,	PONfbl	MORPH=empty
toc	toc	INJ	MORPH=empty
.	.	PONfrt	MORPH=empty
—	-	PONfbl	MORPH=empty
Qui	qui	PROint	NOMB.=s|GENRE=x|CAS=n
est	être	VERcjg	MODE=ind|TEMPS=pst|PERS.=3|NOMB.=s
là	là	ADVgen	MORPH=empty
?	?	PONfrt	MORPH=empty
—	-	PONfbl	MORPH=empty
C’	ce	PROdem	NOMB.=s|GENRE=n
est	être	VERcjg	MODE=ind|TEMPS=pst|PERS.=3|NOMB.=s
votre	votre	DETpos	PERS.=2|NOMB.=p|GENRE=f
fille	fille	NOMcom	NOMB.=s|GENRE=f
,	,	PONfbl	MORPH=empty
le	le	DETdef	NOMB.=s|GENRE=m
petit	petit	ADJqua	NOMB.=s|GENRE=m
Chaperon	chaperon	NOMcom	NOMB.=s|GENRE=m
rouge	rouge	ADJqua	NOMB.=s|GENRE=m
,	,	PONfbl	MORPH=empty
dit	dire	VERcjg	MODE=ind|TEMPS=pst|PERS.=3|NOMB.=s
le	le	DETdef	NOMB.=s|GENRE=m
Loup	loup	NOMcom	NOMB.=s|GENRE=m
en	en	PRE	MORPH=empty
contrefaisant	contrefaire	VERppa	NOMB.=x|GENRE=x
sa	son	DETpos	PERS.=3|NOMB.=s|GENRE=f
voix	voix	NOMcom	NOMB.=s|GENRE=f
,	,	PONfbl	MORPH=empty
qui	qui	PROrel	NOMB.=s|GENRE=m|CAS=n
vous	vous	PROper	PERS.=2|NOMB.=p|GENRE=x|CAS=i
apporte	apporter	VERcjg	MODE=ind|TEMPS=pst|PERS.=3|NOMB.=s
une	un	DETndf	NOMB.=s|GENRE=f
galette	galette	NOMcom	NOMB.=s|GENRE=f
et	et	CONcoo	MORPH=empty
un	un	DETndf	NOMB.=s|GENRE=m
petit	petit	ADJqua	NOMB.=s|GENRE=m
pot	pot	NOMcom	NOMB.=s|GENRE=m
de	de	PRE	MORPH=empty
beurre	beurre	NOMcom	NOMB.=s|GENRE=m
,	,	PONfbl	MORPH=empty
que	que	PROrel	NOMB.=s|GENRE=m|CAS=r
ma	mon	DETpos	PERS.=1|NOMB.=s|GENRE=f
mère	mère	NOMcom	NOMB.=s|GENRE=f
vous	vous	PROper	PERS.=2|NOMB.=p|GENRE=x|CAS=i
envoie	envoyer	VERcjg	MODE=ind|TEMPS=pst|PERS.=1|NOMB.=s
.	.	PONfrt	MORPH=empty
—	-	PONfbl	MORPH=empty
La	le	DETdef	NOMB.=s|GENRE=f
bonne	bon	ADJqua	NOMB.=s|GENRE=f
mère-grand	mère-grand	NOMcom	NOMB.=s|GENRE=f
,	,	PONfbl	MORPH=empty
qui	qui	PROrel	NOMB.=s|GENRE=f|CAS=n
était	être	VERcjg	MODE=ind|TEMPS=ipf|PERS.=3|NOMB.=s
dans	dans	PRE	MORPH=empty
son	son	DETpos	PERS.=3|NOMB.=s|GENRE=m
lit	lit	NOMcom	NOMB.=s|GENRE=m
,	,	PONfbl	MORPH=empty
à	à	PRE	MORPH=empty
cause	cause	NOMcom	NOMB.=s|GENRE=f
qu’	que	CONsub	MORPH=empty
elle	il	PROper	PERS.=3|NOMB.=s|GENRE=f|CAS=n
se	se	PROper	PERS.=3|NOMB.=x|GENRE=x|CAS=x
trouvait	trouver	VERcjg	MODE=ind|TEMPS=ipf|PERS.=3|NOMB.=s
un	un	DETndf	NOMB.=s|GENRE=m
peu	peu	PROind	NOMB.=s|GENRE=m
mal	mal	NOMcom	NOMB.=s|GENRE=m
,	,	PONfbl	MORPH=empty
lui	il	PROper	PERS.=3|NOMB.=s|GENRE=m|CAS=i
cria	crier	VERcjg	MODE=ind|TEMPS=psp|PERS.=3|NOMB.=s
:	:	PONfbl	MORPH=empty
Tire	tirer	VERinf	MODE=imp|PERS.=2|NOMB.=s
la	le	DETdef	NOMB.=s|GENRE=f
chevillette	chevillette	NOMcom	NOMB.=s|GENRE=f
,	,	PONfbl	MORPH=empty
la	le	DETdef	NOMB.=s|GENRE=f
bobinette	bobinette	NOMcom	NOMB.=s|GENRE=f
cherra	choir	VERcjg	MODE=ind|TEMPS=fut|PERS.=3|NOMB.=s
.	.	PONfrt	MORPH=empty
—	-	PONfbl	MORPH=empty
Le	le	DETdef	NOMB.=s|GENRE=m
Loup	loup	NOMcom	PERS.=3|NOMB.=s|GENRE=m
tira	tirer	VERcjg	MODE=ind|TEMPS=psp|PERS.=3|NOMB.=s
la	le	DETdef	NOMB.=s|GENRE=f
chevillette	chevillette	NOMcom	NOMB.=s|GENRE=f
,	,	PONfbl	MORPH=empty
et	et	CONcoo	MORPH=empty
la	le	DETdef	NOMB.=s|GENRE=f
porte	porte	NOMcom	NOMB.=s|GENRE=f
s’	se	PROper	PERS.=3|NOMB.=x|GENRE=x|CAS=x
ouvrit	ouvrir	VERcjg	MODE=ind|TEMPS=psp|PERS.=3|NOMB.=s
.	.	PONfrt	MORPH=empty
Il	il	PROper	PERS.=3|NOMB.=s|GENRE=m|CAS=n
se	se	PROper	PERS.=3|NOMB.=x|GENRE=x|CAS=x
jeta	jeter	VERcjg	MODE=ind|TEMPS=psp|PERS.=3|NOMB.=s
sur	sur	PRE	MORPH=empty
la	le	DETdef	NOMB.=s|GENRE=f
bonne	bon	ADJqua	NOMB.=s|GENRE=f
femme	femme	NOMcom	NOMB.=s|GENRE=f
,	,	PONfbl	MORPH=empty
et	et	CONcoo	MORPH=empty
la	il	PROper	PERS.=3|NOMB.=s|GENRE=f|CAS=r
dévora	dévorer	VERcjg	MODE=ind|TEMPS=psp|PERS.=3|NOMB.=s
en	en	PRE	MORPH=empty
moins	moins	ADVgen	MORPH=empty
de	de	PRE	MORPH=empty
rien	rien	PROind	NOMB.=s|GENRE=x
,	,	PONfbl	MORPH=empty
car	car	CONcoo	MORPH=empty
il	il	PROper	PERS.=3|NOMB.=s|GENRE=m|CAS=n
y	y	PROadv	MORPH=empty
avait	avoir	VERcjg	MODE=ind|TEMPS=ipf|PERS.=3|NOMB.=s
plus	plus	ADVgen	MORPH=empty
de	de	PRE	MORPH=empty
trois	trois	DETcar	NOMB.=p|GENRE=m
jours	jour	NOMcom	NOMB.=p|GENRE=m
qu’	que	CONsub	MORPH=empty
il	il	PROper	PERS.=3|NOMB.=s|GENRE=m|CAS=n
n’	n	ADVneg	MORPH=empty
avait	avoir	VERcjg	MODE=ind|TEMPS=ipf|PERS.=3|NOMB.=s
mangé	manger	VERppe	NOMB.=s|GENRE=m
.	.	PONfrt	MORPH=empty
