Un	un	DETndf	NOMB.=s|GENRE=m
jour	jour	NOMcom	NOMB.=s|GENRE=m
reconnaissant	reconnaître	VERppa	NOMB.=x|GENRE=x
que	que	CONsub	MORPH=empty
je	je	PROper	PERS.=1|NOMB.=s|GENRE=x|CAS=n
suis	être	VERcjg	MODE=ind|TEMPS=pst|PERS.=1|NOMB.=s
incapable	incapable	ADJqua	NOMB.=s|GENRE=x
,	,	PONfbl	MORPH=empty
Belle	beau	NOMcom	NOMB.=s|GENRE=f
,	,	PONfbl	MORPH=empty
de	de	PRE	MORPH=empty
vous	vous	PROper	PERS.=2|NOMB.=p|GENRE=x|CAS=x
servir	servir	VERinf	MORPH=empty
,	,	PONfbl	MORPH=empty
j'	je	PROper	PERS.=1|NOMB.=s|GENRE=x|CAS=n
en	en	PROadv	MORPH=empty
vins	venir	VERcjg	MODE=ind|TEMPS=psp|PERS.=1|NOMB.=p
au	à_le	PRE.DETdef	NOMB.=s|GENRE=m
désespoir	désespoir	NOMcom	NOMB.=s|GENRE=m
,	,	PONfbl	MORPH=empty
Et	et	CONcoo	MORPH=empty
prenant	prendre	VERppa	NOMB.=x|GENRE=x
le	le	DETdef	NOMB.=s|GENRE=m
chemin	chemin	NOMcom	NOMB.=s|GENRE=m
du	de_le	PRE.DETdef	NOMB.=s|GENRE=m
désert	désert	NOMcom	NOMB.=s|GENRE=m
effroyable	effroyable	ADJqua	NOMB.=s|GENRE=m
,	,	PONfbl	MORPH=empty
Je	je	PROper	PERS.=1|NOMB.=s|GENRE=x|CAS=n
voulus	vouloir	VERcjg	MODE=ind|TEMPS=psp|PERS.=1|NOMB.=s
m'	je	PROper	PERS.=1|NOMB.=s|GENRE=x|CAS=r
y	y	PROadv	MORPH=empty
cacher	cacher	VERinf	MORPH=empty
pour	pour	PRE	MORPH=empty
jamais	jamais	ADVgen	MORPH=empty
ne	ne	ADVneg	MORPH=empty
rien	rien	PROind	NOMB.=s|GENRE=x
voir	voir	VERinf	MORPH=empty
.	.	PONfrt	MORPH=empty
C'	ce	PROdem	NOMB.=s|GENRE=n
est	être	VERcjg	MODE=ind|TEMPS=pst|PERS.=3|NOMB.=s
bien	bien	ADVgen	MORPH=empty
avoir	avoir	VERinf	MORPH=empty
des	un	DETndf	NOMB.=p|GENRE=m
yeux	œil	NOMcom	NOMB.=p|GENRE=m
de	de	PRE	MORPH=empty
voir	voir	VERinf	MORPH=empty
ce	ce	PROdem	NOMB.=s|GENRE=n
qui	qui	PROrel	NOMB.=s|GENRE=n|CAS=n
s'	se	PROper	PERS.=3|NOMB.=x|GENRE=x|CAS=x
adresse	adresser	VERcjg	MODE=ind|TEMPS=pst|PERS.=3|NOMB.=s
,	,	PONfbl	MORPH=empty
Et	et	CONcoo	MORPH=empty
de	de	PRE	MORPH=empty
le	il	PROper	PERS.=3|NOMB.=s|GENRE=m|CAS=r
discerner	discerner	VERinf	MORPH=empty
.	.	PONfrt	MORPH=empty
Mais	mais	CONcoo	MORPH=empty
voir	voir	VERinf	MORPH=empty
parfaitement	parfaitement	ADVgen	MORPH=empty
Est	être	VERcjg	MODE=ind|TEMPS=pst|PERS.=3|NOMB.=s
voir	voir	VERinf	MORPH=empty
le	le	DETdef	NOMB.=s|GENRE=m
jour	jour	NOMcom	NOMB.=s|GENRE=m
heureux	heureux	ADJqua	NOMB.=s|GENRE=m
des	de_le	PRE.DETdef	NOMB.=p|GENRE=m
yeux	œil	NOMcom	NOMB.=p|GENRE=m
de	de	PRE	MORPH=empty
sa	son	DETpos	PERS.=3|NOMB.=s|GENRE=f
maîtresse	maître	NOMcom	NOMB.=s|GENRE=f
,	,	PONfbl	MORPH=empty
Car	car	CONcoo	MORPH=empty
c'	ce	PROdem	NOMB.=s|GENRE=n
est	être	VERcjg	MODE=ind|TEMPS=pst|PERS.=3|NOMB.=s
voir	voir	VERinf	MORPH=empty
sans	sans	PRE	MORPH=empty
rien	rien	PROind	NOMB.=s|GENRE=x
voir	voir	VERinf	MORPH=empty
que	que	CONsub	MORPH=empty
de	de	PRE	MORPH=empty
voir	voir	VERinf	MORPH=empty
autrement	autrement	ADVgen	MORPH=empty
.	.	PONfrt	MORPH=empty
Pour	pour	PRE	MORPH=empty
donques	donques	ADVgen	MORPH=empty
ne	ne	ADVneg	MORPH=empty
rien	rien	PROind	NOMB.=s|GENRE=x
voir	voir	VERinf	MORPH=empty
,	,	PONfbl	MORPH=empty
j'	je	PROper	PERS.=1|NOMB.=s|GENRE=x|CAS=n
élus	élire	VERcjg	MODE=ind|TEMPS=psp|PERS.=1|NOMB.=s
un	un	DETndf	NOMB.=s|GENRE=m
ermitage	ermitage	NOMcom	NOMB.=s|GENRE=m
Pour	pour	PRE	MORPH=empty
le	le	DETdef	NOMB.=s|GENRE=m
lieu	lieu	NOMcom	NOMB.=s|GENRE=m
destiné	destiner	VERppe	NOMB.=s|GENRE=m
du	de_le	PRE.DETdef	NOMB.=s|GENRE=m
reste	reste	NOMcom	NOMB.=s|GENRE=m
de	de	PRE	MORPH=empty
mes	mon	DETpos	PERS.=1|NOMB.=p|GENRE=m
jours	jour	NOMcom	NOMB.=p|GENRE=m
,	,	PONfbl	MORPH=empty
Et	et	CONcoo	MORPH=empty
me	je	PROper	PERS.=1|NOMB.=s|GENRE=x|CAS=r
déterminant	déterminer	VERppa	NOMB.=x|GENRE=x
dans	dans	PRE	MORPH=empty
sa	son	DETpos	PERS.=3|NOMB.=s|GENRE=f
grotte	grotte	NOMcom	NOMB.=s|GENRE=f
sauvage	sauvage	ADJqua	NOMB.=s|GENRE=f
,	,	PONfbl	MORPH=empty
J'	je	PROper	PERS.=1|NOMB.=s|GENRE=x|CAS=n
y	y	PROadv	MORPH=empty
pensais	penser	VERcjg	MODE=ind|TEMPS=ipf|PERS.=1|NOMB.=s
consumer	consumer	VERinf	MORPH=empty
ma	mon	DETpos	PERS.=1|NOMB.=s|GENRE=f
vie	vie	NOMcom	NOMB.=s|GENRE=f
et	et	CONcoo	MORPH=empty
mes	mon	DETpos	PERS.=1|NOMB.=p|GENRE=f
amours	amour	NOMcom	NOMB.=p|GENRE=f
.	.	PONfrt	MORPH=empty
